EESchema Schematic File Version 4
EELAYER 30 0
EELAYER END
$Descr A4 11693 8268
encoding utf-8
Sheet 1 1
Title ""
Date ""
Rev ""
Comp ""
Comment1 ""
Comment2 ""
Comment3 ""
Comment4 ""
$EndDescr
$Comp
L fab:R_POT_10K_Trimmer RV1
U 1 1 5FBBED64
P 5050 3700
F 0 "RV1" H 4980 3746 50  0000 R CNN
F 1 "R_POT_10K_Trimmer" H 4980 3655 50  0000 R CNN
F 2 "fab:Potentiometer_TT_Model-23_4.5x5.0x3.0mm" H 5050 3700 50  0001 C CNN
F 3 "https://www.ttelectronics.com/TTElectronics/media/ProductFiles/Trimmers/Datasheets/23.pdf" H 5050 3700 50  0001 C CNN
	1    5050 3700
	1    0    0    -1  
$EndComp
$Comp
L Amplifier_Audio:LM386 U1
U 1 1 5FBBF270
P 5725 3800
F 0 "U1" H 6069 3846 50  0000 L CNN
F 1 "LM386" H 6069 3755 50  0000 L CNN
F 2 "fab:SOIC-8_3.9x4.9mm_P1.27mm" H 5825 3900 50  0001 C CNN
F 3 "http://www.ti.com/lit/ds/symlink/lm386.pdf" H 5925 4000 50  0001 C CNN
	1    5725 3800
	1    0    0    -1  
$EndComp
$Comp
L fab:CP C1
U 1 1 5FBBFCC8
P 5775 4800
F 0 "C1" V 6030 4800 50  0000 C CNN
F 1 "10uF" V 5939 4800 50  0000 C CNN
F 2 "Capacitor_SMD:CP_Elec_4x5.4" H 5775 4800 50  0001 C CNN
F 3 "" H 5775 4800 50  0001 C CNN
	1    5775 4800
	0    -1   -1   0   
$EndComp
$Comp
L fab:CP C2
U 1 1 5FBC0537
P 6075 3050
F 0 "C2" V 6330 3050 50  0000 C CNN
F 1 "10uF" V 6239 3050 50  0000 C CNN
F 2 "Capacitor_SMD:CP_Elec_4x5.4" H 6075 3050 50  0001 C CNN
F 3 "" H 6075 3050 50  0001 C CNN
	1    6075 3050
	0    -1   -1   0   
$EndComp
$Comp
L fab:CP C4
U 1 1 5FBC0F69
P 6650 4100
F 0 "C4" V 6905 4100 50  0000 C CNN
F 1 "220uF" V 6814 4100 50  0000 C CNN
F 2 "Capacitor_SMD:CP_Elec_8x10.5" H 6650 4100 50  0001 C CNN
F 3 "" H 6650 4100 50  0001 C CNN
	1    6650 4100
	0    -1   -1   0   
$EndComp
$Comp
L fab:C C3
U 1 1 5FBC16D6
P 6225 4475
F 0 "C3" H 6340 4521 50  0000 L CNN
F 1 "0.047uF" H 6340 4430 50  0000 L CNN
F 2 "fab:fab-C1206" H 6263 4325 50  0001 C CNN
F 3 "" H 6225 4475 50  0001 C CNN
	1    6225 4475
	1    0    0    -1  
$EndComp
$Comp
L Device:R R1
U 1 1 5FBC26B6
P 6225 4900
F 0 "R1" H 6295 4946 50  0000 L CNN
F 1 "10" H 6295 4855 50  0000 L CNN
F 2 "fab:R_1206" V 6155 4900 50  0001 C CNN
F 3 "~" H 6225 4900 50  0001 C CNN
	1    6225 4900
	1    0    0    -1  
$EndComp
$Comp
L power:GND #PWR0101
U 1 1 5FBC3206
P 6225 5500
F 0 "#PWR0101" H 6225 5250 50  0001 C CNN
F 1 "GND" H 6230 5327 50  0000 C CNN
F 2 "" H 6225 5500 50  0001 C CNN
F 3 "" H 6225 5500 50  0001 C CNN
	1    6225 5500
	1    0    0    -1  
$EndComp
$Comp
L fab:Speaker LS1
U 1 1 5FBC5270
P 7400 4100
F 0 "LS1" H 7570 4096 50  0000 L CNN
F 1 "Speaker" H 7570 4005 50  0000 L CNN
F 2 "Connector_PinHeader_2.54mm:PinHeader_1x02_P2.54mm_Vertical" H 7400 3900 50  0001 C CNN
F 3 "~" H 7390 4050 50  0001 C CNN
	1    7400 4100
	1    0    0    -1  
$EndComp
$Comp
L Connector:Conn_01x02_Male J1
U 1 1 5FBC6E3E
P 4350 3300
F 0 "J1" H 4458 3481 50  0000 C CNN
F 1 "AUDIO IN" H 4458 3390 50  0000 C CNN
F 2 "Connector_PinHeader_2.54mm:PinHeader_1x02_P2.54mm_Vertical" H 4350 3300 50  0001 C CNN
F 3 "~" H 4350 3300 50  0001 C CNN
	1    4350 3300
	1    0    0    -1  
$EndComp
Wire Wire Line
	6225 4625 6225 4750
Wire Wire Line
	6025 3800 6225 3800
Wire Wire Line
	6225 3800 6225 4100
Wire Wire Line
	6225 5050 6225 5250
Wire Wire Line
	6225 4100 6500 4100
Connection ~ 6225 4100
Wire Wire Line
	6225 4100 6225 4325
Wire Wire Line
	6800 4100 7200 4100
Wire Wire Line
	5725 4100 5725 4250
Wire Wire Line
	5725 4250 5625 4250
Wire Wire Line
	5625 4250 5625 4800
Wire Wire Line
	5825 4100 5825 4250
Wire Wire Line
	5825 4250 5925 4250
Wire Wire Line
	5925 4250 5925 4800
Text Label 5200 2350 0    50   ~ 0
5V
Wire Wire Line
	5200 3700 5425 3700
Wire Wire Line
	5425 3900 5200 3900
Wire Wire Line
	5200 3900 5200 4175
Wire Wire Line
	5200 5250 6225 5250
Connection ~ 6225 5250
Wire Wire Line
	6225 5250 6225 5500
Text Label 5375 5250 0    50   ~ 0
GND
Wire Wire Line
	4550 3300 5050 3300
Wire Wire Line
	5050 3300 5050 3550
Wire Wire Line
	5050 3850 5050 4175
Wire Wire Line
	5050 5250 5200 5250
Connection ~ 5200 5250
Wire Wire Line
	4550 3400 4750 3400
Wire Wire Line
	4750 3400 4750 4175
Wire Wire Line
	4750 4175 5050 4175
Connection ~ 5050 4175
Wire Wire Line
	5050 4175 5050 5250
$Comp
L Connector:Conn_01x02_Male J2
U 1 1 5FBEA9FA
P 4375 2350
F 0 "J2" H 4483 2531 50  0000 C CNN
F 1 "POWER IN" H 4483 2440 50  0000 C CNN
F 2 "Connector_PinHeader_2.54mm:PinHeader_1x02_P2.54mm_Vertical" H 4375 2350 50  0001 C CNN
F 3 "~" H 4375 2350 50  0001 C CNN
	1    4375 2350
	1    0    0    -1  
$EndComp
Wire Wire Line
	4575 2350 5450 2350
Wire Wire Line
	5625 2350 5625 3500
Wire Wire Line
	4575 2450 5075 2450
Text Label 5075 2450 2    50   ~ 0
GND
Wire Wire Line
	5725 3525 5725 3500
Wire Wire Line
	5725 3050 5925 3050
Connection ~ 5725 3500
Wire Wire Line
	5725 3500 5725 3050
Wire Wire Line
	6225 3050 6800 3050
Text Label 6800 3050 2    50   ~ 0
GND
Wire Wire Line
	7200 4200 6800 4200
Wire Wire Line
	6800 4200 6800 5250
Wire Wire Line
	6800 5250 6475 5250
$Comp
L power:PWR_FLAG #FLG0101
U 1 1 5FC04701
P 6475 5250
F 0 "#FLG0101" H 6475 5325 50  0001 C CNN
F 1 "PWR_FLAG" H 6475 5423 50  0000 C CNN
F 2 "" H 6475 5250 50  0001 C CNN
F 3 "~" H 6475 5250 50  0001 C CNN
	1    6475 5250
	1    0    0    -1  
$EndComp
Connection ~ 6475 5250
Wire Wire Line
	6475 5250 6225 5250
$Comp
L power:PWR_FLAG #FLG0102
U 1 1 5FC04E79
P 5450 2350
F 0 "#FLG0102" H 5450 2425 50  0001 C CNN
F 1 "PWR_FLAG" H 5450 2523 50  0000 C CNN
F 2 "" H 5450 2350 50  0001 C CNN
F 3 "~" H 5450 2350 50  0001 C CNN
	1    5450 2350
	1    0    0    -1  
$EndComp
Connection ~ 5450 2350
Wire Wire Line
	5450 2350 5625 2350
Wire Wire Line
	5625 4100 5625 4175
Wire Wire Line
	5625 4175 5200 4175
Connection ~ 5200 4175
Wire Wire Line
	5200 4175 5200 5250
$EndSCHEMATC
