<?xml version="1.0" encoding="UTF-8" standalone="no"?>
<svg
   xmlns:dc="http://purl.org/dc/elements/1.1/"
   xmlns:cc="http://creativecommons.org/ns#"
   xmlns:rdf="http://www.w3.org/1999/02/22-rdf-syntax-ns#"
   xmlns:svg="http://www.w3.org/2000/svg"
   xmlns="http://www.w3.org/2000/svg"
   xmlns:sodipodi="http://sodipodi.sourceforge.net/DTD/sodipodi-0.dtd"
   xmlns:inkscape="http://www.inkscape.org/namespaces/inkscape"
   version="1.1"
   width="4800mm"
   height="2440mm"
   viewBox="0 0 4800 2440"
   id="svg170"
   sodipodi:docname="4800x2440_blank.svg"
   inkscape:version="1.0.1 (3bc2e81, 2020-09-07)">
  <metadata
     id="metadata176">
    <rdf:RDF>
      <cc:Work
         rdf:about="">
        <dc:format>image/svg+xml</dc:format>
        <dc:type
           rdf:resource="http://purl.org/dc/dcmitype/StillImage" />
        <dc:title></dc:title>
      </cc:Work>
    </rdf:RDF>
  </metadata>
  <defs
     id="defs174" />
  <sodipodi:namedview
     pagecolor="#ffffff"
     bordercolor="#666666"
     borderopacity="1"
     objecttolerance="10"
     gridtolerance="10"
     guidetolerance="10"
     inkscape:pageopacity="0"
     inkscape:pageshadow="2"
     inkscape:window-width="1294"
     inkscape:window-height="704"
     id="namedview172"
     showgrid="false"
     inkscape:document-units="mm"
     inkscape:zoom="0.028975385"
     inkscape:cx="9126.7804"
     inkscape:cy="4035.2498"
     inkscape:window-x="72"
     inkscape:window-y="27"
     inkscape:window-maximized="1"
     inkscape:current-layer="svg170" />
  <path
     style="fill:#000000;stroke:#000000;stroke-width:0.291218px;stroke-linecap:butt;stroke-linejoin:miter;stroke-opacity:1"
     d="M 1200.1867,0 V 2440"
     id="path4347" />
  <path
     style="fill:#000000;stroke:#000000;stroke-width:0.291219px;stroke-linecap:butt;stroke-linejoin:miter;stroke-opacity:1"
     d="M 2400.1456,0 V 2440"
     id="path4347-3" />
  <path
     style="fill:#000000;stroke:#000000;stroke-width:0.291219px;stroke-linecap:butt;stroke-linejoin:miter;stroke-opacity:1"
     d="M 3600.1456,0 V 2440"
     id="path4347-3-6" />
</svg>
