<?xml version="1.0" encoding="UTF-8"?>
<!-- Created by Vectric (http://www.vectric.com/) -->
<svg width="1220.00000000mm" height="1200.00000000mm" viewBox="0.00000000 0.00000000 1220.00000000 1200.00000000" id="svg2" version="1.1" xmlns="http://www.w3.org/2000/svg" xmlns:xlink="http://www.w3.org/1999/xlink" xmlns:inkscape="http://www.inkscape.org/namespaces/inkscape">
    <g inkscape:groupmode="layer" id="85667243-1302-4a85-b3ac-c7bf39b332ec" inkscape:label="Toolpath Previews" style="stroke:#000000;"/>
    <g inkscape:groupmode="layer" id="556fa9f3-174a-4c8c-8420-97d51bcf5491" inkscape:label="Cuts 07" style="stroke:#000000;">
        <path style="fill:none;stroke-width:0.280000;stroke-linecap:round;stroke-linejoin:round;stroke-opacity:1;stroke:#000000;" d="M 235.700435,1183.096319 L 15.591805,1024.182565 L 233.196391,347.577818 L 943.931150,345.451794 L 1165.585243,1020.742754 L 946.435194,1180.970294 L 235.700435,1183.096319 "/>
    </g>
</svg>
