<?xml version="1.0" encoding="UTF-8"?>
<!-- Created by Vectric (http://www.vectric.com/) -->
<svg width="1220.00000000mm" height="1200.00000000mm" viewBox="0.00000000 0.00000000 1220.00000000 1200.00000000" id="svg2" version="1.1" xmlns="http://www.w3.org/2000/svg" xmlns:xlink="http://www.w3.org/1999/xlink" xmlns:inkscape="http://www.inkscape.org/namespaces/inkscape">
    <g inkscape:groupmode="layer" id="85667243-1302-4a85-b3ac-c7bf39b332ec" inkscape:label="Toolpath Previews" style="stroke:#000000;"/>
    <g inkscape:groupmode="layer" id="eb54f94f-8217-46f7-a8e0-ef756dddf612" inkscape:label="Cuts 02" style="stroke:#000000;">
        <path style="fill:none;stroke-width:0.280000;stroke-linecap:round;stroke-linejoin:round;stroke-opacity:1;stroke:#000000;" d="M 161.576026,613.096796 L 161.576026,746.694946 A 3.020000,3.020000 0 0,0 165.846951,750.965871 L 175.305101,750.965871 A 3.020000,3.020000 0 0,0 179.576026,746.694946 L 179.576026,613.096796 A 3.020000,3.020000 0 0,0 175.305101,608.825871 L 165.846951,608.825871 A 3.020000,3.020000 0 0,0 161.576026,613.096796 "/>
        <path style="fill:none;stroke-width:0.280000;stroke-linecap:round;stroke-linejoin:round;stroke-opacity:1;stroke:#000000;" d="M 179.576026,1030.994946 L 179.576026,897.386796 A 3.020000,3.020000 0 0,0 175.305101,893.115871 L 165.846951,893.115871 A 3.020000,3.020000 0 0,0 161.576026,897.386796 L 161.576026,1030.994946 A 3.020000,3.020000 0 0,0 165.846951,1035.265871 L 175.305101,1035.265871 A 3.020000,3.020000 0 0,0 179.576026,1030.994946 "/>
        <path style="fill:none;stroke-width:0.280000;stroke-linecap:round;stroke-linejoin:round;stroke-opacity:1;stroke:#000000;" d="M 375.576026,613.096796 L 375.576026,746.694946 A 3.020000,3.020000 0 0,0 379.846951,750.965871 L 389.305101,750.965871 A 3.020000,3.020000 0 0,0 393.576026,746.694946 L 393.576026,613.096796 A 3.020000,3.020000 0 0,0 389.305101,608.825871 L 379.846951,608.825871 A 3.020000,3.020000 0 0,0 375.576026,613.096796 "/>
        <path style="fill:none;stroke-width:0.280000;stroke-linecap:round;stroke-linejoin:round;stroke-opacity:1;stroke:#000000;" d="M 375.576026,897.386796 L 375.576026,1030.994946 A 3.020000,3.020000 0 0,0 379.846951,1035.265871 L 389.305101,1035.265871 A 3.020000,3.020000 0 0,0 393.576026,1030.994946 L 393.576026,905.935871 L 393.576026,897.386796 A 3.020000,3.020000 0 0,0 389.305101,893.115871 L 379.846951,893.115871 A 3.020000,3.020000 0 0,0 375.576026,897.386796 "/>
        <path style="fill:none;stroke-width:0.280000;stroke-linecap:round;stroke-linejoin:round;stroke-opacity:1;stroke:#000000;" d="M 11.230184,36.295643 L 11.233184,36.295643 "/>
        <path style="fill:none;stroke-width:0.280000;stroke-linecap:round;stroke-linejoin:round;stroke-opacity:1;stroke:#000000;" d="M 11.230184,436.295843 L 11.233184,436.295843 "/>
        <path style="fill:none;stroke-width:0.280000;stroke-linecap:round;stroke-linejoin:round;stroke-opacity:1;stroke:#000000;" d="M 146.233219,108.295643 L 145.891805,108.299529 L 145.550533,108.311185 L 145.209615,108.330607 L 144.869228,108.357785 L 144.529547,108.392703 L 144.190749,108.435345 L 143.853009,108.485688 L 143.516503,108.543706 L 143.181405,108.609369 L 142.847889,108.682643 L 142.516127,108.763490 L 142.186291,108.851868 L 141.858552,108.947731 L 141.533080,109.051029 L 141.210044,109.161710 L 140.889612,109.279715 L 140.571948,109.404984 L 140.257219,109.537452 L 139.945586,109.677049 L 139.637212,109.823704 L 139.332256,109.977340 L 139.030876,110.137879 L 138.733229,110.305236 L 138.439468,110.479326 L 138.149747,110.660057 L 137.864214,110.847336 L 137.583019,111.041067 L 137.306306,111.241148 L 137.034220,111.447476 L 136.766900,111.659945 L 136.504487,111.878443 L 136.247115,112.102858 L 135.994919,112.333074 L 135.748028,112.568971 L 135.506571,112.810426 L 135.270673,113.057316 L 135.040456,113.309511 L 134.816039,113.566882 L 134.597539,113.829294 L 134.385069,114.096612 L 134.178739,114.368697 L 133.978656,114.645408 L 133.784924,114.926603 L 133.597643,115.212134 L 133.416910,115.501855 L 133.242819,115.795614 L 133.075460,116.093261 L 132.914920,116.394639 L 132.761282,116.699595 L 132.614625,117.007968 L 132.475026,117.319600 L 132.342557,117.634329 L 132.217286,117.951992 L 132.099279,118.272424 L 131.988596,118.595459 L 131.885296,118.920930 L 131.789431,119.248668 L 131.701051,119.578503 L 131.620203,119.910265 L 131.546927,120.243781 L 131.481262,120.578879 L 131.423242,120.915385 L 131.372897,121.253124 L 131.330253,121.591921 L 131.295333,121.931602 L 131.268153,122.271990 L 131.248729,122.612908 L 131.237071,122.954179 L 131.233184,123.295636 L 131.233184,143.295636 L 131.237070,143.637077 L 131.248728,143.978349 L 131.268151,144.319267 L 131.295330,144.659654 L 131.330250,144.999335 L 131.372893,145.338133 L 131.423237,145.675872 L 131.481256,146.012378 L 131.546921,146.347476 L 131.620196,146.680992 L 131.701044,147.012754 L 131.789423,147.342589 L 131.885287,147.670328 L 131.988587,147.995799 L 132.099269,148.318834 L 132.217275,148.639267 L 132.342545,148.956930 L 132.475014,149.271659 L 132.614612,149.583291 L 132.761268,149.891665 L 132.914906,150.196620 L 133.075446,150.497999 L 133.242804,150.795646 L 133.416895,151.089406 L 133.597627,151.379127 L 133.784907,151.664659 L 133.978639,151.945853 L 134.178721,152.222565 L 134.385050,152.494651 L 134.597520,152.761969 L 134.816019,153.024382 L 135.040435,153.281753 L 135.270652,153.533949 L 135.506549,153.780839 L 135.748006,154.022295 L 135.994896,154.258192 L 136.247092,154.488408 L 136.504464,154.712824 L 136.766877,154.931323 L 137.034196,155.143792 L 137.306282,155.350121 L 137.582994,155.550202 L 137.864189,155.743933 L 138.149721,155.931213 L 138.439442,156.111945 L 138.733202,156.286035 L 139.030849,156.453393 L 139.332229,156.613932 L 139.637184,156.767569 L 139.945558,156.914225 L 140.257191,157.053823 L 140.571920,157.186291 L 140.889583,157.311561 L 141.210016,157.429567 L 141.533051,157.540248 L 141.858523,157.643547 L 142.186261,157.739411 L 142.516097,157.827789 L 142.847859,157.908637 L 143.181375,157.981911 L 143.516473,158.047575 L 143.852979,158.105594 L 144.190719,158.155937 L 144.529516,158.198580 L 144.869197,158.233499 L 145.209585,158.260678 L 145.550503,158.280100 L 145.891775,158.291758 L 146.233204,158.295643 L 266.234204,158.295643 L 266.575670,158.291756 L 266.916940,158.280097 L 267.257855,158.260673 L 267.598241,158.233493 L 267.937919,158.198572 L 268.276715,158.155928 L 268.614452,158.105583 L 268.950955,158.047564 L 269.286051,157.981899 L 269.619565,157.908624 L 269.951324,157.827776 L 270.281158,157.739396 L 270.608894,157.643532 L 270.934363,157.540232 L 271.257396,157.429551 L 271.577826,157.311545 L 271.895487,157.186275 L 272.210214,157.053807 L 272.521844,156.914209 L 272.830215,156.767554 L 273.135169,156.613917 L 273.436546,156.453378 L 273.734191,156.286020 L 274.027949,156.111931 L 274.317668,155.931200 L 274.603198,155.743921 L 274.884391,155.550190 L 275.161101,155.350109 L 275.433185,155.143782 L 275.700502,154.931314 L 275.962913,154.712816 L 276.220282,154.488401 L 276.472477,154.258187 L 276.719365,154.022291 L 276.960820,153.780836 L 277.196716,153.533948 L 277.426932,153.281753 L 277.651346,153.024384 L 277.869844,152.761973 L 278.082312,152.494657 L 278.288640,152.222573 L 278.488722,151.945863 L 278.682452,151.664670 L 278.869732,151.379140 L 279.050463,151.089422 L 279.224553,150.795664 L 279.391911,150.498019 L 279.552450,150.196642 L 279.706087,149.891689 L 279.852743,149.583318 L 279.992341,149.271688 L 280.124809,148.956961 L 280.250079,148.639300 L 280.368086,148.318870 L 280.478768,147.995837 L 280.582068,147.670368 L 280.677933,147.342632 L 280.766312,147.012799 L 280.847161,146.681039 L 280.920436,146.347525 L 280.986101,146.012430 L 281.044121,145.675927 L 281.094466,145.338190 L 281.137111,144.999394 L 281.172032,144.659716 L 281.199212,144.319330 L 281.218636,143.978415 L 281.230296,143.637145 L 281.234184,143.295699 L 281.234184,123.295671 L 281.230298,122.954250 L 281.218641,122.612978 L 281.199219,122.272060 L 281.172041,121.931672 L 281.137122,121.591992 L 281.094480,121.253194 L 281.044136,120.915455 L 280.986118,120.578949 L 280.920455,120.243851 L 280.847181,119.910334 L 280.766334,119.578572 L 280.677955,119.248736 L 280.582092,118.920998 L 280.478793,118.595526 L 280.368112,118.272491 L 280.250107,117.952058 L 280.124838,117.634395 L 279.992370,117.319665 L 279.852772,117.008033 L 279.706117,116.699659 L 279.552480,116.394703 L 279.391941,116.093323 L 279.224584,115.795676 L 279.050494,115.501916 L 278.869763,115.212195 L 278.682483,114.926663 L 278.488752,114.645467 L 278.288671,114.368755 L 278.082342,114.096669 L 277.869874,113.829350 L 277.651375,113.566937 L 277.426960,113.309565 L 277.196744,113.057369 L 276.960847,112.810478 L 276.719391,112.569021 L 276.472502,112.333123 L 276.220306,112.102907 L 275.962936,111.878490 L 275.700523,111.659991 L 275.433205,111.447521 L 275.161120,111.241191 L 274.884408,111.041109 L 274.603214,110.847377 L 274.317682,110.660096 L 274.027962,110.479364 L 273.734202,110.305273 L 273.436556,110.137914 L 273.135177,109.977374 L 272.830222,109.823736 L 272.521848,109.677080 L 272.210216,109.537481 L 271.895487,109.405012 L 271.577824,109.279742 L 271.257392,109.161735 L 270.934357,109.051052 L 270.608886,108.947752 L 270.281148,108.851888 L 269.951312,108.763508 L 269.619551,108.682660 L 269.286034,108.609384 L 268.950937,108.543720 L 268.614431,108.485700 L 268.276692,108.435355 L 267.937894,108.392712 L 267.598214,108.357791 L 267.257826,108.330612 L 266.916908,108.311189 L 266.575637,108.299530 L 266.234188,108.295643 L 266.234184,108.295643 L 146.233219,108.295643 "/>
        <path style="fill:none;stroke-width:0.280000;stroke-linecap:round;stroke-linejoin:round;stroke-opacity:1;stroke:#000000;" d="M 11.233184,436.295843 L 748.124184,436.295843 L 748.124184,36.295643 L 11.233184,36.295643 L 11.233184,436.295843 "/>
        <path style="fill:none;stroke-width:0.280000;stroke-linecap:round;stroke-linejoin:round;stroke-opacity:1;stroke:#000000;" d="M 170.730109,286.295643 L 304.333259,286.295643 A 3.020000,3.020000 0 0,0 308.604184,282.024718 L 308.604184,272.566568 A 3.020000,3.020000 0 0,0 304.333259,268.295643 L 170.730109,268.295643 A 3.020000,3.020000 0 0,0 166.459184,272.566568 L 166.459184,282.024718 A 3.020000,3.020000 0 0,0 170.730109,286.295643 "/>
        <path style="fill:none;stroke-width:0.280000;stroke-linecap:round;stroke-linejoin:round;stroke-opacity:1;stroke:#000000;" d="M 455.025109,286.295643 L 588.633259,286.295643 A 3.020000,3.020000 0 0,0 592.904184,282.024718 L 592.904184,272.566568 A 3.020000,3.020000 0 0,0 588.633259,268.295643 L 455.025109,268.295643 A 3.020000,3.020000 0 0,0 450.754184,272.566568 L 450.754184,282.024718 A 3.020000,3.020000 0 0,0 455.025109,286.295643 "/>
        <path style="fill:none;stroke-width:0.280000;stroke-linecap:round;stroke-linejoin:round;stroke-opacity:1;stroke:#000000;" d="M 304.333259,54.295643 L 170.730109,54.295643 A 3.020000,3.020000 0 0,0 166.459184,58.566568 L 166.459184,68.024718 A 3.020000,3.020000 0 0,0 170.730109,72.295643 L 304.333259,72.295643 A 3.020000,3.020000 0 0,0 308.604184,68.024718 L 308.604184,58.566568 A 3.020000,3.020000 0 0,0 304.333259,54.295643 "/>
        <path style="fill:none;stroke-width:0.280000;stroke-linecap:round;stroke-linejoin:round;stroke-opacity:1;stroke:#000000;" d="M 455.025109,72.295643 L 588.633259,72.295643 A 3.020000,3.020000 0 0,0 592.904184,68.024718 L 592.904184,58.566568 A 3.020000,3.020000 0 0,0 588.633259,54.295643 L 455.025109,54.295643 A 3.020000,3.020000 0 0,0 450.754184,58.566568 L 450.754184,68.024718 A 3.020000,3.020000 0 0,0 455.025109,72.295643 "/>
        <path style="fill:none;stroke-width:0.280000;stroke-linecap:round;stroke-linejoin:round;stroke-opacity:1;stroke:#000000;" d="M 11.575926,466.675871 L 11.575926,1190.495871 L 1005.878026,1190.495871 L 1011.578026,1190.495871 L 1211.578026,453.595871 L 11.575926,453.595871 L 11.575926,466.675871 "/>
        <path style="fill:none;stroke-width:0.280000;stroke-linecap:round;stroke-linejoin:round;stroke-opacity:1;stroke:#000000;" d="M 364.077005,196.844920 L 364.077005,166.844920 L 378.477005,166.844920 L 364.077005,166.844920 L 364.077005,181.544920 L 378.477005,181.544920 "/>
        <path style="fill:none;stroke-width:0.280000;stroke-linecap:round;stroke-linejoin:round;stroke-opacity:1;stroke:#000000;" d="M 384.477005,166.844920 L 384.477005,196.844920 L 398.877005,196.844920 "/>
        <path style="fill:none;stroke-width:0.280000;stroke-linecap:round;stroke-linejoin:round;stroke-opacity:1;stroke:#000000;" d="M 320.197594,780.871925 L 290.197594,789.571925 L 320.197594,798.271925 L 290.197594,806.971925 L 320.197594,815.671925 "/>
        <path style="fill:none;stroke-width:0.280000;stroke-linecap:round;stroke-linejoin:round;stroke-opacity:1;stroke:#000000;" d="M 290.197594,821.671925 L 320.197594,821.671925 L 320.197594,831.571925 A 9.000000,9.000000 0 0,1 302.197594,831.571925 L 302.197594,829.171925 L 290.197594,838.171925 "/>
    </g>
</svg>
