( Parts 03 )
( File created: Sunday November 01 2020 - 04:29 PM)
( for Mach2/3 from Vectric )
( Material Size)
( X= 1200.000, Y= 1200.000, Z= 18.000)
()
(Toolpaths used in this file:)
(Parts 03 Holes)
(Parts 03 Contours)
(Tools used in this file: )
(1 = End Mill {6 mm})
N110G00G21G17G90G40G49G80
N120G71G91.1
N130T1M06
N140 (End Mill {6 mm})
N150G00G43Z38.000H1
N160S16000M03
N170(Toolpath:- Parts 03 Holes)
N180()
N190G94
N200X0.000Y0.000F9600.0
N210G00X466.128Y135.482Z23.000
N220G1Z14.967F3000.0
N230G1X385.084Y247.030F9600.0
N240G1X376.855Y258.356
N250G1X228.896Y462.005
N260G1X220.667Y473.331
N270G1X136.339Y589.398
N280G1X236.531Y727.301
N290G1X244.760Y738.627
N300G1X378.526Y922.741
N310G1X386.755Y934.067
N320G1X466.128Y1043.315
N330G1X615.840Y994.670
N340G1X629.155Y990.344
N350G1X852.888Y917.649
N360G1X866.203Y913.322
N370G1X999.738Y869.934
N380G1Y755.805
N390G1Y741.805
N400G1Y487.614
N410G1Y473.614
N420G1Y308.863
N430G1X874.318Y268.111
N440G1X861.003Y263.785
N450G1X621.924Y186.103
N460G1X608.609Y181.777
N470G1X466.128Y135.482
N480G1Z11.933F3000.0
N490G1X385.084Y247.030F9600.0
N500G1X376.855Y258.356
N510G1X228.896Y462.005
N520G1X220.667Y473.331
N530G1X136.339Y589.398
N540G1X236.531Y727.301
N550G1X244.760Y738.627
N560G1X378.526Y922.741
N570G1X386.755Y934.067
N580G1X466.128Y1043.315
N590G1X615.840Y994.670
N600G1X629.155Y990.344
N610G1X852.888Y917.649
N620G1X866.203Y913.322
N630G1X999.738Y869.934
N640G1Y755.805
N650G1Y741.805
N660G1Y487.614
N670G1Y473.614
N680G1Y308.863
N690G1X874.318Y268.111
N700G1X861.003Y263.785
N710G1X621.924Y186.103
N720G1X608.609Y181.777
N730G1X466.128Y135.482
N740G1Z8.900F3000.0
N750G1X385.084Y247.030F9600.0
N760G1X376.855Y258.356
N770G1X228.896Y462.005
N780G1X220.667Y473.331
N790G1X136.339Y589.398
N800G1X236.531Y727.301
N810G1X244.760Y738.627
N820G1X378.526Y922.741
N830G1X386.755Y934.067
N840G1X466.128Y1043.315
N850G1X615.840Y994.670
N860G1X629.155Y990.344
N870G1X852.888Y917.649
N880G1X866.203Y913.322
N890G1X999.738Y869.934
N900G1Y755.805
N910G1Y741.805
N920G1Y487.614
N930G1Y473.614
N940G1Y308.863
N950G1X874.318Y268.111
N960G1X861.003Y263.785
N970G1X621.924Y186.103
N980G1X608.609Y181.777
N990G1X466.128Y135.482
N1000G1Z5.867F3000.0
N1010G1X385.084Y247.030F9600.0
N1020G1X376.855Y258.356
N1030G1X228.896Y462.005
N1040G1X220.667Y473.331
N1050G1X136.339Y589.398
N1060G1X236.531Y727.301
N1070G1X244.760Y738.627
N1080G1X378.526Y922.741
N1090G1X386.755Y934.067
N1100G1X466.128Y1043.315
N1110G1X615.840Y994.670
N1120G1X629.155Y990.344
N1130G1X852.888Y917.649
N1140G1X866.203Y913.322
N1150G1X999.738Y869.934
N1160G1Y755.805
N1170G1Y741.805
N1180G1Y487.614
N1190G1Y473.614
N1200G1Y308.863
N1210G1X874.318Y268.111
N1220G1X861.003Y263.785
N1230G1X621.924Y186.103
N1240G1X608.609Y181.777
N1250G1X466.128Y135.482
N1260G1Z2.833F3000.0
N1270G1X385.084Y247.030F9600.0
N1280G1X376.855Y258.356
N1290G1X228.896Y462.005
N1300G1X220.667Y473.331
N1310G1X136.339Y589.398
N1320G1X236.531Y727.301
N1330G1X244.760Y738.627
N1340G1X378.526Y922.741
N1350G1X386.755Y934.067
N1360G1X466.128Y1043.315
N1370G1X615.840Y994.670
N1380G1X629.155Y990.344
N1390G1X852.888Y917.649
N1400G1X866.203Y913.322
N1410G1X999.738Y869.934
N1420G1Y755.805
N1430G1Y741.805
N1440G1Y487.614
N1450G1Y473.614
N1460G1Y308.863
N1470G1X874.318Y268.111
N1480G1X861.003Y263.785
N1490G1X621.924Y186.103
N1500G1X608.609Y181.777
N1510G1X466.128Y135.482
N1520G1Z-0.200F3000.0
N1530G1X385.084Y247.030F9600.0
N1540G1Z2.800
N1550G1X376.855Y258.356
N1560G1Z-0.200F3000.0
N1570G1X228.896Y462.005F9600.0
N1580G1Z2.800
N1590G1X220.667Y473.331
N1600G1Z-0.200F3000.0
N1610G1X136.339Y589.398F9600.0
N1620G1X236.531Y727.301
N1630G1Z2.800
N1640G1X244.760Y738.627
N1650G1Z-0.200F3000.0
N1660G1X378.526Y922.741F9600.0
N1670G1Z2.800
N1680G1X386.755Y934.067
N1690G1Z-0.200F3000.0
N1700G1X466.128Y1043.315F9600.0
N1710G1X615.840Y994.670
N1720G1Z2.800
N1730G1X629.155Y990.344
N1740G1Z-0.200F3000.0
N1750G1X852.888Y917.649F9600.0
N1760G1Z2.800
N1770G1X866.203Y913.322
N1780G1Z-0.200F3000.0
N1790G1X999.738Y869.934F9600.0
N1800G1Y755.805
N1810G1Z2.800
N1820G1Y741.805
N1830G1Z-0.200F3000.0
N1840G1Y487.614F9600.0
N1850G1Z2.800
N1860G1Y473.614
N1870G1Z-0.200F3000.0
N1880G1Y308.863F9600.0
N1890G1X874.318Y268.111
N1900G1Z2.800
N1910G1X861.003Y263.785
N1920G1Z-0.200F3000.0
N1930G1X621.924Y186.103F9600.0
N1940G1Z2.800
N1950G1X608.609Y181.777
N1960G1Z-0.200F3000.0
N1970G1X466.128Y135.482F9600.0
N1980G00Z23.000
N1990S16000M03
(Parts 03 Contours)
()
N2020G00X974.110Y179.617Z23.000
N2030G1Z14.967F3000.0
N2040G1X971.728Y186.947F9600.0
N2050G3X970.237Y188.693I-2.853J-0.927
N2060G2X970.221Y188.740I0.016J0.031
N2070G2X970.269Y188.756I0.031J-0.016
N2080G3X972.558Y188.576I1.362J2.673
N2090G1X1023.542Y205.141
N2100G1X1036.856Y209.468
N2110G1X1103.666Y231.175
N2120G3X1105.739Y234.028I-0.927J2.853
N2130G1Y297.184
N2140G1Y311.184
N2150G1Y371.884
N2160G3X1104.860Y374.006I-3.000J0.000
N2170G2Y374.055I0.025J0.025
N2180G2X1104.909I0.025J-0.025
N2190G3X1107.031Y373.176I2.121J2.121
N2200G1X1114.739
N2210G3X1117.739Y376.176I0.000J3.000
N2220G1Y518.325
N2230G3X1114.739Y521.325I-3.000J0.000
N2240G1X1107.031
N2250G3X1104.909Y520.446I0.000J-3.000
N2260G2X1104.860I-0.025J0.025
N2270G2Y520.495I0.025J0.025
N2280G3X1105.739Y522.617I-2.121J2.121
N2290G1Y580.336
N2300G1Y594.336
N2310G1Y656.180
N2320G3X1104.860Y658.302I-3.000J0.000
N2330G2Y658.351I0.025J0.025
N2340G2X1104.909I0.025J-0.025
N2350G3X1107.031Y657.472I2.121J2.121
N2360G1X1114.739
N2370G3X1117.739Y660.472I0.000J3.000
N2380G1Y802.620
N2390G3X1114.739Y805.620I-3.000J0.000
N2400G1X1107.031
N2410G3X1104.909Y804.742I0.000J-3.000
N2420G2X1104.860I-0.025J0.025
N2430G2Y804.791I0.025J0.025
N2440G3X1105.739Y806.913I-2.121J2.121
N2450G1Y863.488
N2460G1Y877.488
N2470G1Y944.768
N2480G3X1103.666Y947.622I-3.000J0.000
N2490G1X1044.670Y966.791
N2500G1X1031.355Y971.117
N2510G1X972.558Y990.221
N2520G3X970.269Y990.041I-0.927J-2.853
N2530G2X970.221Y990.056I-0.016J0.031
N2540G2X970.237Y990.103I0.031J0.016
N2550G3X971.728Y991.849I-1.362J2.673
N2560G1X974.110Y999.179
N2570G3X972.184Y1002.960I-2.853J0.927
N2580G1X836.992Y1046.886
N2590G3X833.212Y1044.959I-0.927J-2.853
N2600G1X830.831Y1037.630
N2610G3X831.011Y1035.341I2.853J-0.927
N2620G2X830.995Y1035.293I-0.031J-0.016
N2630G2X830.948Y1035.309I-0.016J0.031
N2640G3X829.202Y1036.800I-2.673J-1.362
N2650G1X777.770Y1053.511
N2660G1X764.455Y1057.838
N2670G1X702.177Y1078.073
N2680G3X699.888Y1077.893I-0.927J-2.853
N2690G2X699.841Y1077.908I-0.016J0.031
N2700G2X699.856Y1077.955I0.031J0.016
N2710G3X701.347Y1079.701I-1.362J2.673
N2720G1X703.729Y1087.031
N2730G3X701.803Y1090.812I-2.853J0.927
N2740G1X566.612Y1134.739
N2750G3X562.832Y1132.813I-0.927J-2.853
N2760G1X560.450Y1125.482
N2770G3X560.630Y1123.193I2.853J-0.927
N2780G2X560.615Y1123.146I-0.031J-0.016
N2790G2X560.567Y1123.161I-0.016J0.031
N2800G3X558.821Y1124.652I-2.673J-1.362
N2810G1X502.553Y1142.934
N2820G1X489.239Y1147.261
N2830G1X427.713Y1167.252
N2840G3X424.358Y1166.162I-0.927J-2.853
N2850G1X386.991Y1114.730
N2860G1X378.762Y1103.403
N2870G1X343.329Y1054.634
N2880G3X342.793Y1052.401I2.427J-1.763
N2890G2X342.764Y1052.361I-0.035J-0.005
N2900G2X342.724Y1052.391I-0.005J0.035
N2910G3X341.524Y1054.348I-2.963J-0.469
N2920G1X335.289Y1058.879
N2930G3X331.098Y1058.215I-1.763J-2.427
N2940G1X247.545Y943.215
N2950G3X248.209Y939.024I2.427J-1.763
N2960G1X254.446Y934.494
N2970G3X256.678Y933.958I1.763J2.427
N2980G2X256.718Y933.929I0.005J-0.035
N2990G2X256.689Y933.889I-0.035J-0.005
N3000G3X254.731Y932.689I0.469J-2.963
N3010G1X220.034Y884.933
N3020G1X211.805Y873.607
N3030G1X176.224Y824.634
N3040G3X175.688Y822.401I2.427J-1.763
N3050G2X175.659Y822.361I-0.035J-0.005
N3060G2X175.619Y822.391I-0.005J0.035
N3070G3X174.419Y824.348I-2.963J-0.469
N3080G1X168.184Y828.879
N3090G3X163.993Y828.215I-1.763J-2.427
N3100G1X80.441Y713.215
N3110G3X81.105Y709.024I2.427J-1.763
N3120G1X87.341Y704.494
N3130G3X89.573Y703.958I1.763J2.427
N3140G2X89.613Y703.929I0.005J-0.035
N3150G2X89.584Y703.889I-0.035J-0.005
N3160G3X87.627Y702.689I0.469J-2.963
N3170G1X59.449Y663.906
N3180G1X51.220Y652.580
N3190G1X6.597Y591.162
N3200G3Y587.635I2.427J-1.763
N3210G1X47.629Y531.160
N3220G1X55.858Y519.833
N3230G1X87.627Y476.108
N3240G3X89.584Y474.908I2.427J1.763
N3250G2X89.613Y474.868I-0.005J-0.035
N3260G2X89.573Y474.839I-0.035J0.005
N3270G3X87.341Y474.303I-0.469J-2.963
N3280G1X81.105Y469.773
N3290G3X80.441Y465.582I1.763J-2.427
N3300G1X163.993Y350.582
N3310G3X168.184Y349.918I2.427J1.763
N3320G1X174.419Y354.449
N3330G3X175.619Y356.406I-1.763J2.427
N3340G2X175.659Y356.435I0.035J-0.005
N3350G2X175.688Y356.395I-0.005J-0.035
N3360G3X176.224Y354.163I2.963J-0.469
N3370G1X209.792Y307.960
N3380G1X218.022Y296.634
N3390G1X254.731Y246.108
N3400G3X256.689Y244.908I2.427J1.763
N3410G2X256.718Y244.868I-0.005J-0.035
N3420G2X256.678Y244.839I-0.035J0.005
N3430G3X254.446Y244.303I-0.469J-2.963
N3440G1X248.209Y239.773
N3450G3X247.545Y235.582I1.763J-2.427
N3460G1X331.098Y120.582
N3470G3X335.289Y119.918I2.427J1.763
N3480G1X341.524Y124.449
N3490G3X342.724Y126.406I-1.763J2.427
N3500G2X342.764Y126.435I0.035J-0.005
N3510G2X342.793Y126.395I-0.005J-0.035
N3520G3X343.329Y124.163I2.963J-0.469
N3530G1X373.344Y82.851
N3540G1X381.573Y71.524
N3550G1X424.358Y12.635
N3560G3X427.713Y11.545I2.427J1.763
N3570G1X482.283Y29.276
N3580G1X495.598Y33.602
N3590G1X558.821Y54.145
N3600G3X560.567Y55.636I-0.927J2.853
N3610G2X560.615Y55.651I0.031J-0.016
N3620G2X560.630Y55.604I-0.016J-0.031
N3630G3X560.450Y53.315I2.673J-1.362
N3640G1X562.832Y45.984
N3650G3X566.612Y44.058I2.853J0.927
N3660G1X701.803Y87.985
N3670G3X703.729Y91.765I-0.927J2.853
N3680G1X701.347Y99.095
N3690G3X699.856Y100.841I-2.853J-0.927
N3700G2X699.841Y100.888I0.016J0.031
N3710G2X699.888Y100.904I0.031J-0.016
N3720G3X702.177Y100.724I1.362J2.673
N3730G1X763.638Y120.694
N3740G1X776.953Y125.020
N3750G1X829.202Y141.997
N3760G3X830.948Y143.488I-0.927J2.853
N3770G2X830.995Y143.503I0.031J-0.016
N3780G2X831.011Y143.456I-0.016J-0.031
N3790G3X830.831Y141.167I2.673J-1.362
N3800G1X833.212Y133.837
N3810G3X836.992Y131.911I2.853J0.927
N3820G1X972.184Y175.837
N3830G3X974.110Y179.617I-0.927J2.853
N3840G1Z11.933F3000.0
N3850G1X971.728Y186.947F9600.0
N3860G3X970.237Y188.693I-2.853J-0.927
N3870G2X970.221Y188.740I0.016J0.031
N3880G2X970.269Y188.756I0.031J-0.016
N3890G3X972.558Y188.576I1.362J2.673
N3900G1X1023.542Y205.141
N3910G1X1036.856Y209.468
N3920G1X1103.666Y231.175
N3930G3X1105.739Y234.028I-0.927J2.853
N3940G1Y297.184
N3950G1Y311.184
N3960G1Y371.884
N3970G3X1104.860Y374.006I-3.000J0.000
N3980G2Y374.055I0.025J0.025
N3990G2X1104.909I0.025J-0.025
N4000G3X1107.031Y373.176I2.121J2.121
N4010G1X1114.739
N4020G3X1117.739Y376.176I0.000J3.000
N4030G1Y518.325
N4040G3X1114.739Y521.325I-3.000J0.000
N4050G1X1107.031
N4060G3X1104.909Y520.446I0.000J-3.000
N4070G2X1104.860I-0.025J0.025
N4080G2Y520.495I0.025J0.025
N4090G3X1105.739Y522.617I-2.121J2.121
N4100G1Y580.336
N4110G1Y594.336
N4120G1Y656.180
N4130G3X1104.860Y658.302I-3.000J0.000
N4140G2Y658.351I0.025J0.025
N4150G2X1104.909I0.025J-0.025
N4160G3X1107.031Y657.472I2.121J2.121
N4170G1X1114.739
N4180G3X1117.739Y660.472I0.000J3.000
N4190G1Y802.620
N4200G3X1114.739Y805.620I-3.000J0.000
N4210G1X1107.031
N4220G3X1104.909Y804.742I0.000J-3.000
N4230G2X1104.860I-0.025J0.025
N4240G2Y804.791I0.025J0.025
N4250G3X1105.739Y806.913I-2.121J2.121
N4260G1Y863.488
N4270G1Y877.488
N4280G1Y944.768
N4290G3X1103.666Y947.622I-3.000J0.000
N4300G1X1044.670Y966.791
N4310G1X1031.355Y971.117
N4320G1X972.558Y990.221
N4330G3X970.269Y990.041I-0.927J-2.853
N4340G2X970.221Y990.056I-0.016J0.031
N4350G2X970.237Y990.103I0.031J0.016
N4360G3X971.728Y991.849I-1.362J2.673
N4370G1X974.110Y999.179
N4380G3X972.184Y1002.960I-2.853J0.927
N4390G1X836.992Y1046.886
N4400G3X833.212Y1044.959I-0.927J-2.853
N4410G1X830.831Y1037.630
N4420G3X831.011Y1035.341I2.853J-0.927
N4430G2X830.995Y1035.293I-0.031J-0.016
N4440G2X830.948Y1035.309I-0.016J0.031
N4450G3X829.202Y1036.800I-2.673J-1.362
N4460G1X777.770Y1053.511
N4470G1X764.455Y1057.838
N4480G1X702.177Y1078.073
N4490G3X699.888Y1077.893I-0.927J-2.853
N4500G2X699.841Y1077.908I-0.016J0.031
N4510G2X699.856Y1077.955I0.031J0.016
N4520G3X701.347Y1079.701I-1.362J2.673
N4530G1X703.729Y1087.031
N4540G3X701.803Y1090.812I-2.853J0.927
N4550G1X566.612Y1134.739
N4560G3X562.832Y1132.813I-0.927J-2.853
N4570G1X560.450Y1125.482
N4580G3X560.630Y1123.193I2.853J-0.927
N4590G2X560.615Y1123.146I-0.031J-0.016
N4600G2X560.567Y1123.161I-0.016J0.031
N4610G3X558.821Y1124.652I-2.673J-1.362
N4620G1X502.553Y1142.934
N4630G1X489.239Y1147.261
N4640G1X427.713Y1167.252
N4650G3X424.358Y1166.162I-0.927J-2.853
N4660G1X386.991Y1114.730
N4670G1X378.762Y1103.403
N4680G1X343.329Y1054.634
N4690G3X342.793Y1052.401I2.427J-1.763
N4700G2X342.764Y1052.361I-0.035J-0.005
N4710G2X342.724Y1052.391I-0.005J0.035
N4720G3X341.524Y1054.348I-2.963J-0.469
N4730G1X335.289Y1058.879
N4740G3X331.098Y1058.215I-1.763J-2.427
N4750G1X247.545Y943.215
N4760G3X248.209Y939.024I2.427J-1.763
N4770G1X254.446Y934.494
N4780G3X256.678Y933.958I1.763J2.427
N4790G2X256.718Y933.929I0.005J-0.035
N4800G2X256.689Y933.889I-0.035J-0.005
N4810G3X254.731Y932.689I0.469J-2.963
N4820G1X220.034Y884.933
N4830G1X211.805Y873.607
N4840G1X176.224Y824.634
N4850G3X175.688Y822.401I2.427J-1.763
N4860G2X175.659Y822.361I-0.035J-0.005
N4870G2X175.619Y822.391I-0.005J0.035
N4880G3X174.419Y824.348I-2.963J-0.469
N4890G1X168.184Y828.879
N4900G3X163.993Y828.215I-1.763J-2.427
N4910G1X80.441Y713.215
N4920G3X81.105Y709.024I2.427J-1.763
N4930G1X87.341Y704.494
N4940G3X89.573Y703.958I1.763J2.427
N4950G2X89.613Y703.929I0.005J-0.035
N4960G2X89.584Y703.889I-0.035J-0.005
N4970G3X87.627Y702.689I0.469J-2.963
N4980G1X59.449Y663.906
N4990G1X51.220Y652.580
N5000G1X6.597Y591.162
N5010G3Y587.635I2.427J-1.763
N5020G1X47.629Y531.160
N5030G1X55.858Y519.833
N5040G1X87.627Y476.108
N5050G3X89.584Y474.908I2.427J1.763
N5060G2X89.613Y474.868I-0.005J-0.035
N5070G2X89.573Y474.839I-0.035J0.005
N5080G3X87.341Y474.303I-0.469J-2.963
N5090G1X81.105Y469.773
N5100G3X80.441Y465.582I1.763J-2.427
N5110G1X163.993Y350.582
N5120G3X168.184Y349.918I2.427J1.763
N5130G1X174.419Y354.449
N5140G3X175.619Y356.406I-1.763J2.427
N5150G2X175.659Y356.435I0.035J-0.005
N5160G2X175.688Y356.395I-0.005J-0.035
N5170G3X176.224Y354.163I2.963J-0.469
N5180G1X209.792Y307.960
N5190G1X218.022Y296.634
N5200G1X254.731Y246.108
N5210G3X256.689Y244.908I2.427J1.763
N5220G2X256.718Y244.868I-0.005J-0.035
N5230G2X256.678Y244.839I-0.035J0.005
N5240G3X254.446Y244.303I-0.469J-2.963
N5250G1X248.209Y239.773
N5260G3X247.545Y235.582I1.763J-2.427
N5270G1X331.098Y120.582
N5280G3X335.289Y119.918I2.427J1.763
N5290G1X341.524Y124.449
N5300G3X342.724Y126.406I-1.763J2.427
N5310G2X342.764Y126.435I0.035J-0.005
N5320G2X342.793Y126.395I-0.005J-0.035
N5330G3X343.329Y124.163I2.963J-0.469
N5340G1X373.344Y82.851
N5350G1X381.573Y71.524
N5360G1X424.358Y12.635
N5370G3X427.713Y11.545I2.427J1.763
N5380G1X482.283Y29.276
N5390G1X495.598Y33.602
N5400G1X558.821Y54.145
N5410G3X560.567Y55.636I-0.927J2.853
N5420G2X560.615Y55.651I0.031J-0.016
N5430G2X560.630Y55.604I-0.016J-0.031
N5440G3X560.450Y53.315I2.673J-1.362
N5450G1X562.832Y45.984
N5460G3X566.612Y44.058I2.853J0.927
N5470G1X701.803Y87.985
N5480G3X703.729Y91.765I-0.927J2.853
N5490G1X701.347Y99.095
N5500G3X699.856Y100.841I-2.853J-0.927
N5510G2X699.841Y100.888I0.016J0.031
N5520G2X699.888Y100.904I0.031J-0.016
N5530G3X702.177Y100.724I1.362J2.673
N5540G1X763.638Y120.694
N5550G1X776.953Y125.020
N5560G1X829.202Y141.997
N5570G3X830.948Y143.488I-0.927J2.853
N5580G2X830.995Y143.503I0.031J-0.016
N5590G2X831.011Y143.456I-0.016J-0.031
N5600G3X830.831Y141.167I2.673J-1.362
N5610G1X833.212Y133.837
N5620G3X836.992Y131.911I2.853J0.927
N5630G1X972.184Y175.837
N5640G3X974.110Y179.617I-0.927J2.853
N5650G1Z8.900F3000.0
N5660G1X971.728Y186.947F9600.0
N5670G3X970.237Y188.693I-2.853J-0.927
N5680G2X970.221Y188.740I0.016J0.031
N5690G2X970.269Y188.756I0.031J-0.016
N5700G3X972.558Y188.576I1.362J2.673
N5710G1X1023.542Y205.141
N5720G1X1036.856Y209.468
N5730G1X1103.666Y231.175
N5740G3X1105.739Y234.028I-0.927J2.853
N5750G1Y297.184
N5760G1Y311.184
N5770G1Y371.884
N5780G3X1104.860Y374.006I-3.000J0.000
N5790G2Y374.055I0.025J0.025
N5800G2X1104.909I0.025J-0.025
N5810G3X1107.031Y373.176I2.121J2.121
N5820G1X1114.739
N5830G3X1117.739Y376.176I0.000J3.000
N5840G1Y518.325
N5850G3X1114.739Y521.325I-3.000J0.000
N5860G1X1107.031
N5870G3X1104.909Y520.446I0.000J-3.000
N5880G2X1104.860I-0.025J0.025
N5890G2Y520.495I0.025J0.025
N5900G3X1105.739Y522.617I-2.121J2.121
N5910G1Y580.336
N5920G1Y594.336
N5930G1Y656.180
N5940G3X1104.860Y658.302I-3.000J0.000
N5950G2Y658.351I0.025J0.025
N5960G2X1104.909I0.025J-0.025
N5970G3X1107.031Y657.472I2.121J2.121
N5980G1X1114.739
N5990G3X1117.739Y660.472I0.000J3.000
N6000G1Y802.620
N6010G3X1114.739Y805.620I-3.000J0.000
N6020G1X1107.031
N6030G3X1104.909Y804.742I0.000J-3.000
N6040G2X1104.860I-0.025J0.025
N6050G2Y804.791I0.025J0.025
N6060G3X1105.739Y806.913I-2.121J2.121
N6070G1Y863.488
N6080G1Y877.488
N6090G1Y944.768
N6100G3X1103.666Y947.622I-3.000J0.000
N6110G1X1044.670Y966.791
N6120G1X1031.355Y971.117
N6130G1X972.558Y990.221
N6140G3X970.269Y990.041I-0.927J-2.853
N6150G2X970.221Y990.056I-0.016J0.031
N6160G2X970.237Y990.103I0.031J0.016
N6170G3X971.728Y991.849I-1.362J2.673
N6180G1X974.110Y999.179
N6190G3X972.184Y1002.960I-2.853J0.927
N6200G1X836.992Y1046.886
N6210G3X833.212Y1044.959I-0.927J-2.853
N6220G1X830.831Y1037.630
N6230G3X831.011Y1035.341I2.853J-0.927
N6240G2X830.995Y1035.293I-0.031J-0.016
N6250G2X830.948Y1035.309I-0.016J0.031
N6260G3X829.202Y1036.800I-2.673J-1.362
N6270G1X777.770Y1053.511
N6280G1X764.455Y1057.838
N6290G1X702.177Y1078.073
N6300G3X699.888Y1077.893I-0.927J-2.853
N6310G2X699.841Y1077.908I-0.016J0.031
N6320G2X699.856Y1077.955I0.031J0.016
N6330G3X701.347Y1079.701I-1.362J2.673
N6340G1X703.729Y1087.031
N6350G3X701.803Y1090.812I-2.853J0.927
N6360G1X566.612Y1134.739
N6370G3X562.832Y1132.813I-0.927J-2.853
N6380G1X560.450Y1125.482
N6390G3X560.630Y1123.193I2.853J-0.927
N6400G2X560.615Y1123.146I-0.031J-0.016
N6410G2X560.567Y1123.161I-0.016J0.031
N6420G3X558.821Y1124.652I-2.673J-1.362
N6430G1X502.553Y1142.934
N6440G1X489.239Y1147.261
N6450G1X427.713Y1167.252
N6460G3X424.358Y1166.162I-0.927J-2.853
N6470G1X386.991Y1114.730
N6480G1X378.762Y1103.403
N6490G1X343.329Y1054.634
N6500G3X342.793Y1052.401I2.427J-1.763
N6510G2X342.764Y1052.361I-0.035J-0.005
N6520G2X342.724Y1052.391I-0.005J0.035
N6530G3X341.524Y1054.348I-2.963J-0.469
N6540G1X335.289Y1058.879
N6550G3X331.098Y1058.215I-1.763J-2.427
N6560G1X247.545Y943.215
N6570G3X248.209Y939.024I2.427J-1.763
N6580G1X254.446Y934.494
N6590G3X256.678Y933.958I1.763J2.427
N6600G2X256.718Y933.929I0.005J-0.035
N6610G2X256.689Y933.889I-0.035J-0.005
N6620G3X254.731Y932.689I0.469J-2.963
N6630G1X220.034Y884.933
N6640G1X211.805Y873.607
N6650G1X176.224Y824.634
N6660G3X175.688Y822.401I2.427J-1.763
N6670G2X175.659Y822.361I-0.035J-0.005
N6680G2X175.619Y822.391I-0.005J0.035
N6690G3X174.419Y824.348I-2.963J-0.469
N6700G1X168.184Y828.879
N6710G3X163.993Y828.215I-1.763J-2.427
N6720G1X80.441Y713.215
N6730G3X81.105Y709.024I2.427J-1.763
N6740G1X87.341Y704.494
N6750G3X89.573Y703.958I1.763J2.427
N6760G2X89.613Y703.929I0.005J-0.035
N6770G2X89.584Y703.889I-0.035J-0.005
N6780G3X87.627Y702.689I0.469J-2.963
N6790G1X59.449Y663.906
N6800G1X51.220Y652.580
N6810G1X6.597Y591.162
N6820G3Y587.635I2.427J-1.763
N6830G1X47.629Y531.160
N6840G1X55.858Y519.833
N6850G1X87.627Y476.108
N6860G3X89.584Y474.908I2.427J1.763
N6870G2X89.613Y474.868I-0.005J-0.035
N6880G2X89.573Y474.839I-0.035J0.005
N6890G3X87.341Y474.303I-0.469J-2.963
N6900G1X81.105Y469.773
N6910G3X80.441Y465.582I1.763J-2.427
N6920G1X163.993Y350.582
N6930G3X168.184Y349.918I2.427J1.763
N6940G1X174.419Y354.449
N6950G3X175.619Y356.406I-1.763J2.427
N6960G2X175.659Y356.435I0.035J-0.005
N6970G2X175.688Y356.395I-0.005J-0.035
N6980G3X176.224Y354.163I2.963J-0.469
N6990G1X209.792Y307.960
N7000G1X218.022Y296.634
N7010G1X254.731Y246.108
N7020G3X256.689Y244.908I2.427J1.763
N7030G2X256.718Y244.868I-0.005J-0.035
N7040G2X256.678Y244.839I-0.035J0.005
N7050G3X254.446Y244.303I-0.469J-2.963
N7060G1X248.209Y239.773
N7070G3X247.545Y235.582I1.763J-2.427
N7080G1X331.098Y120.582
N7090G3X335.289Y119.918I2.427J1.763
N7100G1X341.524Y124.449
N7110G3X342.724Y126.406I-1.763J2.427
N7120G2X342.764Y126.435I0.035J-0.005
N7130G2X342.793Y126.395I-0.005J-0.035
N7140G3X343.329Y124.163I2.963J-0.469
N7150G1X373.344Y82.851
N7160G1X381.573Y71.524
N7170G1X424.358Y12.635
N7180G3X427.713Y11.545I2.427J1.763
N7190G1X482.283Y29.276
N7200G1X495.598Y33.602
N7210G1X558.821Y54.145
N7220G3X560.567Y55.636I-0.927J2.853
N7230G2X560.615Y55.651I0.031J-0.016
N7240G2X560.630Y55.604I-0.016J-0.031
N7250G3X560.450Y53.315I2.673J-1.362
N7260G1X562.832Y45.984
N7270G3X566.612Y44.058I2.853J0.927
N7280G1X701.803Y87.985
N7290G3X703.729Y91.765I-0.927J2.853
N7300G1X701.347Y99.095
N7310G3X699.856Y100.841I-2.853J-0.927
N7320G2X699.841Y100.888I0.016J0.031
N7330G2X699.888Y100.904I0.031J-0.016
N7340G3X702.177Y100.724I1.362J2.673
N7350G1X763.638Y120.694
N7360G1X776.953Y125.020
N7370G1X829.202Y141.997
N7380G3X830.948Y143.488I-0.927J2.853
N7390G2X830.995Y143.503I0.031J-0.016
N7400G2X831.011Y143.456I-0.016J-0.031
N7410G3X830.831Y141.167I2.673J-1.362
N7420G1X833.212Y133.837
N7430G3X836.992Y131.911I2.853J0.927
N7440G1X972.184Y175.837
N7450G3X974.110Y179.617I-0.927J2.853
N7460G1Z5.867F3000.0
N7470G1X971.728Y186.947F9600.0
N7480G3X970.237Y188.693I-2.853J-0.927
N7490G2X970.221Y188.740I0.016J0.031
N7500G2X970.269Y188.756I0.031J-0.016
N7510G3X972.558Y188.576I1.362J2.673
N7520G1X1023.542Y205.141
N7530G1X1036.856Y209.468
N7540G1X1103.666Y231.175
N7550G3X1105.739Y234.028I-0.927J2.853
N7560G1Y297.184
N7570G1Y311.184
N7580G1Y371.884
N7590G3X1104.860Y374.006I-3.000J0.000
N7600G2Y374.055I0.025J0.025
N7610G2X1104.909I0.025J-0.025
N7620G3X1107.031Y373.176I2.121J2.121
N7630G1X1114.739
N7640G3X1117.739Y376.176I0.000J3.000
N7650G1Y518.325
N7660G3X1114.739Y521.325I-3.000J0.000
N7670G1X1107.031
N7680G3X1104.909Y520.446I0.000J-3.000
N7690G2X1104.860I-0.025J0.025
N7700G2Y520.495I0.025J0.025
N7710G3X1105.739Y522.617I-2.121J2.121
N7720G1Y580.336
N7730G1Y594.336
N7740G1Y656.180
N7750G3X1104.860Y658.302I-3.000J0.000
N7760G2Y658.351I0.025J0.025
N7770G2X1104.909I0.025J-0.025
N7780G3X1107.031Y657.472I2.121J2.121
N7790G1X1114.739
N7800G3X1117.739Y660.472I0.000J3.000
N7810G1Y802.620
N7820G3X1114.739Y805.620I-3.000J0.000
N7830G1X1107.031
N7840G3X1104.909Y804.742I0.000J-3.000
N7850G2X1104.860I-0.025J0.025
N7860G2Y804.791I0.025J0.025
N7870G3X1105.739Y806.913I-2.121J2.121
N7880G1Y863.488
N7890G1Y877.488
N7900G1Y944.768
N7910G3X1103.666Y947.622I-3.000J0.000
N7920G1X1044.670Y966.791
N7930G1X1031.355Y971.117
N7940G1X972.558Y990.221
N7950G3X970.269Y990.041I-0.927J-2.853
N7960G2X970.221Y990.056I-0.016J0.031
N7970G2X970.237Y990.103I0.031J0.016
N7980G3X971.728Y991.849I-1.362J2.673
N7990G1X974.110Y999.179
N8000G3X972.184Y1002.960I-2.853J0.927
N8010G1X836.992Y1046.886
N8020G3X833.212Y1044.959I-0.927J-2.853
N8030G1X830.831Y1037.630
N8040G3X831.011Y1035.341I2.853J-0.927
N8050G2X830.995Y1035.293I-0.031J-0.016
N8060G2X830.948Y1035.309I-0.016J0.031
N8070G3X829.202Y1036.800I-2.673J-1.362
N8080G1X777.770Y1053.511
N8090G1X764.455Y1057.838
N8100G1X702.177Y1078.073
N8110G3X699.888Y1077.893I-0.927J-2.853
N8120G2X699.841Y1077.908I-0.016J0.031
N8130G2X699.856Y1077.955I0.031J0.016
N8140G3X701.347Y1079.701I-1.362J2.673
N8150G1X703.729Y1087.031
N8160G3X701.803Y1090.812I-2.853J0.927
N8170G1X566.612Y1134.739
N8180G3X562.832Y1132.813I-0.927J-2.853
N8190G1X560.450Y1125.482
N8200G3X560.630Y1123.193I2.853J-0.927
N8210G2X560.615Y1123.146I-0.031J-0.016
N8220G2X560.567Y1123.161I-0.016J0.031
N8230G3X558.821Y1124.652I-2.673J-1.362
N8240G1X502.553Y1142.934
N8250G1X489.239Y1147.261
N8260G1X427.713Y1167.252
N8270G3X424.358Y1166.162I-0.927J-2.853
N8280G1X386.991Y1114.730
N8290G1X378.762Y1103.403
N8300G1X343.329Y1054.634
N8310G3X342.793Y1052.401I2.427J-1.763
N8320G2X342.764Y1052.361I-0.035J-0.005
N8330G2X342.724Y1052.391I-0.005J0.035
N8340G3X341.524Y1054.348I-2.963J-0.469
N8350G1X335.289Y1058.879
N8360G3X331.098Y1058.215I-1.763J-2.427
N8370G1X247.545Y943.215
N8380G3X248.209Y939.024I2.427J-1.763
N8390G1X254.446Y934.494
N8400G3X256.678Y933.958I1.763J2.427
N8410G2X256.718Y933.929I0.005J-0.035
N8420G2X256.689Y933.889I-0.035J-0.005
N8430G3X254.731Y932.689I0.469J-2.963
N8440G1X220.034Y884.933
N8450G1X211.805Y873.607
N8460G1X176.224Y824.634
N8470G3X175.688Y822.401I2.427J-1.763
N8480G2X175.659Y822.361I-0.035J-0.005
N8490G2X175.619Y822.391I-0.005J0.035
N8500G3X174.419Y824.348I-2.963J-0.469
N8510G1X168.184Y828.879
N8520G3X163.993Y828.215I-1.763J-2.427
N8530G1X80.441Y713.215
N8540G3X81.105Y709.024I2.427J-1.763
N8550G1X87.341Y704.494
N8560G3X89.573Y703.958I1.763J2.427
N8570G2X89.613Y703.929I0.005J-0.035
N8580G2X89.584Y703.889I-0.035J-0.005
N8590G3X87.627Y702.689I0.469J-2.963
N8600G1X59.449Y663.906
N8610G1X51.220Y652.580
N8620G1X6.597Y591.162
N8630G3Y587.635I2.427J-1.763
N8640G1X47.629Y531.160
N8650G1X55.858Y519.833
N8660G1X87.627Y476.108
N8670G3X89.584Y474.908I2.427J1.763
N8680G2X89.613Y474.868I-0.005J-0.035
N8690G2X89.573Y474.839I-0.035J0.005
N8700G3X87.341Y474.303I-0.469J-2.963
N8710G1X81.105Y469.773
N8720G3X80.441Y465.582I1.763J-2.427
N8730G1X163.993Y350.582
N8740G3X168.184Y349.918I2.427J1.763
N8750G1X174.419Y354.449
N8760G3X175.619Y356.406I-1.763J2.427
N8770G2X175.659Y356.435I0.035J-0.005
N8780G2X175.688Y356.395I-0.005J-0.035
N8790G3X176.224Y354.163I2.963J-0.469
N8800G1X209.792Y307.960
N8810G1X218.022Y296.634
N8820G1X254.731Y246.108
N8830G3X256.689Y244.908I2.427J1.763
N8840G2X256.718Y244.868I-0.005J-0.035
N8850G2X256.678Y244.839I-0.035J0.005
N8860G3X254.446Y244.303I-0.469J-2.963
N8870G1X248.209Y239.773
N8880G3X247.545Y235.582I1.763J-2.427
N8890G1X331.098Y120.582
N8900G3X335.289Y119.918I2.427J1.763
N8910G1X341.524Y124.449
N8920G3X342.724Y126.406I-1.763J2.427
N8930G2X342.764Y126.435I0.035J-0.005
N8940G2X342.793Y126.395I-0.005J-0.035
N8950G3X343.329Y124.163I2.963J-0.469
N8960G1X373.344Y82.851
N8970G1X381.573Y71.524
N8980G1X424.358Y12.635
N8990G3X427.713Y11.545I2.427J1.763
N9000G1X482.283Y29.276
N9010G1X495.598Y33.602
N9020G1X558.821Y54.145
N9030G3X560.567Y55.636I-0.927J2.853
N9040G2X560.615Y55.651I0.031J-0.016
N9050G2X560.630Y55.604I-0.016J-0.031
N9060G3X560.450Y53.315I2.673J-1.362
N9070G1X562.832Y45.984
N9080G3X566.612Y44.058I2.853J0.927
N9090G1X701.803Y87.985
N9100G3X703.729Y91.765I-0.927J2.853
N9110G1X701.347Y99.095
N9120G3X699.856Y100.841I-2.853J-0.927
N9130G2X699.841Y100.888I0.016J0.031
N9140G2X699.888Y100.904I0.031J-0.016
N9150G3X702.177Y100.724I1.362J2.673
N9160G1X763.638Y120.694
N9170G1X776.953Y125.020
N9180G1X829.202Y141.997
N9190G3X830.948Y143.488I-0.927J2.853
N9200G2X830.995Y143.503I0.031J-0.016
N9210G2X831.011Y143.456I-0.016J-0.031
N9220G3X830.831Y141.167I2.673J-1.362
N9230G1X833.212Y133.837
N9240G3X836.992Y131.911I2.853J0.927
N9250G1X972.184Y175.837
N9260G3X974.110Y179.617I-0.927J2.853
N9270G1Z2.833F3000.0
N9280G1X971.728Y186.947F9600.0
N9290G3X970.237Y188.693I-2.853J-0.927
N9300G2X970.221Y188.740I0.016J0.031
N9310G2X970.269Y188.756I0.031J-0.016
N9320G3X972.558Y188.576I1.362J2.673
N9330G1X1023.542Y205.141
N9340G1X1036.856Y209.468
N9350G1X1103.666Y231.175
N9360G3X1105.739Y234.028I-0.927J2.853
N9370G1Y297.184
N9380G1Y311.184
N9390G1Y371.884
N9400G3X1104.860Y374.006I-3.000J0.000
N9410G2Y374.055I0.025J0.025
N9420G2X1104.909I0.025J-0.025
N9430G3X1107.031Y373.176I2.121J2.121
N9440G1X1114.739
N9450G3X1117.739Y376.176I0.000J3.000
N9460G1Y518.325
N9470G3X1114.739Y521.325I-3.000J0.000
N9480G1X1107.031
N9490G3X1104.909Y520.446I0.000J-3.000
N9500G2X1104.860I-0.025J0.025
N9510G2Y520.495I0.025J0.025
N9520G3X1105.739Y522.617I-2.121J2.121
N9530G1Y580.336
N9540G1Y594.336
N9550G1Y656.180
N9560G3X1104.860Y658.302I-3.000J0.000
N9570G2Y658.351I0.025J0.025
N9580G2X1104.909I0.025J-0.025
N9590G3X1107.031Y657.472I2.121J2.121
N9600G1X1114.739
N9610G3X1117.739Y660.472I0.000J3.000
N9620G1Y802.620
N9630G3X1114.739Y805.620I-3.000J0.000
N9640G1X1107.031
N9650G3X1104.909Y804.742I0.000J-3.000
N9660G2X1104.860I-0.025J0.025
N9670G2Y804.791I0.025J0.025
N9680G3X1105.739Y806.913I-2.121J2.121
N9690G1Y863.488
N9700G1Y877.488
N9710G1Y944.768
N9720G3X1103.666Y947.622I-3.000J0.000
N9730G1X1044.670Y966.791
N9740G1X1031.355Y971.117
N9750G1X972.558Y990.221
N9760G3X970.269Y990.041I-0.927J-2.853
N9770G2X970.221Y990.056I-0.016J0.031
N9780G2X970.237Y990.103I0.031J0.016
N9790G3X971.728Y991.849I-1.362J2.673
N9800G1X974.110Y999.179
N9810G3X972.184Y1002.960I-2.853J0.927
N9820G1X836.992Y1046.886
N9830G3X833.212Y1044.959I-0.927J-2.853
N9840G1X830.831Y1037.630
N9850G3X831.011Y1035.341I2.853J-0.927
N9860G2X830.995Y1035.293I-0.031J-0.016
N9870G2X830.948Y1035.309I-0.016J0.031
N9880G3X829.202Y1036.800I-2.673J-1.362
N9890G1X777.770Y1053.511
N9900G1X764.455Y1057.838
N9910G1X702.177Y1078.073
N9920G3X699.888Y1077.893I-0.927J-2.853
N9930G2X699.841Y1077.908I-0.016J0.031
N9940G2X699.856Y1077.955I0.031J0.016
N9950G3X701.347Y1079.701I-1.362J2.673
N9960G1X703.729Y1087.031
N9970G3X701.803Y1090.812I-2.853J0.927
N9980G1X566.612Y1134.739
N9990G3X562.832Y1132.813I-0.927J-2.853
N10000G1X560.450Y1125.482
N10010G3X560.630Y1123.193I2.853J-0.927
N10020G2X560.615Y1123.146I-0.031J-0.016
N10030G2X560.567Y1123.161I-0.016J0.031
N10040G3X558.821Y1124.652I-2.673J-1.362
N10050G1X502.553Y1142.934
N10060G1X489.239Y1147.261
N10070G1X427.713Y1167.252
N10080G3X424.358Y1166.162I-0.927J-2.853
N10090G1X386.991Y1114.730
N10100G1X378.762Y1103.403
N10110G1X343.329Y1054.634
N10120G3X342.793Y1052.401I2.427J-1.763
N10130G2X342.764Y1052.361I-0.035J-0.005
N10140G2X342.724Y1052.391I-0.005J0.035
N10150G3X341.524Y1054.348I-2.963J-0.469
N10160G1X335.289Y1058.879
N10170G3X331.098Y1058.215I-1.763J-2.427
N10180G1X247.545Y943.215
N10190G3X248.209Y939.024I2.427J-1.763
N10200G1X254.446Y934.494
N10210G3X256.678Y933.958I1.763J2.427
N10220G2X256.718Y933.929I0.005J-0.035
N10230G2X256.689Y933.889I-0.035J-0.005
N10240G3X254.731Y932.689I0.469J-2.963
N10250G1X220.034Y884.933
N10260G1X211.805Y873.607
N10270G1X176.224Y824.634
N10280G3X175.688Y822.401I2.427J-1.763
N10290G2X175.659Y822.361I-0.035J-0.005
N10300G2X175.619Y822.391I-0.005J0.035
N10310G3X174.419Y824.348I-2.963J-0.469
N10320G1X168.184Y828.879
N10330G3X163.993Y828.215I-1.763J-2.427
N10340G1X80.441Y713.215
N10350G3X81.105Y709.024I2.427J-1.763
N10360G1X87.341Y704.494
N10370G3X89.573Y703.958I1.763J2.427
N10380G2X89.613Y703.929I0.005J-0.035
N10390G2X89.584Y703.889I-0.035J-0.005
N10400G3X87.627Y702.689I0.469J-2.963
N10410G1X59.449Y663.906
N10420G1X51.220Y652.580
N10430G1X6.597Y591.162
N10440G3Y587.635I2.427J-1.763
N10450G1X47.629Y531.160
N10460G1X55.858Y519.833
N10470G1X87.627Y476.108
N10480G3X89.584Y474.908I2.427J1.763
N10490G2X89.613Y474.868I-0.005J-0.035
N10500G2X89.573Y474.839I-0.035J0.005
N10510G3X87.341Y474.303I-0.469J-2.963
N10520G1X81.105Y469.773
N10530G3X80.441Y465.582I1.763J-2.427
N10540G1X163.993Y350.582
N10550G3X168.184Y349.918I2.427J1.763
N10560G1X174.419Y354.449
N10570G3X175.619Y356.406I-1.763J2.427
N10580G2X175.659Y356.435I0.035J-0.005
N10590G2X175.688Y356.395I-0.005J-0.035
N10600G3X176.224Y354.163I2.963J-0.469
N10610G1X209.792Y307.960
N10620G1X218.022Y296.634
N10630G1X254.731Y246.108
N10640G3X256.689Y244.908I2.427J1.763
N10650G2X256.718Y244.868I-0.005J-0.035
N10660G2X256.678Y244.839I-0.035J0.005
N10670G3X254.446Y244.303I-0.469J-2.963
N10680G1X248.209Y239.773
N10690G3X247.545Y235.582I1.763J-2.427
N10700G1X331.098Y120.582
N10710G3X335.289Y119.918I2.427J1.763
N10720G1X341.524Y124.449
N10730G3X342.724Y126.406I-1.763J2.427
N10740G2X342.764Y126.435I0.035J-0.005
N10750G2X342.793Y126.395I-0.005J-0.035
N10760G3X343.329Y124.163I2.963J-0.469
N10770G1X373.344Y82.851
N10780G1X381.573Y71.524
N10790G1X424.358Y12.635
N10800G3X427.713Y11.545I2.427J1.763
N10810G1X482.283Y29.276
N10820G1X495.598Y33.602
N10830G1X558.821Y54.145
N10840G3X560.567Y55.636I-0.927J2.853
N10850G2X560.615Y55.651I0.031J-0.016
N10860G2X560.630Y55.604I-0.016J-0.031
N10870G3X560.450Y53.315I2.673J-1.362
N10880G1X562.832Y45.984
N10890G3X566.612Y44.058I2.853J0.927
N10900G1X701.803Y87.985
N10910G3X703.729Y91.765I-0.927J2.853
N10920G1X701.347Y99.095
N10930G3X699.856Y100.841I-2.853J-0.927
N10940G2X699.841Y100.888I0.016J0.031
N10950G2X699.888Y100.904I0.031J-0.016
N10960G3X702.177Y100.724I1.362J2.673
N10970G1X763.638Y120.694
N10980G1X776.953Y125.020
N10990G1X829.202Y141.997
N11000G3X830.948Y143.488I-0.927J2.853
N11010G2X830.995Y143.503I0.031J-0.016
N11020G2X831.011Y143.456I-0.016J-0.031
N11030G3X830.831Y141.167I2.673J-1.362
N11040G1X833.212Y133.837
N11050G3X836.992Y131.911I2.853J0.927
N11060G1X972.184Y175.837
N11070G3X974.110Y179.617I-0.927J2.853
N11080G1Z-0.200F3000.0
N11090G1X971.728Y186.947F9600.0
N11100G3X970.237Y188.693I-2.853J-0.927
N11110G2X970.221Y188.740I0.016J0.031
N11120G2X970.269Y188.756I0.031J-0.016
N11130G3X972.558Y188.576I1.362J2.673
N11140G1X1023.542Y205.141
N11150G1Z2.800
N11160G1X1036.856Y209.468
N11170G1Z-0.200F3000.0
N11180G1X1103.666Y231.175F9600.0
N11190G3X1105.739Y234.028I-0.927J2.853
N11200G1Y297.184
N11210G1Z2.800
N11220G1Y311.184
N11230G1Z-0.200F3000.0
N11240G1Y371.884F9600.0
N11250G3X1104.860Y374.006I-3.000J0.000
N11260G2Y374.055I0.025J0.025
N11270G2X1104.909I0.025J-0.025
N11280G3X1107.031Y373.176I2.121J2.121
N11290G1X1114.739
N11300G3X1117.739Y376.176I0.000J3.000
N11310G1Y518.325
N11320G3X1114.739Y521.325I-3.000J0.000
N11330G1X1107.031
N11340G3X1104.909Y520.446I0.000J-3.000
N11350G2X1104.860I-0.025J0.025
N11360G2Y520.495I0.025J0.025
N11370G3X1105.739Y522.617I-2.121J2.121
N11380G1Y580.336
N11390G1Z2.800
N11400G1Y594.336
N11410G1Z-0.200F3000.0
N11420G1Y656.180F9600.0
N11430G3X1104.860Y658.302I-3.000J0.000
N11440G2Y658.351I0.025J0.025
N11450G2X1104.909I0.025J-0.025
N11460G3X1107.031Y657.472I2.121J2.121
N11470G1X1114.739
N11480G3X1117.739Y660.472I0.000J3.000
N11490G1Y802.620
N11500G3X1114.739Y805.620I-3.000J0.000
N11510G1X1107.031
N11520G3X1104.909Y804.742I0.000J-3.000
N11530G2X1104.860I-0.025J0.025
N11540G2Y804.791I0.025J0.025
N11550G3X1105.739Y806.913I-2.121J2.121
N11560G1Y863.488
N11570G1Z2.800
N11580G1Y877.488
N11590G1Z-0.200F3000.0
N11600G1Y944.768F9600.0
N11610G3X1103.666Y947.622I-3.000J0.000
N11620G1X1044.670Y966.791
N11630G1Z2.800
N11640G1X1031.355Y971.117
N11650G1Z-0.200F3000.0
N11660G1X972.558Y990.221F9600.0
N11670G3X970.269Y990.041I-0.927J-2.853
N11680G2X970.221Y990.056I-0.016J0.031
N11690G2X970.237Y990.103I0.031J0.016
N11700G3X971.728Y991.849I-1.362J2.673
N11710G1X974.110Y999.179
N11720G3X972.184Y1002.960I-2.853J0.927
N11730G1X836.992Y1046.886
N11740G3X833.212Y1044.959I-0.927J-2.853
N11750G1X830.831Y1037.630
N11760G3X831.011Y1035.341I2.853J-0.927
N11770G2X830.995Y1035.293I-0.031J-0.016
N11780G2X830.948Y1035.309I-0.016J0.031
N11790G3X829.202Y1036.800I-2.673J-1.362
N11800G1X777.770Y1053.511
N11810G1Z2.800
N11820G1X764.455Y1057.838
N11830G1Z-0.200F3000.0
N11840G1X702.177Y1078.073F9600.0
N11850G3X699.888Y1077.893I-0.927J-2.853
N11860G2X699.841Y1077.908I-0.016J0.031
N11870G2X699.856Y1077.955I0.031J0.016
N11880G3X701.347Y1079.701I-1.362J2.673
N11890G1X703.729Y1087.031
N11900G3X701.803Y1090.812I-2.853J0.927
N11910G1X566.612Y1134.739
N11920G3X562.832Y1132.813I-0.927J-2.853
N11930G1X560.450Y1125.482
N11940G3X560.630Y1123.193I2.853J-0.927
N11950G2X560.615Y1123.146I-0.031J-0.016
N11960G2X560.567Y1123.161I-0.016J0.031
N11970G3X558.821Y1124.652I-2.673J-1.362
N11980G1X502.553Y1142.934
N11990G1Z2.800
N12000G1X489.239Y1147.261
N12010G1Z-0.200F3000.0
N12020G1X427.713Y1167.252F9600.0
N12030G3X424.358Y1166.162I-0.927J-2.853
N12040G1X386.991Y1114.730
N12050G1Z2.800
N12060G1X378.762Y1103.403
N12070G1Z-0.200F3000.0
N12080G1X343.329Y1054.634F9600.0
N12090G3X342.793Y1052.401I2.427J-1.763
N12100G2X342.764Y1052.361I-0.035J-0.005
N12110G2X342.724Y1052.391I-0.005J0.035
N12120G3X341.524Y1054.348I-2.963J-0.469
N12130G1X335.289Y1058.879
N12140G3X331.098Y1058.215I-1.763J-2.427
N12150G1X247.545Y943.215
N12160G3X248.209Y939.024I2.427J-1.763
N12170G1X254.446Y934.494
N12180G3X256.678Y933.958I1.763J2.427
N12190G2X256.718Y933.929I0.005J-0.035
N12200G2X256.689Y933.889I-0.035J-0.005
N12210G3X254.731Y932.689I0.469J-2.963
N12220G1X220.034Y884.933
N12230G1Z2.800
N12240G1X211.805Y873.607
N12250G1Z-0.200F3000.0
N12260G1X176.224Y824.634F9600.0
N12270G3X175.688Y822.401I2.427J-1.763
N12280G2X175.659Y822.361I-0.035J-0.005
N12290G2X175.619Y822.391I-0.005J0.035
N12300G3X174.419Y824.348I-2.963J-0.469
N12310G1X168.184Y828.879
N12320G3X163.993Y828.215I-1.763J-2.427
N12330G1X80.441Y713.215
N12340G3X81.105Y709.024I2.427J-1.763
N12350G1X87.341Y704.494
N12360G3X89.573Y703.958I1.763J2.427
N12370G2X89.613Y703.929I0.005J-0.035
N12380G2X89.584Y703.889I-0.035J-0.005
N12390G3X87.627Y702.689I0.469J-2.963
N12400G1X59.449Y663.906
N12410G1Z2.800
N12420G1X51.220Y652.580
N12430G1Z-0.200F3000.0
N12440G1X6.597Y591.162F9600.0
N12450G3Y587.635I2.427J-1.763
N12460G1X47.629Y531.160
N12470G1Z2.800
N12480G1X55.858Y519.833
N12490G1Z-0.200F3000.0
N12500G1X87.627Y476.108F9600.0
N12510G3X89.584Y474.908I2.427J1.763
N12520G2X89.613Y474.868I-0.005J-0.035
N12530G2X89.573Y474.839I-0.035J0.005
N12540G3X87.341Y474.303I-0.469J-2.963
N12550G1X81.105Y469.773
N12560G3X80.441Y465.582I1.763J-2.427
N12570G1X163.993Y350.582
N12580G3X168.184Y349.918I2.427J1.763
N12590G1X174.419Y354.449
N12600G3X175.619Y356.406I-1.763J2.427
N12610G2X175.659Y356.435I0.035J-0.005
N12620G2X175.688Y356.395I-0.005J-0.035
N12630G3X176.224Y354.163I2.963J-0.469
N12640G1X209.792Y307.960
N12650G1Z2.800
N12660G1X218.022Y296.634
N12670G1Z-0.200F3000.0
N12680G1X254.731Y246.108F9600.0
N12690G3X256.689Y244.908I2.427J1.763
N12700G2X256.718Y244.868I-0.005J-0.035
N12710G2X256.678Y244.839I-0.035J0.005
N12720G3X254.446Y244.303I-0.469J-2.963
N12730G1X248.209Y239.773
N12740G3X247.545Y235.582I1.763J-2.427
N12750G1X331.098Y120.582
N12760G3X335.289Y119.918I2.427J1.763
N12770G1X341.524Y124.449
N12780G3X342.724Y126.406I-1.763J2.427
N12790G2X342.764Y126.435I0.035J-0.005
N12800G2X342.793Y126.395I-0.005J-0.035
N12810G3X343.329Y124.163I2.963J-0.469
N12820G1X373.344Y82.851
N12830G1Z2.800
N12840G1X381.573Y71.524
N12850G1Z-0.200F3000.0
N12860G1X424.358Y12.635F9600.0
N12870G3X427.713Y11.545I2.427J1.763
N12880G1X482.283Y29.276
N12890G1Z2.800
N12900G1X495.598Y33.602
N12910G1Z-0.200F3000.0
N12920G1X558.821Y54.145F9600.0
N12930G3X560.567Y55.636I-0.927J2.853
N12940G2X560.615Y55.651I0.031J-0.016
N12950G2X560.630Y55.604I-0.016J-0.031
N12960G3X560.450Y53.315I2.673J-1.362
N12970G1X562.832Y45.984
N12980G3X566.612Y44.058I2.853J0.927
N12990G1X701.803Y87.985
N13000G3X703.729Y91.765I-0.927J2.853
N13010G1X701.347Y99.095
N13020G3X699.856Y100.841I-2.853J-0.927
N13030G2X699.841Y100.888I0.016J0.031
N13040G2X699.888Y100.904I0.031J-0.016
N13050G3X702.177Y100.724I1.362J2.673
N13060G1X763.638Y120.694
N13070G1Z2.800
N13080G1X776.953Y125.020
N13090G1Z-0.200F3000.0
N13100G1X829.202Y141.997F9600.0
N13110G3X830.948Y143.488I-0.927J2.853
N13120G2X830.995Y143.503I0.031J-0.016
N13130G2X831.011Y143.456I-0.016J-0.031
N13140G3X830.831Y141.167I2.673J-1.362
N13150G1X833.212Y133.837
N13160G3X836.992Y131.911I2.853J0.927
N13170G1X972.184Y175.837
N13180G3X974.110Y179.617I-0.927J2.853
N13190G00Z23.000
N13200G00Z38.000
N13210G00X0.000Y0.000
N13220M09
N13230M30
%
