( Parts 04 )
( File created: Sunday November 01 2020 - 04:45 PM)
( for Mach2/3 from Vectric )
( Material Size)
( X= 1200.000, Y= 1200.000, Z= 18.000)
()
(Toolpaths used in this file:)
(Parts 04 Contours)
(Tools used in this file: )
(1 = End Mill {6 mm})
N100G00G21G17G90G40G49G80
N110G71G91.1
N120T1M06
N130 (End Mill {6 mm})
N140G00G43Z38.000H1
N150S16000M03
N160(Toolpath:- Parts 04 Contours)
N170()
N180G94
N190X0.000Y0.000F9600.0
N200G00X449.235Y15.391Z23.000
N210G1Z14.967F3000.0
N220G3X452.589Y14.301I2.427J1.763F9600.0
N230G1X548.594Y45.495
N240G1X561.909Y49.822
N250G1X783.177Y121.716
N260G1X796.492Y126.042
N270G1X995.122Y190.581
N280G1X1008.437Y194.907
N290G1X1128.542Y233.931
N300G3X1130.615Y236.785I-0.927J2.853
N310G1Y355.487
N320G1Y369.487
N330G1Y610.908
N340G1Y624.908
N350G1Y800.193
N360G1Y814.193
N370G1Y947.525
N380G3X1128.542Y950.378I-3.000J0.000
N390G1X1007.322Y989.764
N400G1X994.008Y994.091
N410G1X776.865Y1064.644
N420G1X763.550Y1068.971
N430G1X552.595Y1137.514
N440G1X539.281Y1141.840
N450G1X452.589Y1170.008
N460G3X449.235Y1168.918I-0.927J-2.853
N470G1X378.489Y1071.544
N480G1X370.260Y1060.218
N490G1X246.822Y890.319
N500G1X238.593Y878.993
N510G1X95.346Y681.830
N520G1X87.117Y670.504
N530G1X31.474Y593.918
N540G3Y590.391I2.427J-1.763
N550G1X105.308Y488.768
N560G1X113.537Y477.442
N570G1X253.039Y285.433
N580G1X261.268Y274.107
N590G1X374.260Y118.586
N600G1X382.489Y107.260
N610G1X449.235Y15.391
N620G1Z11.933F3000.0
N630G3X452.589Y14.301I2.427J1.763F9600.0
N640G1X548.594Y45.495
N650G1X561.909Y49.822
N660G1X783.177Y121.716
N670G1X796.492Y126.042
N680G1X995.122Y190.581
N690G1X1008.437Y194.907
N700G1X1128.542Y233.931
N710G3X1130.615Y236.785I-0.927J2.853
N720G1Y355.487
N730G1Y369.487
N740G1Y610.908
N750G1Y624.908
N760G1Y800.193
N770G1Y814.193
N780G1Y947.525
N790G3X1128.542Y950.378I-3.000J0.000
N800G1X1007.322Y989.764
N810G1X994.008Y994.091
N820G1X776.865Y1064.644
N830G1X763.550Y1068.971
N840G1X552.595Y1137.514
N850G1X539.281Y1141.840
N860G1X452.589Y1170.008
N870G3X449.235Y1168.918I-0.927J-2.853
N880G1X378.489Y1071.544
N890G1X370.260Y1060.218
N900G1X246.822Y890.319
N910G1X238.593Y878.993
N920G1X95.346Y681.830
N930G1X87.117Y670.504
N940G1X31.474Y593.918
N950G3Y590.391I2.427J-1.763
N960G1X105.308Y488.768
N970G1X113.537Y477.442
N980G1X253.039Y285.433
N990G1X261.268Y274.107
N1000G1X374.260Y118.586
N1010G1X382.489Y107.260
N1020G1X449.235Y15.391
N1030G1Z8.900F3000.0
N1040G3X452.589Y14.301I2.427J1.763F9600.0
N1050G1X548.594Y45.495
N1060G1X561.909Y49.822
N1070G1X783.177Y121.716
N1080G1X796.492Y126.042
N1090G1X995.122Y190.581
N1100G1X1008.437Y194.907
N1110G1X1128.542Y233.931
N1120G3X1130.615Y236.785I-0.927J2.853
N1130G1Y355.487
N1140G1Y369.487
N1150G1Y610.908
N1160G1Y624.908
N1170G1Y800.193
N1180G1Y814.193
N1190G1Y947.525
N1200G3X1128.542Y950.378I-3.000J0.000
N1210G1X1007.322Y989.764
N1220G1X994.008Y994.091
N1230G1X776.865Y1064.644
N1240G1X763.550Y1068.971
N1250G1X552.595Y1137.514
N1260G1X539.281Y1141.840
N1270G1X452.589Y1170.008
N1280G3X449.235Y1168.918I-0.927J-2.853
N1290G1X378.489Y1071.544
N1300G1X370.260Y1060.218
N1310G1X246.822Y890.319
N1320G1X238.593Y878.993
N1330G1X95.346Y681.830
N1340G1X87.117Y670.504
N1350G1X31.474Y593.918
N1360G3Y590.391I2.427J-1.763
N1370G1X105.308Y488.768
N1380G1X113.537Y477.442
N1390G1X253.039Y285.433
N1400G1X261.268Y274.107
N1410G1X374.260Y118.586
N1420G1X382.489Y107.260
N1430G1X449.235Y15.391
N1440G1Z5.867F3000.0
N1450G3X452.589Y14.301I2.427J1.763F9600.0
N1460G1X548.594Y45.495
N1470G1X561.909Y49.822
N1480G1X783.177Y121.716
N1490G1X796.492Y126.042
N1500G1X995.122Y190.581
N1510G1X1008.437Y194.907
N1520G1X1128.542Y233.931
N1530G3X1130.615Y236.785I-0.927J2.853
N1540G1Y355.487
N1550G1Y369.487
N1560G1Y610.908
N1570G1Y624.908
N1580G1Y800.193
N1590G1Y814.193
N1600G1Y947.525
N1610G3X1128.542Y950.378I-3.000J0.000
N1620G1X1007.322Y989.764
N1630G1X994.008Y994.091
N1640G1X776.865Y1064.644
N1650G1X763.550Y1068.971
N1660G1X552.595Y1137.514
N1670G1X539.281Y1141.840
N1680G1X452.589Y1170.008
N1690G3X449.235Y1168.918I-0.927J-2.853
N1700G1X378.489Y1071.544
N1710G1X370.260Y1060.218
N1720G1X246.822Y890.319
N1730G1X238.593Y878.993
N1740G1X95.346Y681.830
N1750G1X87.117Y670.504
N1760G1X31.474Y593.918
N1770G3Y590.391I2.427J-1.763
N1780G1X105.308Y488.768
N1790G1X113.537Y477.442
N1800G1X253.039Y285.433
N1810G1X261.268Y274.107
N1820G1X374.260Y118.586
N1830G1X382.489Y107.260
N1840G1X449.235Y15.391
N1850G1Z2.833F3000.0
N1860G3X452.589Y14.301I2.427J1.763F9600.0
N1870G1X548.594Y45.495
N1880G1X561.909Y49.822
N1890G1X783.177Y121.716
N1900G1X796.492Y126.042
N1910G1X995.122Y190.581
N1920G1X1008.437Y194.907
N1930G1X1128.542Y233.931
N1940G3X1130.615Y236.785I-0.927J2.853
N1950G1Y355.487
N1960G1Y369.487
N1970G1Y610.908
N1980G1Y624.908
N1990G1Y800.193
N2000G1Y814.193
N2010G1Y947.525
N2020G3X1128.542Y950.378I-3.000J0.000
N2030G1X1007.322Y989.764
N2040G1X994.008Y994.091
N2050G1X776.865Y1064.644
N2060G1X763.550Y1068.971
N2070G1X552.595Y1137.514
N2080G1X539.281Y1141.840
N2090G1X452.589Y1170.008
N2100G3X449.235Y1168.918I-0.927J-2.853
N2110G1X378.489Y1071.544
N2120G1X370.260Y1060.218
N2130G1X246.822Y890.319
N2140G1X238.593Y878.993
N2150G1X95.346Y681.830
N2160G1X87.117Y670.504
N2170G1X31.474Y593.918
N2180G3Y590.391I2.427J-1.763
N2190G1X105.308Y488.768
N2200G1X113.537Y477.442
N2210G1X253.039Y285.433
N2220G1X261.268Y274.107
N2230G1X374.260Y118.586
N2240G1X382.489Y107.260
N2250G1X449.235Y15.391
N2260G1Z-0.200F3000.0
N2270G3X452.589Y14.301I2.427J1.763F9600.0
N2280G1X548.594Y45.495
N2290G1Z2.800
N2300G1X561.909Y49.822
N2310G1Z-0.200F3000.0
N2320G1X783.177Y121.716F9600.0
N2330G1Z2.800
N2340G1X796.492Y126.042
N2350G1Z-0.200F3000.0
N2360G1X995.122Y190.581F9600.0
N2370G1Z2.800
N2380G1X1008.437Y194.907
N2390G1Z-0.200F3000.0
N2400G1X1128.542Y233.931F9600.0
N2410G3X1130.615Y236.785I-0.927J2.853
N2420G1Y355.487
N2430G1Z2.800
N2440G1Y369.487
N2450G1Z-0.200F3000.0
N2460G1Y610.908F9600.0
N2470G1Z2.800
N2480G1Y624.908
N2490G1Z-0.200F3000.0
N2500G1Y800.193F9600.0
N2510G1Z2.800
N2520G1Y814.193
N2530G1Z-0.200F3000.0
N2540G1Y947.525F9600.0
N2550G3X1128.542Y950.378I-3.000J0.000
N2560G1X1007.322Y989.764
N2570G1Z2.800
N2580G1X994.008Y994.091
N2590G1Z-0.200F3000.0
N2600G1X776.865Y1064.644F9600.0
N2610G1Z2.800
N2620G1X763.550Y1068.971
N2630G1Z-0.200F3000.0
N2640G1X552.595Y1137.514F9600.0
N2650G1Z2.800
N2660G1X539.281Y1141.840
N2670G1Z-0.200F3000.0
N2680G1X452.589Y1170.008F9600.0
N2690G3X449.235Y1168.918I-0.927J-2.853
N2700G1X378.489Y1071.544
N2710G1Z2.800
N2720G1X370.260Y1060.218
N2730G1Z-0.200F3000.0
N2740G1X246.822Y890.319F9600.0
N2750G1Z2.800
N2760G1X238.593Y878.993
N2770G1Z-0.200F3000.0
N2780G1X95.346Y681.830F9600.0
N2790G1Z2.800
N2800G1X87.117Y670.504
N2810G1Z-0.200F3000.0
N2820G1X31.474Y593.918F9600.0
N2830G3Y590.391I2.427J-1.763
N2840G1X105.308Y488.768
N2850G1Z2.800
N2860G1X113.537Y477.442
N2870G1Z-0.200F3000.0
N2880G1X253.039Y285.433F9600.0
N2890G1Z2.800
N2900G1X261.268Y274.107
N2910G1Z-0.200F3000.0
N2920G1X374.260Y118.586F9600.0
N2930G1Z2.800
N2940G1X382.489Y107.260
N2950G1Z-0.200F3000.0
N2960G1X449.235Y15.391F9600.0
N2970G00Z23.000
N2980G00Z38.000
N2990G00X0.000Y0.000
N3000M09
N3010M30
%
