  0
SECTION
  2
HEADER
  9
$ACADVER
  1
AC1009
  9
$DWGCODEPAGE
  3
ansi_1252
  9
$INSBASE
 10
0.0
 20
0.0
 30
0.0
  9
$EXTMIN
 10
16.2856322773817
 20
14.56633692432611
 30
0.0
  9
$EXTMAX
 10
1121.995632277382
 20
1164.566336924326
 30
0.0
  9
$LIMMIN
 10
0.0
 20
0.0
  9
$LIMMAX
 10
12.0
 20
9.0
  9
$ORTHOMODE
 70
     0
  9
$REGENMODE
 70
     1
  9
$FILLMODE
 70
     1
  9
$QTEXTMODE
 70
     0
  9
$MIRRTEXT
 70
     1
  9
$DRAGMODE
 70
     2
  9
$LTSCALE
 40
1.0
  9
$OSMODE
 70
    37
  9
$ATTMODE
 70
     1
  9
$TEXTSIZE
 40
0.2
  9
$TRACEWID
 40
0.05
  9
$TEXTSTYLE
  7
STANDARD
  9
$CLAYER
  8
0
  9
$CELTYPE
  6
BYLAYER
  9
$CECOLOR
 62
   256
  9
$DIMSCALE
 40
1.0
  9
$DIMASZ
 40
0.18
  9
$DIMEXO
 40
0.0625
  9
$DIMDLI
 40
0.38
  9
$DIMRND
 40
0.0
  9
$DIMDLE
 40
0.0
  9
$DIMEXE
 40
0.18
  9
$DIMTP
 40
0.0
  9
$DIMTM
 40
0.0
  9
$DIMTXT
 40
0.18
  9
$DIMCEN
 40
0.09
  9
$DIMTSZ
 40
0.0
  9
$DIMTOL
 70
     0
  9
$DIMLIM
 70
     0
  9
$DIMTIH
 70
     1
  9
$DIMTOH
 70
     1
  9
$DIMSE1
 70
     0
  9
$DIMSE2
 70
     0
  9
$DIMTAD
 70
     0
  9
$DIMZIN
 70
     0
  9
$DIMBLK
  1

  9
$DIMASO
 70
     1
  9
$DIMSHO
 70
     1
  9
$DIMPOST
  1

  9
$DIMAPOST
  1

  9
$DIMALT
 70
     0
  9
$DIMALTD
 70
     2
  9
$DIMALTF
 40
25.4
  9
$DIMLFAC
 40
1.0
  9
$DIMTOFL
 70
     0
  9
$DIMTVP
 40
0.0
  9
$DIMTIX
 70
     0
  9
$DIMSOXD
 70
     0
  9
$DIMSAH
 70
     0
  9
$DIMBLK1
  1

  9
$DIMBLK2
  1

  9
$DIMSTYLE
  2
STANDARD
  9
$DIMCLRD
 70
     0
  9
$DIMCLRE
 70
     0
  9
$DIMCLRT
 70
     0
  9
$DIMTFAC
 40
1.0
  9
$DIMGAP
 40
0.09
  9
$LUNITS
 70
     2
  9
$LUPREC
 70
     4
  9
$SKETCHINC
 40
0.1
  9
$FILLETRAD
 40
0.5
  9
$AUNITS
 70
     0
  9
$AUPREC
 70
     0
  9
$MENU
  1
.
  9
$ELEVATION
 40
0.0
  9
$PELEVATION
 40
0.0
  9
$THICKNESS
 40
0.0
  9
$LIMCHECK
 70
     0
  9
$CHAMFERA
 40
0.0
  9
$CHAMFERB
 40
0.0
  9
$SKPOLY
 70
     0
  9
$TDCREATE
 40
2454910.5
  9
$TDUPDATE
 40
2459199.522708426
  9
$TDINDWG
 40
0.0000000116
  9
$TDUSRTIMER
 40
0.0000000116
  9
$USRTIMER
 70
     1
  9
$ANGBASE
 50
0.0
  9
$ANGDIR
 70
     0
  9
$PDMODE
 70
     0
  9
$PDSIZE
 40
0.0
  9
$PLINEWID
 40
0.0
  9
$COORDS
 70
     1
  9
$SPLFRAME
 70
     0
  9
$SPLINETYPE
 70
     6
  9
$SPLINESEGS
 70
     8
  9
$ATTDIA
 70
     0
  9
$ATTREQ
 70
     1
  9
$HANDLING
 70
     1
  9
$HANDSEED
  5
C6
  9
$SURFTAB1
 70
     6
  9
$SURFTAB2
 70
     6
  9
$SURFTYPE
 70
     6
  9
$SURFU
 70
     6
  9
$SURFV
 70
     6
  9
$UCSNAME
  2

  9
$UCSORG
 10
0.0
 20
0.0
 30
0.0
  9
$UCSXDIR
 10
1.0
 20
0.0
 30
0.0
  9
$UCSYDIR
 10
0.0
 20
1.0
 30
0.0
  9
$PUCSNAME
  2

  9
$PUCSORG
 10
0.0
 20
0.0
 30
0.0
  9
$PUCSXDIR
 10
1.0
 20
0.0
 30
0.0
  9
$PUCSYDIR
 10
0.0
 20
1.0
 30
0.0
  9
$USERI1
 70
     0
  9
$USERI2
 70
     0
  9
$USERI3
 70
     0
  9
$USERI4
 70
     0
  9
$USERI5
 70
     0
  9
$USERR1
 40
0.0
  9
$USERR2
 40
0.0
  9
$USERR3
 40
0.0
  9
$USERR4
 40
0.0
  9
$USERR5
 40
0.0
  9
$WORLDVIEW
 70
     1
  9
$SHADEDGE
 70
     3
  9
$SHADEDIF
 70
    70
  9
$TILEMODE
 70
     1
  9
$MAXACTVP
 70
    64
  9
$PLIMCHECK
 70
     0
  9
$PEXTMIN
 10
1.000000000000000E+20
 20
1.000000000000000E+20
 30
1.000000000000000E+20
  9
$PEXTMAX
 10
-1.000000000000000E+20
 20
-1.000000000000000E+20
 30
-1.000000000000000E+20
  9
$PLIMMIN
 10
0.0
 20
0.0
  9
$PLIMMAX
 10
12.0
 20
9.0
  9
$UNITMODE
 70
     0
  9
$VISRETAIN
 70
     1
  9
$PLINEGEN
 70
     0
  9
$PSLTSCALE
 70
     1
  0
ENDSEC
  0
SECTION
  2
TABLES
  0
TABLE
  2
VPORT
 70
     1
  0
VPORT
  2
*ACTIVE
 70
     0
 10
0.0
 20
0.0
 11
1.0
 21
1.0
 12
10.42990654205607
 22
4.5
 13
0.0
 23
0.0
 14
0.5
 24
0.5
 15
0.5
 25
0.5
 16
0.0
 26
0.0
 36
1.0
 17
0.0
 27
0.0
 37
0.0
 40
9.0
 41
1.972972972850329
 42
50.0
 43
0.0
 44
0.0
 50
0.0
 51
0.0
 71
     0
 72
   100
 73
     1
 74
     3
 75
     0
 76
     0
 77
     0
 78
     0
  0
ENDTAB
  0
TABLE
  2
LTYPE
 70
     2
  0
LTYPE
  2
CONTINUOUS
 70
     0
  3
Solid line
 72
    65
 73
     0
 40
0.0
  0
LTYPE
  2
CONTINUOUS2
 70
     0
  3
Solid Line
 72
    65
 73
     0
 40
0.0
  0
ENDTAB
  0
TABLE
  2
LAYER
 70
     2
  0
LAYER
  2
0
 70
     0
 62
     7
  6
CONTINUOUS
  0
LAYER
  2
CUTS_04
 70
     0
 62
     7
  6
CONTINUOUS
  0
ENDTAB
  0
TABLE
  2
STYLE
 70
     1
  0
STYLE
  2
STANDARD
 70
     0
 40
0.0
 41
1.0
 50
0.0
 71
     0
 42
0.2
  3
txt
  4

  0
ENDTAB
  0
TABLE
  2
VIEW
 70
     0
  0
ENDTAB
  0
TABLE
  2
UCS
 70
     0
  0
ENDTAB
  0
TABLE
  2
APPID
 70
     1
  0
APPID
  2
ACAD
 70
     0
  0
ENDTAB
  0
TABLE
  2
DIMSTYLE
 70
     1
  0
DIMSTYLE
  2
STANDARD
 70
     0
  3

  4

  5

  6

  7

 40
1.0
 41
0.18
 42
0.0625
 43
0.38
 44
0.18
 45
0.0
 46
0.0
 47
0.0
 48
0.0
140
0.18
141
0.09
142
0.0
143
25.4
144
1.0
145
0.0
146
1.0
147
0.09
 71
     0
 72
     0
 73
     1
 74
     1
 75
     0
 76
     0
 77
     0
 78
     0
170
     0
171
     2
172
     0
173
     0
174
     0
175
     0
176
     0
177
     0
178
     0
  0
ENDTAB
  0
ENDSEC
  0
SECTION
  2
BLOCKS
  0
BLOCK
  8
0
  2
$MODEL_SPACE
 70
     0
 10
0.0
 20
0.0
 30
0.0
  3
$MODEL_SPACE
  1

  0
ENDBLK
  5
21
  8
0
  0
BLOCK
 67
     1
  8
0
  2
$PAPER_SPACE
 70
     0
 10
0.0
 20
0.0
 30
0.0
  3
$PAPER_SPACE
  1

  0
ENDBLK
  5
1D
 67
     1
  8
0
  0
ENDSEC
  0
SECTION
  2
ENTITIES
  0
POLYLINE
  5
70
  8
CUTS_04
 66
     1
 10
0.0
 20
0.0
 30
0.0
 70
     1
  0
VERTEX
  5
79
  8
CUTS_04
 10
1009.995632277382
 20
643.3163369243263
 30
0.0
  0
VERTEX
  5
7A
  8
CUTS_04
 10
1009.995632277382
 20
309.0415038630162
 30
0.0
 42
-0.315858347587856
  0
VERTEX
  5
7B
  8
CUTS_04
 10
1008.009353369094
 20
306.2109394094124
 30
0.0
  0
VERTEX
  5
7C
  8
CUTS_04
 10
474.3248054291332
 20
132.801918374453
 30
0.0
 42
-0.3308749451868474
  0
VERTEX
  5
7D
  8
CUTS_04
 10
470.9220272947049
 20
133.9481207765174
 30
0.0
  0
VERTEX
  5
7E
  8
CUTS_04
 10
141.1802495785661
 20
587.79821494974
 30
0.0
 42
-0.3330150818572728
  0
VERTEX
  5
7F
  8
CUTS_04
 10
141.2329755218879
 20
591.4070700887593
 30
0.0
  0
VERTEX
  5
80
  8
CUTS_04
 10
470.961186078587
 20
1045.248411804307
 30
0.0
 42
-0.3340503212318748
  0
VERTEX
  5
81
  8
CUTS_04
 10
474.4202492893432
 20
1046.309700226606
 30
0.0
  0
VERTEX
  5
82
  8
CUTS_04
 10
792.235632277382
 20
943.0363369243265
 30
0.0
  0
SEQEND
  5
C4
  8
CUTS_04
  0
POLYLINE
  5
71
  8
CUTS_04
 66
     1
 10
0.0
 20
0.0
 30
0.0
 70
     1
  0
VERTEX
  5
83
  8
CUTS_04
 10
572.9456322773821
 20
47.08633692432653
 30
0.0
  0
VERTEX
  5
84
  8
CUTS_04
 10
570.5561577184145
 20
54.43509830379247
 30
0.0
 42
1.0
  0
VERTEX
  5
85
  8
CUTS_04
 10
565.174150912717
 20
57.1765582694722
 30
0.0
  0
VERTEX
  5
86
  8
CUTS_04
 10
434.0456322773819
 20
14.56633692432611
 30
0.0
  0
VERTEX
  5
87
  8
CUTS_04
 10
353.0055890303786
 20
126.1115789758565
 30
0.0
 42
1.0
  0
VERTEX
  5
88
  8
CUTS_04
 10
347.0401085580896
 20
127.0574345328731
 30
0.0
  0
VERTEX
  5
89
  8
CUTS_04
 10
340.7856322773817
 20
122.5163369243264
 30
0.0
  0
VERTEX
  5
8A
  8
CUTS_04
 10
257.235632277382
 20
237.5163369243264
 30
0.0
  0
VERTEX
  5
8B
  8
CUTS_04
 10
263.488955523218
 20
242.0565973654327
 30
0.0
 42
1.0
  0
VERTEX
  5
8C
  8
CUTS_04
 10
264.4346413244862
 20
248.0221047508341
 30
0.0
  0
VERTEX
  5
8D
  8
CUTS_04
 10
185.8963291629168
 20
356.1109738099591
 30
0.0
 42
1.0
  0
VERTEX
  5
8E
  8
CUTS_04
 10
179.9305902827654
 20
357.055198155043
 30
0.0
  0
VERTEX
  5
8F
  8
CUTS_04
 10
173.6856322773818
 20
352.5163369243264
 30
0.0
  0
VERTEX
  5
90
  8
CUTS_04
 10
90.12563227738184
 20
467.5163369243264
 30
0.0
  0
VERTEX
  5
91
  8
CUTS_04
 10
96.37905391879015
 20
472.0566688060902
 30
0.0
 42
1.0
  0
VERTEX
  5
92
  8
CUTS_04
 10
97.32490947580682
 20
478.0221492783791
 30
0.0
  0
VERTEX
  5
93
  8
CUTS_04
 10
16.2856322773817
 20
589.5663369243263
 30
0.0
  0
VERTEX
  5
94
  8
CUTS_04
 10
97.32575546781398
 20
701.1116890116954
 30
0.0
 42
1.0
  0
VERTEX
  5
95
  8
CUTS_04
 10
96.38191044527133
 20
707.0774879165715
 30
0.0
  0
VERTEX
  5
96
  8
CUTS_04
 10
90.12563227738184
 20
711.6263369243267
 30
0.0
  0
VERTEX
  5
97
  8
CUTS_04
 10
173.6856322773818
 20
826.6263369243267
 30
0.0
  0
VERTEX
  5
98
  8
CUTS_04
 10
179.9311192573199
 20
822.080652586351
 30
0.0
 42
1.0
  0
VERTEX
  5
99
  8
CUTS_04
 10
185.8971761212557
 20
823.0228656706818
 30
0.0
  0
VERTEX
  5
9A
  8
CUTS_04
 10
264.4354874549934
 20
931.1117335904979
 30
0.0
 42
1.0
  0
VERTEX
  5
9B
  8
CUTS_04
 10
263.4918121972597
 20
937.0775593512742
 30
0.0
  0
VERTEX
  5
9C
  8
CUTS_04
 10
257.235632277382
 20
941.6263369243267
 30
0.0
  0
VERTEX
  5
9D
  8
CUTS_04
 10
340.7856322773817
 20
1056.626336924326
 30
0.0
  0
VERTEX
  5
9E
  8
CUTS_04
 10
347.0406361983779
 20
1052.078414402984
 30
0.0
 42
1.0
  0
VERTEX
  5
9F
  8
CUTS_04
 10
353.006435103254
 20
1053.022259425526
 30
0.0
  0
VERTEX
  5
A0
  8
CUTS_04
 10
434.0456322773819
 20
1164.566336924326
 30
0.0
  0
VERTEX
  5
A1
  8
CUTS_04
 10
565.1741984611043
 20
1121.965799704198
 30
0.0
 42
1.0
  0
VERTEX
  5
A2
  8
CUTS_04
 10
570.5561135527366
 20
1124.707439714568
 30
0.0
  0
VERTEX
  5
A3
  8
CUTS_04
 10
572.9456322773821
 20
1132.056336924327
 30
0.0
  0
VERTEX
  5
A4
  8
CUTS_04
 10
708.1356322773821
 20
1088.126336924326
 30
0.0
  0
VERTEX
  5
A5
  8
CUTS_04
 10
705.7464447480122
 20
1080.778458296264
 30
0.0
 42
1.0
  0
VERTEX
  5
A6
  8
CUTS_04
 10
708.4880847583818
 20
1075.396543204632
 30
0.0
  0
VERTEX
  5
A7
  8
CUTS_04
 10
835.5541984611044
 20
1034.115799704198
 30
0.0
 42
1.0
  0
VERTEX
  5
A8
  8
CUTS_04
 10
840.9361135527367
 20
1036.857439714568
 30
0.0
  0
VERTEX
  5
A9
  8
CUTS_04
 10
843.3256322773817
 20
1044.206336924326
 30
0.0
  0
VERTEX
  5
AA
  8
CUTS_04
 10
978.5156322773818
 20
1000.276336924326
 30
0.0
  0
VERTEX
  5
AB
  8
CUTS_04
 10
976.1264005535292
 20
992.9283223773836
 30
0.0
 42
1.0
  0
VERTEX
  5
AC
  8
CUTS_04
 10
978.8678605192089
 20
987.5463155716859
 30
0.0
  0
VERTEX
  5
AD
  8
CUTS_04
 10
1109.995632277382
 20
944.9363369243262
 30
0.0
  0
VERTEX
  5
AE
  8
CUTS_04
 10
1109.995632277382
 20
807.0672618826935
 30
0.0
 42
1.0
  0
VERTEX
  5
AF
  8
CUTS_04
 10
1114.266557235749
 20
802.7963369243267
 30
0.0
  0
VERTEX
  5
B0
  8
CUTS_04
 10
1121.995632277382
 20
802.7963369243267
 30
0.0
  0
VERTEX
  5
B1
  8
CUTS_04
 10
1121.995632277382
 20
660.6463369243266
 30
0.0
  0
VERTEX
  5
B2
  8
CUTS_04
 10
1114.266557235749
 20
660.6463369243266
 30
0.0
 42
1.0
  0
VERTEX
  5
B3
  8
CUTS_04
 10
1109.995632277382
 20
656.3754119659599
 30
0.0
  0
VERTEX
  5
B4
  8
CUTS_04
 10
1109.995632277382
 20
522.7672618826933
 30
0.0
 42
1.0
  0
VERTEX
  5
B5
  8
CUTS_04
 10
1114.266557235749
 20
518.4963369243266
 30
0.0
  0
VERTEX
  5
B6
  8
CUTS_04
 10
1121.995632277382
 20
518.4963369243266
 30
0.0
  0
VERTEX
  5
B7
  8
CUTS_04
 10
1121.995632277382
 20
376.3463369243267
 30
0.0
  0
VERTEX
  5
B8
  8
CUTS_04
 10
1114.266557235749
 20
376.3463369243267
 30
0.0
 42
1.0
  0
VERTEX
  5
B9
  8
CUTS_04
 10
1109.995632277382
 20
372.07541196596
 30
0.0
  0
VERTEX
  5
BA
  8
CUTS_04
 10
1109.995632277382
 20
234.1963369243262
 30
0.0
  0
VERTEX
  5
BB
  8
CUTS_04
 10
978.8680847583814
 20
191.5961306440207
 30
0.0
 42
1.0
  0
VERTEX
  5
BC
  8
CUTS_04
 10
976.1264447480119
 20
186.2142155523883
 30
0.0
  0
VERTEX
  5
BD
  8
CUTS_04
 10
978.5156322773818
 20
178.8663369243263
 30
0.0
  0
VERTEX
  5
BE
  8
CUTS_04
 10
843.3256322773817
 20
134.9363369243264
 30
0.0
  0
VERTEX
  5
BF
  8
CUTS_04
 10
840.9361135527366
 20
142.2852341340848
 30
0.0
 42
1.0
  0
VERTEX
  5
C0
  8
CUTS_04
 10
835.5541984611043
 20
145.0268741444546
 30
0.0
  0
VERTEX
  5
C1
  8
CUTS_04
 10
708.4875616462072
 20
103.7459606973779
 30
0.0
 42
1.0
  0
VERTEX
  5
C2
  8
CUTS_04
 10
705.7452286823275
 20
98.36439866436008
 30
0.0
  0
VERTEX
  5
C3
  8
CUTS_04
 10
708.1356322773821
 20
91.0063369243266
 30
0.0
  0
SEQEND
  5
C5
  8
CUTS_04
  0
ENDSEC
  0
EOF
