( Cuts 04 )
( File created: Saturday November 07 2020 - 07:02 PM)
( for Mach2/3 from Vectric )
( Material Size)
( X= 1220.000, Y= 1200.000, Z= 18.000)
()
(Toolpaths used in this file:)
(Cuts 04 Contour Inside)
(Cuts 04 Contour Outside)
(Tools used in this file: )
(1 = End Mill {6 mm})
N110G00G21G17G90G40G49G80
N120G71G91.1
N130T1M06
N140 (End Mill {6 mm})
N150G00G43Z38.000H1
N160S16000M03
N170(Toolpath:- Cuts 04 Contour Inside)
N180()
N190G94
N200X0.000Y0.000F9000.0
N210G00X1006.996Y642.342Z23.000
N220G1Z15.738F3000.0
N230G1X954.688Y714.337F9000.0
N240G1X946.459Y725.663
N250G1X855.869Y850.349
N260G1X847.640Y861.675
N270G1X790.382Y940.484
N280G1X722.246Y962.625
N290G1X708.931Y966.951
N300G1X567.748Y1012.829
N310G1X554.433Y1017.155
N320G1X473.493Y1043.457
N330G1X473.393Y1043.491
N340G1X402.053Y945.299
N350G1X393.824Y933.972
N360G1X242.567Y725.781
N370G1X234.338Y714.454
N380G1X143.660Y589.644
N390G1X143.603Y589.568
N400G1X218.859Y485.987
N410G1X227.088Y474.660
N420G1X395.050Y243.481
N430G1X403.279Y232.154
N440G1X473.349Y135.711
N450G1X473.391Y135.653
N460G1X596.417Y175.627
N470G1X609.731Y179.954
N480G1X872.428Y265.311
N490G1X885.743Y269.638
N500G1X1006.996Y309.036
N510G1Y397.999
N520G1Y411.999
N530G1Y535.149
N540G1Y549.149
N550G1Y642.342
N560G1Z13.475F3000.0
N570G1X954.688Y714.337F9000.0
N580G1X946.459Y725.663
N590G1X855.869Y850.349
N600G1X847.640Y861.675
N610G1X790.382Y940.484
N620G1X722.246Y962.625
N630G1X708.931Y966.951
N640G1X567.748Y1012.829
N650G1X554.433Y1017.155
N660G1X473.493Y1043.457
N670G1X473.393Y1043.491
N680G1X402.053Y945.299
N690G1X393.824Y933.972
N700G1X242.567Y725.781
N710G1X234.338Y714.454
N720G1X143.660Y589.644
N730G1X143.603Y589.568
N740G1X218.859Y485.987
N750G1X227.088Y474.660
N760G1X395.050Y243.481
N770G1X403.279Y232.154
N780G1X473.349Y135.711
N790G1X473.391Y135.653
N800G1X596.417Y175.627
N810G1X609.731Y179.954
N820G1X872.428Y265.311
N830G1X885.743Y269.638
N840G1X1006.996Y309.036
N850G1Y397.999
N860G1Y411.999
N870G1Y535.149
N880G1Y549.149
N890G1Y642.342
N900G1Z11.212F3000.0
N910G1X954.688Y714.337F9000.0
N920G1X946.459Y725.663
N930G1X855.869Y850.349
N940G1X847.640Y861.675
N950G1X790.382Y940.484
N960G1X722.246Y962.625
N970G1X708.931Y966.951
N980G1X567.748Y1012.829
N990G1X554.433Y1017.155
N1000G1X473.493Y1043.457
N1010G1X473.393Y1043.491
N1020G1X402.053Y945.299
N1030G1X393.824Y933.972
N1040G1X242.567Y725.781
N1050G1X234.338Y714.454
N1060G1X143.660Y589.644
N1070G1X143.603Y589.568
N1080G1X218.859Y485.987
N1090G1X227.088Y474.660
N1100G1X395.050Y243.481
N1110G1X403.279Y232.154
N1120G1X473.349Y135.711
N1130G1X473.391Y135.653
N1140G1X596.417Y175.627
N1150G1X609.731Y179.954
N1160G1X872.428Y265.311
N1170G1X885.743Y269.638
N1180G1X1006.996Y309.036
N1190G1Y397.999
N1200G1Y411.999
N1210G1Y535.149
N1220G1Y549.149
N1230G1Y642.342
N1240G1Z8.950F3000.0
N1250G1X954.688Y714.337F9000.0
N1260G1X946.459Y725.663
N1270G1X855.869Y850.349
N1280G1X847.640Y861.675
N1290G1X790.382Y940.484
N1300G1X722.246Y962.625
N1310G1X708.931Y966.951
N1320G1X567.748Y1012.829
N1330G1X554.433Y1017.155
N1340G1X473.493Y1043.457
N1350G1X473.393Y1043.491
N1360G1X402.053Y945.299
N1370G1X393.824Y933.972
N1380G1X242.567Y725.781
N1390G1X234.338Y714.454
N1400G1X143.660Y589.644
N1410G1X143.603Y589.568
N1420G1X218.859Y485.987
N1430G1X227.088Y474.660
N1440G1X395.050Y243.481
N1450G1X403.279Y232.154
N1460G1X473.349Y135.711
N1470G1X473.391Y135.653
N1480G1X596.417Y175.627
N1490G1X609.731Y179.954
N1500G1X872.428Y265.311
N1510G1X885.743Y269.638
N1520G1X1006.996Y309.036
N1530G1Y397.999
N1540G1Y411.999
N1550G1Y535.149
N1560G1Y549.149
N1570G1Y642.342
N1580G1Z6.688F3000.0
N1590G1X954.688Y714.337F9000.0
N1600G1X946.459Y725.663
N1610G1X855.869Y850.349
N1620G1X847.640Y861.675
N1630G1X790.382Y940.484
N1640G1X722.246Y962.625
N1650G1X708.931Y966.951
N1660G1X567.748Y1012.829
N1670G1X554.433Y1017.155
N1680G1X473.493Y1043.457
N1690G1X473.393Y1043.491
N1700G1X402.053Y945.299
N1710G1X393.824Y933.972
N1720G1X242.567Y725.781
N1730G1X234.338Y714.454
N1740G1X143.660Y589.644
N1750G1X143.603Y589.568
N1760G1X218.859Y485.987
N1770G1X227.088Y474.660
N1780G1X395.050Y243.481
N1790G1X403.279Y232.154
N1800G1X473.349Y135.711
N1810G1X473.391Y135.653
N1820G1X596.417Y175.627
N1830G1X609.731Y179.954
N1840G1X872.428Y265.311
N1850G1X885.743Y269.638
N1860G1X1006.996Y309.036
N1870G1Y397.999
N1880G1Y411.999
N1890G1Y535.149
N1900G1Y549.149
N1910G1Y642.342
N1920G1Z4.425F3000.0
N1930G1X954.688Y714.337F9000.0
N1940G1X946.459Y725.663
N1950G1X855.869Y850.349
N1960G1X847.640Y861.675
N1970G1X790.382Y940.484
N1980G1X722.246Y962.625
N1990G1X708.931Y966.951
N2000G1X567.748Y1012.829
N2010G1X554.433Y1017.155
N2020G1X473.493Y1043.457
N2030G1X473.393Y1043.491
N2040G1X402.053Y945.299
N2050G1X393.824Y933.972
N2060G1X242.567Y725.781
N2070G1X234.338Y714.454
N2080G1X143.660Y589.644
N2090G1X143.603Y589.568
N2100G1X218.859Y485.987
N2110G1X227.088Y474.660
N2120G1X395.050Y243.481
N2130G1X403.279Y232.154
N2140G1X473.349Y135.711
N2150G1X473.391Y135.653
N2160G1X596.417Y175.627
N2170G1X609.731Y179.954
N2180G1X872.428Y265.311
N2190G1X885.743Y269.638
N2200G1X1006.996Y309.036
N2210G1Y397.999
N2220G1Y411.999
N2230G1Y535.149
N2240G1Y549.149
N2250G1Y642.342
N2260G1Z2.163F3000.0
N2270G1X954.688Y714.337F9000.0
N2280G1Z3.900
N2290G1X946.459Y725.663
N2300G1Z2.163F3000.0
N2310G1X855.869Y850.349F9000.0
N2320G1Z3.900
N2330G1X847.640Y861.675
N2340G1Z2.163F3000.0
N2350G1X790.382Y940.484F9000.0
N2360G1X722.246Y962.625
N2370G1Z3.900
N2380G1X708.931Y966.951
N2390G1Z2.163F3000.0
N2400G1X567.748Y1012.829F9000.0
N2410G1Z3.900
N2420G1X554.433Y1017.155
N2430G1Z2.163F3000.0
N2440G1X473.493Y1043.457F9000.0
N2450G1X473.393Y1043.491
N2460G1X402.053Y945.299
N2470G1Z3.900
N2480G1X393.824Y933.972
N2490G1Z2.163F3000.0
N2500G1X242.567Y725.781F9000.0
N2510G1Z3.900
N2520G1X234.338Y714.454
N2530G1Z2.163F3000.0
N2540G1X143.660Y589.644F9000.0
N2550G1X143.603Y589.568
N2560G1X218.859Y485.987
N2570G1Z3.900
N2580G1X227.088Y474.660
N2590G1Z2.163F3000.0
N2600G1X395.050Y243.481F9000.0
N2610G1Z3.900
N2620G1X403.279Y232.154
N2630G1Z2.163F3000.0
N2640G1X473.349Y135.711F9000.0
N2650G1X473.391Y135.653
N2660G1X596.417Y175.627
N2670G1Z3.900
N2680G1X609.731Y179.954
N2690G1Z2.163F3000.0
N2700G1X872.428Y265.311F9000.0
N2710G1Z3.900
N2720G1X885.743Y269.638
N2730G1Z2.163F3000.0
N2740G1X1006.996Y309.036F9000.0
N2750G1Y397.999
N2760G1Z3.900
N2770G1Y411.999
N2780G1Z2.163F3000.0
N2790G1Y535.149F9000.0
N2800G1Z3.900
N2810G1Y549.149
N2820G1Z2.163F3000.0
N2830G1Y642.342F9000.0
N2840G1Z-0.100F3000.0
N2850G1X954.688Y714.337F9000.0
N2860G1Z3.900
N2870G1X946.459Y725.663
N2880G1Z-0.100F3000.0
N2890G1X855.869Y850.349F9000.0
N2900G1Z3.900
N2910G1X847.640Y861.675
N2920G1Z-0.100F3000.0
N2930G1X790.382Y940.484F9000.0
N2940G1X722.246Y962.625
N2950G1Z3.900
N2960G1X708.931Y966.951
N2970G1Z-0.100F3000.0
N2980G1X567.748Y1012.829F9000.0
N2990G1Z3.900
N3000G1X554.433Y1017.155
N3010G1Z-0.100F3000.0
N3020G1X473.493Y1043.457F9000.0
N3030G1X473.393Y1043.491
N3040G1X402.053Y945.299
N3050G1Z3.900
N3060G1X393.824Y933.972
N3070G1Z-0.100F3000.0
N3080G1X242.567Y725.781F9000.0
N3090G1Z3.900
N3100G1X234.338Y714.454
N3110G1Z-0.100F3000.0
N3120G1X143.660Y589.644F9000.0
N3130G1X143.603Y589.568
N3140G1X218.859Y485.987
N3150G1Z3.900
N3160G1X227.088Y474.660
N3170G1Z-0.100F3000.0
N3180G1X395.050Y243.481F9000.0
N3190G1Z3.900
N3200G1X403.279Y232.154
N3210G1Z-0.100F3000.0
N3220G1X473.349Y135.711F9000.0
N3230G1X473.391Y135.653
N3240G1X596.417Y175.627
N3250G1Z3.900
N3260G1X609.731Y179.954
N3270G1Z-0.100F3000.0
N3280G1X872.428Y265.311F9000.0
N3290G1Z3.900
N3300G1X885.743Y269.638
N3310G1Z-0.100F3000.0
N3320G1X1006.996Y309.036F9000.0
N3330G1Y397.999
N3340G1Z3.900
N3350G1Y411.999
N3360G1Z-0.100F3000.0
N3370G1Y535.149F9000.0
N3380G1Z3.900
N3390G1Y549.149
N3400G1Z-0.100F3000.0
N3410G1Y642.342F9000.0
N3420G00Z23.000
N3430S16000M03
(Cuts 04 Contour Outside)
()
N3460G00X573.873Y44.233Z23.000
N3470G1Z15.738F3000.0
N3480G2X570.093Y46.159I-0.927J2.853F9000.0
N3490G1X567.703Y53.507
N3500G2X567.883Y55.797I2.853J0.928
N3510G3X567.874Y55.824I-0.018J0.009
N3520G3X567.847Y55.815I-0.009J-0.018
N3530G2X566.101Y54.323I-2.673J1.362
N3540G1X434.973Y11.713
N3550G2X431.619Y12.803I-0.927J2.853
N3560G1X350.579Y124.348
N3570G2X350.043Y126.581I2.427J1.763
N3580G3X350.026Y126.604I-0.020J0.003
N3590G3X350.003Y126.588I-0.003J-0.020
N3600G2X348.803Y124.630I-2.963J0.470
N3610G1X342.548Y120.089
N3620G2X338.359Y120.753I-1.763J2.428
N3630G1X324.743Y139.494
N3640G1X316.514Y150.820
N3650G1X254.809Y235.753
N3660G2X255.473Y239.944I2.427J1.763
N3670G1X261.726Y244.484
N3680G2X263.959Y245.020I1.763J-2.428
N3690G3X263.982Y245.036I0.003J0.020
N3700G3X263.965Y245.059I-0.020J0.003
N3710G2X262.008Y246.259I0.470J2.963
N3720G1X226.857Y294.636
N3730G1X218.627Y305.961
N3740G1X183.469Y354.348
N3750G2X182.933Y356.580I2.427J1.763
N3760G3X182.917Y356.603I-0.020J0.003
N3770G3X182.894Y356.586I-0.003J-0.020
N3780G2X181.694Y354.628I-2.963J0.469
N3790G1X175.449Y350.090
N3800G2X171.259Y350.753I-1.764J2.427
N3810G1X107.246Y438.851
N3820G1X99.016Y450.177
N3830G1X87.699Y465.753
N3840G2X88.363Y469.944I2.427J1.763
N3850G1X94.616Y474.484
N3860G2X96.849Y475.020I1.763J-2.428
N3870G3X96.872Y475.036I0.003J0.020
N3880G3X96.855Y475.059I-0.020J0.003
N3890G2X94.898Y476.259I0.470J2.963
N3900G1X13.859Y587.803
N3910G2Y591.330I2.427J1.763
N3920G1X94.899Y702.875
N3930G2X96.857Y704.075I2.427J-1.763
N3940G3X96.874Y704.098I-0.003J0.020
N3950G3X96.851Y704.114I-0.020J-0.003
N3960G2X94.618Y704.651I-0.469J2.963
N3970G1X88.361Y709.200
N3980G2X87.699Y713.390I1.764J2.426
N3990G1X107.067Y740.046
N4000G1X115.297Y751.372
N4010G1X171.259Y828.390
N4020G2X175.451Y829.052I2.427J-1.763
N4030G1X181.697Y824.506
N4040G2X182.894Y822.549I-1.765J-2.426
N4050G3X182.917Y822.532I0.020J0.003
N4060G3X182.934Y822.555I-0.003J0.020
N4070G2X183.470Y824.786I2.963J0.468
N4080G1X219.179Y873.931
N4090G1X227.408Y885.257
N4100G1X262.009Y932.875
N4110G2X263.967Y934.075I2.427J-1.763
N4120G3X263.983Y934.098I-0.003J0.020
N4130G3X263.961Y934.114I-0.020J-0.003
N4140G2X261.728Y934.651I-0.469J2.963
N4150G1X255.471Y939.200
N4160G2X254.809Y943.390I1.764J2.426
N4170G1X318.110Y1030.519
N4180G1X326.338Y1041.845
N4190G1X338.359Y1058.390
N4200G2X342.550Y1059.053I2.427J-1.763
N4210G1X348.805Y1054.505
N4220G2X350.004Y1052.547I-1.764J-2.427
N4230G3X350.027Y1052.531I0.020J0.003
N4240G3X350.043Y1052.553I-0.003J0.020
N4250G2X350.579Y1054.786I2.963J0.469
N4260G1X431.619Y1166.330
N4270G2X434.973Y1167.420I2.427J-1.763
N4280G1X566.101Y1124.819
N4290G2X567.847Y1123.328I-0.927J-2.853
N4300G3X567.874Y1123.319I0.018J0.009
N4310G3X567.883Y1123.346I-0.009J0.018
N4320G2X567.703Y1125.635I2.673J1.362
N4330G1X570.093Y1132.984
N4340G2X573.873Y1134.909I2.853J-0.928
N4350G1X604.813Y1124.856
N4360G1X618.127Y1120.529
N4370G1X709.063Y1090.979
N4380G2X710.989Y1087.199I-0.927J-2.853
N4390G1X708.599Y1079.851
N4400G2X707.108Y1078.105I-2.853J0.928
N4410G3X707.099Y1078.078I0.009J-0.018
N4420G3X707.126Y1078.070I0.018J0.009
N4430G2X709.415Y1078.250I1.362J-2.673
N4440G1X769.964Y1058.579
N4450G1X783.279Y1054.253
N4460G1X836.481Y1036.969
N4470G2X838.227Y1035.478I-0.927J-2.853
N4480G3X838.254Y1035.469I0.018J0.009
N4490G3X838.263Y1035.496I-0.009J0.018
N4500G2X838.083Y1037.785I2.673J1.362
N4510G1X840.473Y1045.134
N4520G2X844.253Y1047.059I2.853J-0.928
N4530G1X941.205Y1015.555
N4540G1X954.520Y1011.228
N4550G1X979.443Y1003.129
N4560G2X981.369Y999.349I-0.927J-2.853
N4570G1X978.979Y992.001
N4580G2X977.488Y990.255I-2.853J0.928
N4590G3X977.479Y990.228I0.009J-0.018
N4600G3X977.506Y990.219I0.018J0.009
N4610G2X979.795Y990.399I1.362J-2.673
N4620G1X1110.923Y947.789
N4630G2X1112.996Y944.936I-0.927J-2.853
N4640G1Y807.067
N4650G2X1112.117Y804.946I-3.000J0.000
N4660G3Y804.918I0.014J-0.014
N4670G3X1112.145I0.014J0.014
N4680G2X1114.267Y805.796I2.121J-2.121
N4690G1X1121.996
N4700G2X1124.996Y802.796I0.000J-3.000
N4710G1Y778.444
N4720G1Y764.444
N4730G1Y660.646
N4740G2X1121.996Y657.646I-3.000J0.000
N4750G1X1114.267
N4760G2X1112.145Y658.525I0.000J3.000
N4770G3X1112.117I-0.014J-0.014
N4780G3Y658.497I0.014J-0.014
N4790G2X1112.996Y656.375I-2.121J-2.121
N4800G1Y594.593
N4810G1Y580.593
N4820G1Y522.767
N4830G2X1112.117Y520.646I-3.000J0.000
N4840G3Y520.618I0.014J-0.014
N4850G3X1112.145I0.014J0.014
N4860G2X1114.267Y521.496I2.121J-2.121
N4870G1X1121.996
N4880G2X1124.996Y518.496I0.000J-3.000
N4890G1Y417.126
N4900G1Y403.126
N4910G1Y376.346
N4920G2X1121.996Y373.346I-3.000J0.000
N4930G1X1114.267
N4940G2X1112.145Y374.225I0.000J3.000
N4950G3X1112.117I-0.014J-0.014
N4960G3Y374.197I0.014J-0.014
N4970G2X1112.996Y372.075I-2.121J-2.121
N4980G1Y234.196
N4990G2X1110.923Y231.343I-3.000J0.000
N5000G1X979.795Y188.743
N5010G2X977.506Y188.923I-0.927J2.853
N5020G3X977.479Y188.914I-0.009J-0.018
N5030G3X977.488Y188.887I0.018J-0.009
N5040G2X978.979Y187.142I-1.362J-2.673
N5050G1X981.369Y179.794
N5060G2X979.443Y176.013I-2.853J-0.928
N5070G1X947.929Y165.773
N5080G1X934.615Y161.446
N5090G1X844.253Y132.083
N5100G2X840.473Y134.009I-0.927J2.853
N5110G1X838.083Y141.358
N5120G2X838.263Y143.647I2.853J0.928
N5130G3X838.254Y143.674I-0.018J0.009
N5140G3X838.227Y143.665I-0.009J-0.018
N5150G2X836.481Y142.174I-2.673J1.362
N5160G1X782.492Y124.634
N5170G1X769.177Y120.308
N5180G1X709.414Y100.893
N5190G2X707.125Y101.073I-0.927J2.853
N5200G3X707.099Y101.064I-0.009J-0.018
N5210G3X707.107Y101.037I0.018J-0.009
N5220G2X708.598Y99.291I-1.362J-2.673
N5230G1X710.989Y91.933
N5240G2X709.063Y88.153I-2.853J-0.927
N5250G1X624.616Y60.718
N5260G1X611.301Y56.393
N5270G1X573.873Y44.233
N5280G1Z13.475F3000.0
N5290G2X570.093Y46.159I-0.927J2.853F9000.0
N5300G1X567.703Y53.507
N5310G2X567.883Y55.797I2.853J0.928
N5320G3X567.874Y55.824I-0.018J0.009
N5330G3X567.847Y55.815I-0.009J-0.018
N5340G2X566.101Y54.323I-2.673J1.362
N5350G1X434.973Y11.713
N5360G2X431.619Y12.803I-0.927J2.853
N5370G1X350.579Y124.348
N5380G2X350.043Y126.581I2.427J1.763
N5390G3X350.026Y126.604I-0.020J0.003
N5400G3X350.003Y126.588I-0.003J-0.020
N5410G2X348.803Y124.630I-2.963J0.470
N5420G1X342.548Y120.089
N5430G2X338.359Y120.753I-1.763J2.428
N5440G1X324.743Y139.494
N5450G1X316.514Y150.820
N5460G1X254.809Y235.753
N5470G2X255.473Y239.944I2.427J1.763
N5480G1X261.726Y244.484
N5490G2X263.959Y245.020I1.763J-2.428
N5500G3X263.982Y245.036I0.003J0.020
N5510G3X263.965Y245.059I-0.020J0.003
N5520G2X262.008Y246.259I0.470J2.963
N5530G1X226.857Y294.636
N5540G1X218.627Y305.961
N5550G1X183.469Y354.348
N5560G2X182.933Y356.580I2.427J1.763
N5570G3X182.917Y356.603I-0.020J0.003
N5580G3X182.894Y356.586I-0.003J-0.020
N5590G2X181.694Y354.628I-2.963J0.469
N5600G1X175.449Y350.090
N5610G2X171.259Y350.753I-1.764J2.427
N5620G1X107.246Y438.851
N5630G1X99.016Y450.177
N5640G1X87.699Y465.753
N5650G2X88.363Y469.944I2.427J1.763
N5660G1X94.616Y474.484
N5670G2X96.849Y475.020I1.763J-2.428
N5680G3X96.872Y475.036I0.003J0.020
N5690G3X96.855Y475.059I-0.020J0.003
N5700G2X94.898Y476.259I0.470J2.963
N5710G1X13.859Y587.803
N5720G2Y591.330I2.427J1.763
N5730G1X94.899Y702.875
N5740G2X96.857Y704.075I2.427J-1.763
N5750G3X96.874Y704.098I-0.003J0.020
N5760G3X96.851Y704.114I-0.020J-0.003
N5770G2X94.618Y704.651I-0.469J2.963
N5780G1X88.361Y709.200
N5790G2X87.699Y713.390I1.764J2.426
N5800G1X107.067Y740.046
N5810G1X115.297Y751.372
N5820G1X171.259Y828.390
N5830G2X175.451Y829.052I2.427J-1.763
N5840G1X181.697Y824.506
N5850G2X182.894Y822.549I-1.765J-2.426
N5860G3X182.917Y822.532I0.020J0.003
N5870G3X182.934Y822.555I-0.003J0.020
N5880G2X183.470Y824.786I2.963J0.468
N5890G1X219.179Y873.931
N5900G1X227.408Y885.257
N5910G1X262.009Y932.875
N5920G2X263.967Y934.075I2.427J-1.763
N5930G3X263.983Y934.098I-0.003J0.020
N5940G3X263.961Y934.114I-0.020J-0.003
N5950G2X261.728Y934.651I-0.469J2.963
N5960G1X255.471Y939.200
N5970G2X254.809Y943.390I1.764J2.426
N5980G1X318.110Y1030.519
N5990G1X326.338Y1041.845
N6000G1X338.359Y1058.390
N6010G2X342.550Y1059.053I2.427J-1.763
N6020G1X348.805Y1054.505
N6030G2X350.004Y1052.547I-1.764J-2.427
N6040G3X350.027Y1052.531I0.020J0.003
N6050G3X350.043Y1052.553I-0.003J0.020
N6060G2X350.579Y1054.786I2.963J0.469
N6070G1X431.619Y1166.330
N6080G2X434.973Y1167.420I2.427J-1.763
N6090G1X566.101Y1124.819
N6100G2X567.847Y1123.328I-0.927J-2.853
N6110G3X567.874Y1123.319I0.018J0.009
N6120G3X567.883Y1123.346I-0.009J0.018
N6130G2X567.703Y1125.635I2.673J1.362
N6140G1X570.093Y1132.984
N6150G2X573.873Y1134.909I2.853J-0.928
N6160G1X604.813Y1124.856
N6170G1X618.127Y1120.529
N6180G1X709.063Y1090.979
N6190G2X710.989Y1087.199I-0.927J-2.853
N6200G1X708.599Y1079.851
N6210G2X707.108Y1078.105I-2.853J0.928
N6220G3X707.099Y1078.078I0.009J-0.018
N6230G3X707.126Y1078.070I0.018J0.009
N6240G2X709.415Y1078.250I1.362J-2.673
N6250G1X769.964Y1058.579
N6260G1X783.279Y1054.253
N6270G1X836.481Y1036.969
N6280G2X838.227Y1035.478I-0.927J-2.853
N6290G3X838.254Y1035.469I0.018J0.009
N6300G3X838.263Y1035.496I-0.009J0.018
N6310G2X838.083Y1037.785I2.673J1.362
N6320G1X840.473Y1045.134
N6330G2X844.253Y1047.059I2.853J-0.928
N6340G1X941.205Y1015.555
N6350G1X954.520Y1011.228
N6360G1X979.443Y1003.129
N6370G2X981.369Y999.349I-0.927J-2.853
N6380G1X978.979Y992.001
N6390G2X977.488Y990.255I-2.853J0.928
N6400G3X977.479Y990.228I0.009J-0.018
N6410G3X977.506Y990.219I0.018J0.009
N6420G2X979.795Y990.399I1.362J-2.673
N6430G1X1110.923Y947.789
N6440G2X1112.996Y944.936I-0.927J-2.853
N6450G1Y807.067
N6460G2X1112.117Y804.946I-3.000J0.000
N6470G3Y804.918I0.014J-0.014
N6480G3X1112.145I0.014J0.014
N6490G2X1114.267Y805.796I2.121J-2.121
N6500G1X1121.996
N6510G2X1124.996Y802.796I0.000J-3.000
N6520G1Y778.444
N6530G1Y764.444
N6540G1Y660.646
N6550G2X1121.996Y657.646I-3.000J0.000
N6560G1X1114.267
N6570G2X1112.145Y658.525I0.000J3.000
N6580G3X1112.117I-0.014J-0.014
N6590G3Y658.497I0.014J-0.014
N6600G2X1112.996Y656.375I-2.121J-2.121
N6610G1Y594.593
N6620G1Y580.593
N6630G1Y522.767
N6640G2X1112.117Y520.646I-3.000J0.000
N6650G3Y520.618I0.014J-0.014
N6660G3X1112.145I0.014J0.014
N6670G2X1114.267Y521.496I2.121J-2.121
N6680G1X1121.996
N6690G2X1124.996Y518.496I0.000J-3.000
N6700G1Y417.126
N6710G1Y403.126
N6720G1Y376.346
N6730G2X1121.996Y373.346I-3.000J0.000
N6740G1X1114.267
N6750G2X1112.145Y374.225I0.000J3.000
N6760G3X1112.117I-0.014J-0.014
N6770G3Y374.197I0.014J-0.014
N6780G2X1112.996Y372.075I-2.121J-2.121
N6790G1Y234.196
N6800G2X1110.923Y231.343I-3.000J0.000
N6810G1X979.795Y188.743
N6820G2X977.506Y188.923I-0.927J2.853
N6830G3X977.479Y188.914I-0.009J-0.018
N6840G3X977.488Y188.887I0.018J-0.009
N6850G2X978.979Y187.142I-1.362J-2.673
N6860G1X981.369Y179.794
N6870G2X979.443Y176.013I-2.853J-0.928
N6880G1X947.929Y165.773
N6890G1X934.615Y161.446
N6900G1X844.253Y132.083
N6910G2X840.473Y134.009I-0.927J2.853
N6920G1X838.083Y141.358
N6930G2X838.263Y143.647I2.853J0.928
N6940G3X838.254Y143.674I-0.018J0.009
N6950G3X838.227Y143.665I-0.009J-0.018
N6960G2X836.481Y142.174I-2.673J1.362
N6970G1X782.492Y124.634
N6980G1X769.177Y120.308
N6990G1X709.414Y100.893
N7000G2X707.125Y101.073I-0.927J2.853
N7010G3X707.099Y101.064I-0.009J-0.018
N7020G3X707.107Y101.037I0.018J-0.009
N7030G2X708.598Y99.291I-1.362J-2.673
N7040G1X710.989Y91.933
N7050G2X709.063Y88.153I-2.853J-0.927
N7060G1X624.616Y60.718
N7070G1X611.301Y56.393
N7080G1X573.873Y44.233
N7090G1Z11.212F3000.0
N7100G2X570.093Y46.159I-0.927J2.853F9000.0
N7110G1X567.703Y53.507
N7120G2X567.883Y55.797I2.853J0.928
N7130G3X567.874Y55.824I-0.018J0.009
N7140G3X567.847Y55.815I-0.009J-0.018
N7150G2X566.101Y54.323I-2.673J1.362
N7160G1X434.973Y11.713
N7170G2X431.619Y12.803I-0.927J2.853
N7180G1X350.579Y124.348
N7190G2X350.043Y126.581I2.427J1.763
N7200G3X350.026Y126.604I-0.020J0.003
N7210G3X350.003Y126.588I-0.003J-0.020
N7220G2X348.803Y124.630I-2.963J0.470
N7230G1X342.548Y120.089
N7240G2X338.359Y120.753I-1.763J2.428
N7250G1X324.743Y139.494
N7260G1X316.514Y150.820
N7270G1X254.809Y235.753
N7280G2X255.473Y239.944I2.427J1.763
N7290G1X261.726Y244.484
N7300G2X263.959Y245.020I1.763J-2.428
N7310G3X263.982Y245.036I0.003J0.020
N7320G3X263.965Y245.059I-0.020J0.003
N7330G2X262.008Y246.259I0.470J2.963
N7340G1X226.857Y294.636
N7350G1X218.627Y305.961
N7360G1X183.469Y354.348
N7370G2X182.933Y356.580I2.427J1.763
N7380G3X182.917Y356.603I-0.020J0.003
N7390G3X182.894Y356.586I-0.003J-0.020
N7400G2X181.694Y354.628I-2.963J0.469
N7410G1X175.449Y350.090
N7420G2X171.259Y350.753I-1.764J2.427
N7430G1X107.246Y438.851
N7440G1X99.016Y450.177
N7450G1X87.699Y465.753
N7460G2X88.363Y469.944I2.427J1.763
N7470G1X94.616Y474.484
N7480G2X96.849Y475.020I1.763J-2.428
N7490G3X96.872Y475.036I0.003J0.020
N7500G3X96.855Y475.059I-0.020J0.003
N7510G2X94.898Y476.259I0.470J2.963
N7520G1X13.859Y587.803
N7530G2Y591.330I2.427J1.763
N7540G1X94.899Y702.875
N7550G2X96.857Y704.075I2.427J-1.763
N7560G3X96.874Y704.098I-0.003J0.020
N7570G3X96.851Y704.114I-0.020J-0.003
N7580G2X94.618Y704.651I-0.469J2.963
N7590G1X88.361Y709.200
N7600G2X87.699Y713.390I1.764J2.426
N7610G1X107.067Y740.046
N7620G1X115.297Y751.372
N7630G1X171.259Y828.390
N7640G2X175.451Y829.052I2.427J-1.763
N7650G1X181.697Y824.506
N7660G2X182.894Y822.549I-1.765J-2.426
N7670G3X182.917Y822.532I0.020J0.003
N7680G3X182.934Y822.555I-0.003J0.020
N7690G2X183.470Y824.786I2.963J0.468
N7700G1X219.179Y873.931
N7710G1X227.408Y885.257
N7720G1X262.009Y932.875
N7730G2X263.967Y934.075I2.427J-1.763
N7740G3X263.983Y934.098I-0.003J0.020
N7750G3X263.961Y934.114I-0.020J-0.003
N7760G2X261.728Y934.651I-0.469J2.963
N7770G1X255.471Y939.200
N7780G2X254.809Y943.390I1.764J2.426
N7790G1X318.110Y1030.519
N7800G1X326.338Y1041.845
N7810G1X338.359Y1058.390
N7820G2X342.550Y1059.053I2.427J-1.763
N7830G1X348.805Y1054.505
N7840G2X350.004Y1052.547I-1.764J-2.427
N7850G3X350.027Y1052.531I0.020J0.003
N7860G3X350.043Y1052.553I-0.003J0.020
N7870G2X350.579Y1054.786I2.963J0.469
N7880G1X431.619Y1166.330
N7890G2X434.973Y1167.420I2.427J-1.763
N7900G1X566.101Y1124.819
N7910G2X567.847Y1123.328I-0.927J-2.853
N7920G3X567.874Y1123.319I0.018J0.009
N7930G3X567.883Y1123.346I-0.009J0.018
N7940G2X567.703Y1125.635I2.673J1.362
N7950G1X570.093Y1132.984
N7960G2X573.873Y1134.909I2.853J-0.928
N7970G1X604.813Y1124.856
N7980G1X618.127Y1120.529
N7990G1X709.063Y1090.979
N8000G2X710.989Y1087.199I-0.927J-2.853
N8010G1X708.599Y1079.851
N8020G2X707.108Y1078.105I-2.853J0.928
N8030G3X707.099Y1078.078I0.009J-0.018
N8040G3X707.126Y1078.070I0.018J0.009
N8050G2X709.415Y1078.250I1.362J-2.673
N8060G1X769.964Y1058.579
N8070G1X783.279Y1054.253
N8080G1X836.481Y1036.969
N8090G2X838.227Y1035.478I-0.927J-2.853
N8100G3X838.254Y1035.469I0.018J0.009
N8110G3X838.263Y1035.496I-0.009J0.018
N8120G2X838.083Y1037.785I2.673J1.362
N8130G1X840.473Y1045.134
N8140G2X844.253Y1047.059I2.853J-0.928
N8150G1X941.205Y1015.555
N8160G1X954.520Y1011.228
N8170G1X979.443Y1003.129
N8180G2X981.369Y999.349I-0.927J-2.853
N8190G1X978.979Y992.001
N8200G2X977.488Y990.255I-2.853J0.928
N8210G3X977.479Y990.228I0.009J-0.018
N8220G3X977.506Y990.219I0.018J0.009
N8230G2X979.795Y990.399I1.362J-2.673
N8240G1X1110.923Y947.789
N8250G2X1112.996Y944.936I-0.927J-2.853
N8260G1Y807.067
N8270G2X1112.117Y804.946I-3.000J0.000
N8280G3Y804.918I0.014J-0.014
N8290G3X1112.145I0.014J0.014
N8300G2X1114.267Y805.796I2.121J-2.121
N8310G1X1121.996
N8320G2X1124.996Y802.796I0.000J-3.000
N8330G1Y778.444
N8340G1Y764.444
N8350G1Y660.646
N8360G2X1121.996Y657.646I-3.000J0.000
N8370G1X1114.267
N8380G2X1112.145Y658.525I0.000J3.000
N8390G3X1112.117I-0.014J-0.014
N8400G3Y658.497I0.014J-0.014
N8410G2X1112.996Y656.375I-2.121J-2.121
N8420G1Y594.593
N8430G1Y580.593
N8440G1Y522.767
N8450G2X1112.117Y520.646I-3.000J0.000
N8460G3Y520.618I0.014J-0.014
N8470G3X1112.145I0.014J0.014
N8480G2X1114.267Y521.496I2.121J-2.121
N8490G1X1121.996
N8500G2X1124.996Y518.496I0.000J-3.000
N8510G1Y417.126
N8520G1Y403.126
N8530G1Y376.346
N8540G2X1121.996Y373.346I-3.000J0.000
N8550G1X1114.267
N8560G2X1112.145Y374.225I0.000J3.000
N8570G3X1112.117I-0.014J-0.014
N8580G3Y374.197I0.014J-0.014
N8590G2X1112.996Y372.075I-2.121J-2.121
N8600G1Y234.196
N8610G2X1110.923Y231.343I-3.000J0.000
N8620G1X979.795Y188.743
N8630G2X977.506Y188.923I-0.927J2.853
N8640G3X977.479Y188.914I-0.009J-0.018
N8650G3X977.488Y188.887I0.018J-0.009
N8660G2X978.979Y187.142I-1.362J-2.673
N8670G1X981.369Y179.794
N8680G2X979.443Y176.013I-2.853J-0.928
N8690G1X947.929Y165.773
N8700G1X934.615Y161.446
N8710G1X844.253Y132.083
N8720G2X840.473Y134.009I-0.927J2.853
N8730G1X838.083Y141.358
N8740G2X838.263Y143.647I2.853J0.928
N8750G3X838.254Y143.674I-0.018J0.009
N8760G3X838.227Y143.665I-0.009J-0.018
N8770G2X836.481Y142.174I-2.673J1.362
N8780G1X782.492Y124.634
N8790G1X769.177Y120.308
N8800G1X709.414Y100.893
N8810G2X707.125Y101.073I-0.927J2.853
N8820G3X707.099Y101.064I-0.009J-0.018
N8830G3X707.107Y101.037I0.018J-0.009
N8840G2X708.598Y99.291I-1.362J-2.673
N8850G1X710.989Y91.933
N8860G2X709.063Y88.153I-2.853J-0.927
N8870G1X624.616Y60.718
N8880G1X611.301Y56.393
N8890G1X573.873Y44.233
N8900G1Z8.950F3000.0
N8910G2X570.093Y46.159I-0.927J2.853F9000.0
N8920G1X567.703Y53.507
N8930G2X567.883Y55.797I2.853J0.928
N8940G3X567.874Y55.824I-0.018J0.009
N8950G3X567.847Y55.815I-0.009J-0.018
N8960G2X566.101Y54.323I-2.673J1.362
N8970G1X434.973Y11.713
N8980G2X431.619Y12.803I-0.927J2.853
N8990G1X350.579Y124.348
N9000G2X350.043Y126.581I2.427J1.763
N9010G3X350.026Y126.604I-0.020J0.003
N9020G3X350.003Y126.588I-0.003J-0.020
N9030G2X348.803Y124.630I-2.963J0.470
N9040G1X342.548Y120.089
N9050G2X338.359Y120.753I-1.763J2.428
N9060G1X324.743Y139.494
N9070G1X316.514Y150.820
N9080G1X254.809Y235.753
N9090G2X255.473Y239.944I2.427J1.763
N9100G1X261.726Y244.484
N9110G2X263.959Y245.020I1.763J-2.428
N9120G3X263.982Y245.036I0.003J0.020
N9130G3X263.965Y245.059I-0.020J0.003
N9140G2X262.008Y246.259I0.470J2.963
N9150G1X226.857Y294.636
N9160G1X218.627Y305.961
N9170G1X183.469Y354.348
N9180G2X182.933Y356.580I2.427J1.763
N9190G3X182.917Y356.603I-0.020J0.003
N9200G3X182.894Y356.586I-0.003J-0.020
N9210G2X181.694Y354.628I-2.963J0.469
N9220G1X175.449Y350.090
N9230G2X171.259Y350.753I-1.764J2.427
N9240G1X107.246Y438.851
N9250G1X99.016Y450.177
N9260G1X87.699Y465.753
N9270G2X88.363Y469.944I2.427J1.763
N9280G1X94.616Y474.484
N9290G2X96.849Y475.020I1.763J-2.428
N9300G3X96.872Y475.036I0.003J0.020
N9310G3X96.855Y475.059I-0.020J0.003
N9320G2X94.898Y476.259I0.470J2.963
N9330G1X13.859Y587.803
N9340G2Y591.330I2.427J1.763
N9350G1X94.899Y702.875
N9360G2X96.857Y704.075I2.427J-1.763
N9370G3X96.874Y704.098I-0.003J0.020
N9380G3X96.851Y704.114I-0.020J-0.003
N9390G2X94.618Y704.651I-0.469J2.963
N9400G1X88.361Y709.200
N9410G2X87.699Y713.390I1.764J2.426
N9420G1X107.067Y740.046
N9430G1X115.297Y751.372
N9440G1X171.259Y828.390
N9450G2X175.451Y829.052I2.427J-1.763
N9460G1X181.697Y824.506
N9470G2X182.894Y822.549I-1.765J-2.426
N9480G3X182.917Y822.532I0.020J0.003
N9490G3X182.934Y822.555I-0.003J0.020
N9500G2X183.470Y824.786I2.963J0.468
N9510G1X219.179Y873.931
N9520G1X227.408Y885.257
N9530G1X262.009Y932.875
N9540G2X263.967Y934.075I2.427J-1.763
N9550G3X263.983Y934.098I-0.003J0.020
N9560G3X263.961Y934.114I-0.020J-0.003
N9570G2X261.728Y934.651I-0.469J2.963
N9580G1X255.471Y939.200
N9590G2X254.809Y943.390I1.764J2.426
N9600G1X318.110Y1030.519
N9610G1X326.338Y1041.845
N9620G1X338.359Y1058.390
N9630G2X342.550Y1059.053I2.427J-1.763
N9640G1X348.805Y1054.505
N9650G2X350.004Y1052.547I-1.764J-2.427
N9660G3X350.027Y1052.531I0.020J0.003
N9670G3X350.043Y1052.553I-0.003J0.020
N9680G2X350.579Y1054.786I2.963J0.469
N9690G1X431.619Y1166.330
N9700G2X434.973Y1167.420I2.427J-1.763
N9710G1X566.101Y1124.819
N9720G2X567.847Y1123.328I-0.927J-2.853
N9730G3X567.874Y1123.319I0.018J0.009
N9740G3X567.883Y1123.346I-0.009J0.018
N9750G2X567.703Y1125.635I2.673J1.362
N9760G1X570.093Y1132.984
N9770G2X573.873Y1134.909I2.853J-0.928
N9780G1X604.813Y1124.856
N9790G1X618.127Y1120.529
N9800G1X709.063Y1090.979
N9810G2X710.989Y1087.199I-0.927J-2.853
N9820G1X708.599Y1079.851
N9830G2X707.108Y1078.105I-2.853J0.928
N9840G3X707.099Y1078.078I0.009J-0.018
N9850G3X707.126Y1078.070I0.018J0.009
N9860G2X709.415Y1078.250I1.362J-2.673
N9870G1X769.964Y1058.579
N9880G1X783.279Y1054.253
N9890G1X836.481Y1036.969
N9900G2X838.227Y1035.478I-0.927J-2.853
N9910G3X838.254Y1035.469I0.018J0.009
N9920G3X838.263Y1035.496I-0.009J0.018
N9930G2X838.083Y1037.785I2.673J1.362
N9940G1X840.473Y1045.134
N9950G2X844.253Y1047.059I2.853J-0.928
N9960G1X941.205Y1015.555
N9970G1X954.520Y1011.228
N9980G1X979.443Y1003.129
N9990G2X981.369Y999.349I-0.927J-2.853
N10000G1X978.979Y992.001
N10010G2X977.488Y990.255I-2.853J0.928
N10020G3X977.479Y990.228I0.009J-0.018
N10030G3X977.506Y990.219I0.018J0.009
N10040G2X979.795Y990.399I1.362J-2.673
N10050G1X1110.923Y947.789
N10060G2X1112.996Y944.936I-0.927J-2.853
N10070G1Y807.067
N10080G2X1112.117Y804.946I-3.000J0.000
N10090G3Y804.918I0.014J-0.014
N10100G3X1112.145I0.014J0.014
N10110G2X1114.267Y805.796I2.121J-2.121
N10120G1X1121.996
N10130G2X1124.996Y802.796I0.000J-3.000
N10140G1Y778.444
N10150G1Y764.444
N10160G1Y660.646
N10170G2X1121.996Y657.646I-3.000J0.000
N10180G1X1114.267
N10190G2X1112.145Y658.525I0.000J3.000
N10200G3X1112.117I-0.014J-0.014
N10210G3Y658.497I0.014J-0.014
N10220G2X1112.996Y656.375I-2.121J-2.121
N10230G1Y594.593
N10240G1Y580.593
N10250G1Y522.767
N10260G2X1112.117Y520.646I-3.000J0.000
N10270G3Y520.618I0.014J-0.014
N10280G3X1112.145I0.014J0.014
N10290G2X1114.267Y521.496I2.121J-2.121
N10300G1X1121.996
N10310G2X1124.996Y518.496I0.000J-3.000
N10320G1Y417.126
N10330G1Y403.126
N10340G1Y376.346
N10350G2X1121.996Y373.346I-3.000J0.000
N10360G1X1114.267
N10370G2X1112.145Y374.225I0.000J3.000
N10380G3X1112.117I-0.014J-0.014
N10390G3Y374.197I0.014J-0.014
N10400G2X1112.996Y372.075I-2.121J-2.121
N10410G1Y234.196
N10420G2X1110.923Y231.343I-3.000J0.000
N10430G1X979.795Y188.743
N10440G2X977.506Y188.923I-0.927J2.853
N10450G3X977.479Y188.914I-0.009J-0.018
N10460G3X977.488Y188.887I0.018J-0.009
N10470G2X978.979Y187.142I-1.362J-2.673
N10480G1X981.369Y179.794
N10490G2X979.443Y176.013I-2.853J-0.928
N10500G1X947.929Y165.773
N10510G1X934.615Y161.446
N10520G1X844.253Y132.083
N10530G2X840.473Y134.009I-0.927J2.853
N10540G1X838.083Y141.358
N10550G2X838.263Y143.647I2.853J0.928
N10560G3X838.254Y143.674I-0.018J0.009
N10570G3X838.227Y143.665I-0.009J-0.018
N10580G2X836.481Y142.174I-2.673J1.362
N10590G1X782.492Y124.634
N10600G1X769.177Y120.308
N10610G1X709.414Y100.893
N10620G2X707.125Y101.073I-0.927J2.853
N10630G3X707.099Y101.064I-0.009J-0.018
N10640G3X707.107Y101.037I0.018J-0.009
N10650G2X708.598Y99.291I-1.362J-2.673
N10660G1X710.989Y91.933
N10670G2X709.063Y88.153I-2.853J-0.927
N10680G1X624.616Y60.718
N10690G1X611.301Y56.393
N10700G1X573.873Y44.233
N10710G1Z6.688F3000.0
N10720G2X570.093Y46.159I-0.927J2.853F9000.0
N10730G1X567.703Y53.507
N10740G2X567.883Y55.797I2.853J0.928
N10750G3X567.874Y55.824I-0.018J0.009
N10760G3X567.847Y55.815I-0.009J-0.018
N10770G2X566.101Y54.323I-2.673J1.362
N10780G1X434.973Y11.713
N10790G2X431.619Y12.803I-0.927J2.853
N10800G1X350.579Y124.348
N10810G2X350.043Y126.581I2.427J1.763
N10820G3X350.026Y126.604I-0.020J0.003
N10830G3X350.003Y126.588I-0.003J-0.020
N10840G2X348.803Y124.630I-2.963J0.470
N10850G1X342.548Y120.089
N10860G2X338.359Y120.753I-1.763J2.428
N10870G1X324.743Y139.494
N10880G1X316.514Y150.820
N10890G1X254.809Y235.753
N10900G2X255.473Y239.944I2.427J1.763
N10910G1X261.726Y244.484
N10920G2X263.959Y245.020I1.763J-2.428
N10930G3X263.982Y245.036I0.003J0.020
N10940G3X263.965Y245.059I-0.020J0.003
N10950G2X262.008Y246.259I0.470J2.963
N10960G1X226.857Y294.636
N10970G1X218.627Y305.961
N10980G1X183.469Y354.348
N10990G2X182.933Y356.580I2.427J1.763
N11000G3X182.917Y356.603I-0.020J0.003
N11010G3X182.894Y356.586I-0.003J-0.020
N11020G2X181.694Y354.628I-2.963J0.469
N11030G1X175.449Y350.090
N11040G2X171.259Y350.753I-1.764J2.427
N11050G1X107.246Y438.851
N11060G1X99.016Y450.177
N11070G1X87.699Y465.753
N11080G2X88.363Y469.944I2.427J1.763
N11090G1X94.616Y474.484
N11100G2X96.849Y475.020I1.763J-2.428
N11110G3X96.872Y475.036I0.003J0.020
N11120G3X96.855Y475.059I-0.020J0.003
N11130G2X94.898Y476.259I0.470J2.963
N11140G1X13.859Y587.803
N11150G2Y591.330I2.427J1.763
N11160G1X94.899Y702.875
N11170G2X96.857Y704.075I2.427J-1.763
N11180G3X96.874Y704.098I-0.003J0.020
N11190G3X96.851Y704.114I-0.020J-0.003
N11200G2X94.618Y704.651I-0.469J2.963
N11210G1X88.361Y709.200
N11220G2X87.699Y713.390I1.764J2.426
N11230G1X107.067Y740.046
N11240G1X115.297Y751.372
N11250G1X171.259Y828.390
N11260G2X175.451Y829.052I2.427J-1.763
N11270G1X181.697Y824.506
N11280G2X182.894Y822.549I-1.765J-2.426
N11290G3X182.917Y822.532I0.020J0.003
N11300G3X182.934Y822.555I-0.003J0.020
N11310G2X183.470Y824.786I2.963J0.468
N11320G1X219.179Y873.931
N11330G1X227.408Y885.257
N11340G1X262.009Y932.875
N11350G2X263.967Y934.075I2.427J-1.763
N11360G3X263.983Y934.098I-0.003J0.020
N11370G3X263.961Y934.114I-0.020J-0.003
N11380G2X261.728Y934.651I-0.469J2.963
N11390G1X255.471Y939.200
N11400G2X254.809Y943.390I1.764J2.426
N11410G1X318.110Y1030.519
N11420G1X326.338Y1041.845
N11430G1X338.359Y1058.390
N11440G2X342.550Y1059.053I2.427J-1.763
N11450G1X348.805Y1054.505
N11460G2X350.004Y1052.547I-1.764J-2.427
N11470G3X350.027Y1052.531I0.020J0.003
N11480G3X350.043Y1052.553I-0.003J0.020
N11490G2X350.579Y1054.786I2.963J0.469
N11500G1X431.619Y1166.330
N11510G2X434.973Y1167.420I2.427J-1.763
N11520G1X566.101Y1124.819
N11530G2X567.847Y1123.328I-0.927J-2.853
N11540G3X567.874Y1123.319I0.018J0.009
N11550G3X567.883Y1123.346I-0.009J0.018
N11560G2X567.703Y1125.635I2.673J1.362
N11570G1X570.093Y1132.984
N11580G2X573.873Y1134.909I2.853J-0.928
N11590G1X604.813Y1124.856
N11600G1X618.127Y1120.529
N11610G1X709.063Y1090.979
N11620G2X710.989Y1087.199I-0.927J-2.853
N11630G1X708.599Y1079.851
N11640G2X707.108Y1078.105I-2.853J0.928
N11650G3X707.099Y1078.078I0.009J-0.018
N11660G3X707.126Y1078.070I0.018J0.009
N11670G2X709.415Y1078.250I1.362J-2.673
N11680G1X769.964Y1058.579
N11690G1X783.279Y1054.253
N11700G1X836.481Y1036.969
N11710G2X838.227Y1035.478I-0.927J-2.853
N11720G3X838.254Y1035.469I0.018J0.009
N11730G3X838.263Y1035.496I-0.009J0.018
N11740G2X838.083Y1037.785I2.673J1.362
N11750G1X840.473Y1045.134
N11760G2X844.253Y1047.059I2.853J-0.928
N11770G1X941.205Y1015.555
N11780G1X954.520Y1011.228
N11790G1X979.443Y1003.129
N11800G2X981.369Y999.349I-0.927J-2.853
N11810G1X978.979Y992.001
N11820G2X977.488Y990.255I-2.853J0.928
N11830G3X977.479Y990.228I0.009J-0.018
N11840G3X977.506Y990.219I0.018J0.009
N11850G2X979.795Y990.399I1.362J-2.673
N11860G1X1110.923Y947.789
N11870G2X1112.996Y944.936I-0.927J-2.853
N11880G1Y807.067
N11890G2X1112.117Y804.946I-3.000J0.000
N11900G3Y804.918I0.014J-0.014
N11910G3X1112.145I0.014J0.014
N11920G2X1114.267Y805.796I2.121J-2.121
N11930G1X1121.996
N11940G2X1124.996Y802.796I0.000J-3.000
N11950G1Y778.444
N11960G1Y764.444
N11970G1Y660.646
N11980G2X1121.996Y657.646I-3.000J0.000
N11990G1X1114.267
N12000G2X1112.145Y658.525I0.000J3.000
N12010G3X1112.117I-0.014J-0.014
N12020G3Y658.497I0.014J-0.014
N12030G2X1112.996Y656.375I-2.121J-2.121
N12040G1Y594.593
N12050G1Y580.593
N12060G1Y522.767
N12070G2X1112.117Y520.646I-3.000J0.000
N12080G3Y520.618I0.014J-0.014
N12090G3X1112.145I0.014J0.014
N12100G2X1114.267Y521.496I2.121J-2.121
N12110G1X1121.996
N12120G2X1124.996Y518.496I0.000J-3.000
N12130G1Y417.126
N12140G1Y403.126
N12150G1Y376.346
N12160G2X1121.996Y373.346I-3.000J0.000
N12170G1X1114.267
N12180G2X1112.145Y374.225I0.000J3.000
N12190G3X1112.117I-0.014J-0.014
N12200G3Y374.197I0.014J-0.014
N12210G2X1112.996Y372.075I-2.121J-2.121
N12220G1Y234.196
N12230G2X1110.923Y231.343I-3.000J0.000
N12240G1X979.795Y188.743
N12250G2X977.506Y188.923I-0.927J2.853
N12260G3X977.479Y188.914I-0.009J-0.018
N12270G3X977.488Y188.887I0.018J-0.009
N12280G2X978.979Y187.142I-1.362J-2.673
N12290G1X981.369Y179.794
N12300G2X979.443Y176.013I-2.853J-0.928
N12310G1X947.929Y165.773
N12320G1X934.615Y161.446
N12330G1X844.253Y132.083
N12340G2X840.473Y134.009I-0.927J2.853
N12350G1X838.083Y141.358
N12360G2X838.263Y143.647I2.853J0.928
N12370G3X838.254Y143.674I-0.018J0.009
N12380G3X838.227Y143.665I-0.009J-0.018
N12390G2X836.481Y142.174I-2.673J1.362
N12400G1X782.492Y124.634
N12410G1X769.177Y120.308
N12420G1X709.414Y100.893
N12430G2X707.125Y101.073I-0.927J2.853
N12440G3X707.099Y101.064I-0.009J-0.018
N12450G3X707.107Y101.037I0.018J-0.009
N12460G2X708.598Y99.291I-1.362J-2.673
N12470G1X710.989Y91.933
N12480G2X709.063Y88.153I-2.853J-0.927
N12490G1X624.616Y60.718
N12500G1X611.301Y56.393
N12510G1X573.873Y44.233
N12520G1Z4.425F3000.0
N12530G2X570.093Y46.159I-0.927J2.853F9000.0
N12540G1X567.703Y53.507
N12550G2X567.883Y55.797I2.853J0.928
N12560G3X567.874Y55.824I-0.018J0.009
N12570G3X567.847Y55.815I-0.009J-0.018
N12580G2X566.101Y54.323I-2.673J1.362
N12590G1X434.973Y11.713
N12600G2X431.619Y12.803I-0.927J2.853
N12610G1X350.579Y124.348
N12620G2X350.043Y126.581I2.427J1.763
N12630G3X350.026Y126.604I-0.020J0.003
N12640G3X350.003Y126.588I-0.003J-0.020
N12650G2X348.803Y124.630I-2.963J0.470
N12660G1X342.548Y120.089
N12670G2X338.359Y120.753I-1.763J2.428
N12680G1X324.743Y139.494
N12690G1X316.514Y150.820
N12700G1X254.809Y235.753
N12710G2X255.473Y239.944I2.427J1.763
N12720G1X261.726Y244.484
N12730G2X263.959Y245.020I1.763J-2.428
N12740G3X263.982Y245.036I0.003J0.020
N12750G3X263.965Y245.059I-0.020J0.003
N12760G2X262.008Y246.259I0.470J2.963
N12770G1X226.857Y294.636
N12780G1X218.627Y305.961
N12790G1X183.469Y354.348
N12800G2X182.933Y356.580I2.427J1.763
N12810G3X182.917Y356.603I-0.020J0.003
N12820G3X182.894Y356.586I-0.003J-0.020
N12830G2X181.694Y354.628I-2.963J0.469
N12840G1X175.449Y350.090
N12850G2X171.259Y350.753I-1.764J2.427
N12860G1X107.246Y438.851
N12870G1X99.016Y450.177
N12880G1X87.699Y465.753
N12890G2X88.363Y469.944I2.427J1.763
N12900G1X94.616Y474.484
N12910G2X96.849Y475.020I1.763J-2.428
N12920G3X96.872Y475.036I0.003J0.020
N12930G3X96.855Y475.059I-0.020J0.003
N12940G2X94.898Y476.259I0.470J2.963
N12950G1X13.859Y587.803
N12960G2Y591.330I2.427J1.763
N12970G1X94.899Y702.875
N12980G2X96.857Y704.075I2.427J-1.763
N12990G3X96.874Y704.098I-0.003J0.020
N13000G3X96.851Y704.114I-0.020J-0.003
N13010G2X94.618Y704.651I-0.469J2.963
N13020G1X88.361Y709.200
N13030G2X87.699Y713.390I1.764J2.426
N13040G1X107.067Y740.046
N13050G1X115.297Y751.372
N13060G1X171.259Y828.390
N13070G2X175.451Y829.052I2.427J-1.763
N13080G1X181.697Y824.506
N13090G2X182.894Y822.549I-1.765J-2.426
N13100G3X182.917Y822.532I0.020J0.003
N13110G3X182.934Y822.555I-0.003J0.020
N13120G2X183.470Y824.786I2.963J0.468
N13130G1X219.179Y873.931
N13140G1X227.408Y885.257
N13150G1X262.009Y932.875
N13160G2X263.967Y934.075I2.427J-1.763
N13170G3X263.983Y934.098I-0.003J0.020
N13180G3X263.961Y934.114I-0.020J-0.003
N13190G2X261.728Y934.651I-0.469J2.963
N13200G1X255.471Y939.200
N13210G2X254.809Y943.390I1.764J2.426
N13220G1X318.110Y1030.519
N13230G1X326.338Y1041.845
N13240G1X338.359Y1058.390
N13250G2X342.550Y1059.053I2.427J-1.763
N13260G1X348.805Y1054.505
N13270G2X350.004Y1052.547I-1.764J-2.427
N13280G3X350.027Y1052.531I0.020J0.003
N13290G3X350.043Y1052.553I-0.003J0.020
N13300G2X350.579Y1054.786I2.963J0.469
N13310G1X431.619Y1166.330
N13320G2X434.973Y1167.420I2.427J-1.763
N13330G1X566.101Y1124.819
N13340G2X567.847Y1123.328I-0.927J-2.853
N13350G3X567.874Y1123.319I0.018J0.009
N13360G3X567.883Y1123.346I-0.009J0.018
N13370G2X567.703Y1125.635I2.673J1.362
N13380G1X570.093Y1132.984
N13390G2X573.873Y1134.909I2.853J-0.928
N13400G1X604.813Y1124.856
N13410G1X618.127Y1120.529
N13420G1X709.063Y1090.979
N13430G2X710.989Y1087.199I-0.927J-2.853
N13440G1X708.599Y1079.851
N13450G2X707.108Y1078.105I-2.853J0.928
N13460G3X707.099Y1078.078I0.009J-0.018
N13470G3X707.126Y1078.070I0.018J0.009
N13480G2X709.415Y1078.250I1.362J-2.673
N13490G1X769.964Y1058.579
N13500G1X783.279Y1054.253
N13510G1X836.481Y1036.969
N13520G2X838.227Y1035.478I-0.927J-2.853
N13530G3X838.254Y1035.469I0.018J0.009
N13540G3X838.263Y1035.496I-0.009J0.018
N13550G2X838.083Y1037.785I2.673J1.362
N13560G1X840.473Y1045.134
N13570G2X844.253Y1047.059I2.853J-0.928
N13580G1X941.205Y1015.555
N13590G1X954.520Y1011.228
N13600G1X979.443Y1003.129
N13610G2X981.369Y999.349I-0.927J-2.853
N13620G1X978.979Y992.001
N13630G2X977.488Y990.255I-2.853J0.928
N13640G3X977.479Y990.228I0.009J-0.018
N13650G3X977.506Y990.219I0.018J0.009
N13660G2X979.795Y990.399I1.362J-2.673
N13670G1X1110.923Y947.789
N13680G2X1112.996Y944.936I-0.927J-2.853
N13690G1Y807.067
N13700G2X1112.117Y804.946I-3.000J0.000
N13710G3Y804.918I0.014J-0.014
N13720G3X1112.145I0.014J0.014
N13730G2X1114.267Y805.796I2.121J-2.121
N13740G1X1121.996
N13750G2X1124.996Y802.796I0.000J-3.000
N13760G1Y778.444
N13770G1Y764.444
N13780G1Y660.646
N13790G2X1121.996Y657.646I-3.000J0.000
N13800G1X1114.267
N13810G2X1112.145Y658.525I0.000J3.000
N13820G3X1112.117I-0.014J-0.014
N13830G3Y658.497I0.014J-0.014
N13840G2X1112.996Y656.375I-2.121J-2.121
N13850G1Y594.593
N13860G1Y580.593
N13870G1Y522.767
N13880G2X1112.117Y520.646I-3.000J0.000
N13890G3Y520.618I0.014J-0.014
N13900G3X1112.145I0.014J0.014
N13910G2X1114.267Y521.496I2.121J-2.121
N13920G1X1121.996
N13930G2X1124.996Y518.496I0.000J-3.000
N13940G1Y417.126
N13950G1Y403.126
N13960G1Y376.346
N13970G2X1121.996Y373.346I-3.000J0.000
N13980G1X1114.267
N13990G2X1112.145Y374.225I0.000J3.000
N14000G3X1112.117I-0.014J-0.014
N14010G3Y374.197I0.014J-0.014
N14020G2X1112.996Y372.075I-2.121J-2.121
N14030G1Y234.196
N14040G2X1110.923Y231.343I-3.000J0.000
N14050G1X979.795Y188.743
N14060G2X977.506Y188.923I-0.927J2.853
N14070G3X977.479Y188.914I-0.009J-0.018
N14080G3X977.488Y188.887I0.018J-0.009
N14090G2X978.979Y187.142I-1.362J-2.673
N14100G1X981.369Y179.794
N14110G2X979.443Y176.013I-2.853J-0.928
N14120G1X947.929Y165.773
N14130G1X934.615Y161.446
N14140G1X844.253Y132.083
N14150G2X840.473Y134.009I-0.927J2.853
N14160G1X838.083Y141.358
N14170G2X838.263Y143.647I2.853J0.928
N14180G3X838.254Y143.674I-0.018J0.009
N14190G3X838.227Y143.665I-0.009J-0.018
N14200G2X836.481Y142.174I-2.673J1.362
N14210G1X782.492Y124.634
N14220G1X769.177Y120.308
N14230G1X709.414Y100.893
N14240G2X707.125Y101.073I-0.927J2.853
N14250G3X707.099Y101.064I-0.009J-0.018
N14260G3X707.107Y101.037I0.018J-0.009
N14270G2X708.598Y99.291I-1.362J-2.673
N14280G1X710.989Y91.933
N14290G2X709.063Y88.153I-2.853J-0.927
N14300G1X624.616Y60.718
N14310G1X611.301Y56.393
N14320G1X573.873Y44.233
N14330G1Z2.163F3000.0
N14340G2X570.093Y46.159I-0.927J2.853F9000.0
N14350G1X567.703Y53.507
N14360G2X567.883Y55.797I2.853J0.928
N14370G3X567.874Y55.824I-0.018J0.009
N14380G3X567.847Y55.815I-0.009J-0.018
N14390G2X566.101Y54.323I-2.673J1.362
N14400G1X434.973Y11.713
N14410G2X431.619Y12.803I-0.927J2.853
N14420G1X350.579Y124.348
N14430G2X350.043Y126.581I2.427J1.763
N14440G3X350.026Y126.604I-0.020J0.003
N14450G3X350.003Y126.588I-0.003J-0.020
N14460G2X348.803Y124.630I-2.963J0.470
N14470G1X342.548Y120.089
N14480G2X338.359Y120.753I-1.763J2.428
N14490G1X324.743Y139.494
N14500G1Z3.900
N14510G1X316.514Y150.820
N14520G1Z2.163F3000.0
N14530G1X254.809Y235.753F9000.0
N14540G2X255.473Y239.944I2.427J1.763
N14550G1X261.726Y244.484
N14560G2X263.959Y245.020I1.763J-2.428
N14570G3X263.982Y245.036I0.003J0.020
N14580G3X263.965Y245.059I-0.020J0.003
N14590G2X262.008Y246.259I0.470J2.963
N14600G1X226.857Y294.636
N14610G1Z3.900
N14620G1X218.627Y305.961
N14630G1Z2.163F3000.0
N14640G1X183.469Y354.348F9000.0
N14650G2X182.933Y356.580I2.427J1.763
N14660G3X182.917Y356.603I-0.020J0.003
N14670G3X182.894Y356.586I-0.003J-0.020
N14680G2X181.694Y354.628I-2.963J0.469
N14690G1X175.449Y350.090
N14700G2X171.259Y350.753I-1.764J2.427
N14710G1X107.246Y438.851
N14720G1Z3.900
N14730G1X99.016Y450.177
N14740G1Z2.163F3000.0
N14750G1X87.699Y465.753F9000.0
N14760G2X88.363Y469.944I2.427J1.763
N14770G1X94.616Y474.484
N14780G2X96.849Y475.020I1.763J-2.428
N14790G3X96.872Y475.036I0.003J0.020
N14800G3X96.855Y475.059I-0.020J0.003
N14810G2X94.898Y476.259I0.470J2.963
N14820G1X13.859Y587.803
N14830G2Y591.330I2.427J1.763
N14840G1X94.899Y702.875
N14850G2X96.857Y704.075I2.427J-1.763
N14860G3X96.874Y704.098I-0.003J0.020
N14870G3X96.851Y704.114I-0.020J-0.003
N14880G2X94.618Y704.651I-0.469J2.963
N14890G1X88.361Y709.200
N14900G2X87.699Y713.390I1.764J2.426
N14910G1X107.067Y740.046
N14920G1Z3.900
N14930G1X115.297Y751.372
N14940G1Z2.163F3000.0
N14950G1X171.259Y828.390F9000.0
N14960G2X175.451Y829.052I2.427J-1.763
N14970G1X181.697Y824.506
N14980G2X182.894Y822.549I-1.765J-2.426
N14990G3X182.917Y822.532I0.020J0.003
N15000G3X182.934Y822.555I-0.003J0.020
N15010G2X183.470Y824.786I2.963J0.468
N15020G1X219.179Y873.931
N15030G1Z3.900
N15040G1X227.408Y885.257
N15050G1Z2.163F3000.0
N15060G1X262.009Y932.875F9000.0
N15070G2X263.967Y934.075I2.427J-1.763
N15080G3X263.983Y934.098I-0.003J0.020
N15090G3X263.961Y934.114I-0.020J-0.003
N15100G2X261.728Y934.651I-0.469J2.963
N15110G1X255.471Y939.200
N15120G2X254.809Y943.390I1.764J2.426
N15130G1X318.110Y1030.519
N15140G1Z3.900
N15150G1X326.338Y1041.845
N15160G1Z2.163F3000.0
N15170G1X338.359Y1058.390F9000.0
N15180G2X342.550Y1059.053I2.427J-1.763
N15190G1X348.805Y1054.505
N15200G2X350.004Y1052.547I-1.764J-2.427
N15210G3X350.027Y1052.531I0.020J0.003
N15220G3X350.043Y1052.553I-0.003J0.020
N15230G2X350.579Y1054.786I2.963J0.469
N15240G1X431.619Y1166.330
N15250G2X434.973Y1167.420I2.427J-1.763
N15260G1X566.101Y1124.819
N15270G2X567.847Y1123.328I-0.927J-2.853
N15280G3X567.874Y1123.319I0.018J0.009
N15290G3X567.883Y1123.346I-0.009J0.018
N15300G2X567.703Y1125.635I2.673J1.362
N15310G1X570.093Y1132.984
N15320G2X573.873Y1134.909I2.853J-0.928
N15330G1X604.813Y1124.856
N15340G1Z3.900
N15350G1X618.127Y1120.529
N15360G1Z2.163F3000.0
N15370G1X709.063Y1090.979F9000.0
N15380G2X710.989Y1087.199I-0.927J-2.853
N15390G1X708.599Y1079.851
N15400G2X707.108Y1078.105I-2.853J0.928
N15410G3X707.099Y1078.078I0.009J-0.018
N15420G3X707.126Y1078.070I0.018J0.009
N15430G2X709.415Y1078.250I1.362J-2.673
N15440G1X769.964Y1058.579
N15450G1Z3.900
N15460G1X783.279Y1054.253
N15470G1Z2.163F3000.0
N15480G1X836.481Y1036.969F9000.0
N15490G2X838.227Y1035.478I-0.927J-2.853
N15500G3X838.254Y1035.469I0.018J0.009
N15510G3X838.263Y1035.496I-0.009J0.018
N15520G2X838.083Y1037.785I2.673J1.362
N15530G1X840.473Y1045.134
N15540G2X844.253Y1047.059I2.853J-0.928
N15550G1X941.205Y1015.555
N15560G1Z3.900
N15570G1X954.520Y1011.228
N15580G1Z2.163F3000.0
N15590G1X979.443Y1003.129F9000.0
N15600G2X981.369Y999.349I-0.927J-2.853
N15610G1X978.979Y992.001
N15620G2X977.488Y990.255I-2.853J0.928
N15630G3X977.479Y990.228I0.009J-0.018
N15640G3X977.506Y990.219I0.018J0.009
N15650G2X979.795Y990.399I1.362J-2.673
N15660G1X1110.923Y947.789
N15670G2X1112.996Y944.936I-0.927J-2.853
N15680G1Y807.067
N15690G2X1112.117Y804.946I-3.000J0.000
N15700G3Y804.918I0.014J-0.014
N15710G3X1112.145I0.014J0.014
N15720G2X1114.267Y805.796I2.121J-2.121
N15730G1X1121.996
N15740G2X1124.996Y802.796I0.000J-3.000
N15750G1Y778.444
N15760G1Z3.900
N15770G1Y764.444
N15780G1Z2.163F3000.0
N15790G1Y660.646F9000.0
N15800G2X1121.996Y657.646I-3.000J0.000
N15810G1X1114.267
N15820G2X1112.145Y658.525I0.000J3.000
N15830G3X1112.117I-0.014J-0.014
N15840G3Y658.497I0.014J-0.014
N15850G2X1112.996Y656.375I-2.121J-2.121
N15860G1Y594.593
N15870G1Z3.900
N15880G1Y580.593
N15890G1Z2.163F3000.0
N15900G1Y522.767F9000.0
N15910G2X1112.117Y520.646I-3.000J0.000
N15920G3Y520.618I0.014J-0.014
N15930G3X1112.145I0.014J0.014
N15940G2X1114.267Y521.496I2.121J-2.121
N15950G1X1121.996
N15960G2X1124.996Y518.496I0.000J-3.000
N15970G1Y417.126
N15980G1Z3.900
N15990G1Y403.126
N16000G1Z2.163F3000.0
N16010G1Y376.346F9000.0
N16020G2X1121.996Y373.346I-3.000J0.000
N16030G1X1114.267
N16040G2X1112.145Y374.225I0.000J3.000
N16050G3X1112.117I-0.014J-0.014
N16060G3Y374.197I0.014J-0.014
N16070G2X1112.996Y372.075I-2.121J-2.121
N16080G1Y234.196
N16090G2X1110.923Y231.343I-3.000J0.000
N16100G1X979.795Y188.743
N16110G2X977.506Y188.923I-0.927J2.853
N16120G3X977.479Y188.914I-0.009J-0.018
N16130G3X977.488Y188.887I0.018J-0.009
N16140G2X978.979Y187.142I-1.362J-2.673
N16150G1X981.369Y179.794
N16160G2X979.443Y176.013I-2.853J-0.928
N16170G1X947.929Y165.773
N16180G1Z3.900
N16190G1X934.615Y161.446
N16200G1Z2.163F3000.0
N16210G1X844.253Y132.083F9000.0
N16220G2X840.473Y134.009I-0.927J2.853
N16230G1X838.083Y141.358
N16240G2X838.263Y143.647I2.853J0.928
N16250G3X838.254Y143.674I-0.018J0.009
N16260G3X838.227Y143.665I-0.009J-0.018
N16270G2X836.481Y142.174I-2.673J1.362
N16280G1X782.492Y124.634
N16290G1Z3.900
N16300G1X769.177Y120.308
N16310G1Z2.163F3000.0
N16320G1X709.414Y100.893F9000.0
N16330G2X707.125Y101.073I-0.927J2.853
N16340G3X707.099Y101.064I-0.009J-0.018
N16350G3X707.107Y101.037I0.018J-0.009
N16360G2X708.598Y99.291I-1.362J-2.673
N16370G1X710.989Y91.933
N16380G2X709.063Y88.153I-2.853J-0.927
N16390G1X624.616Y60.718
N16400G1Z3.900
N16410G1X611.301Y56.393
N16420G1Z2.163F3000.0
N16430G1X573.873Y44.233F9000.0
N16440G1Z-0.100F3000.0
N16450G2X570.093Y46.159I-0.927J2.853F9000.0
N16460G1X567.703Y53.507
N16470G2X567.883Y55.797I2.853J0.928
N16480G3X567.874Y55.824I-0.018J0.009
N16490G3X567.847Y55.815I-0.009J-0.018
N16500G2X566.101Y54.323I-2.673J1.362
N16510G1X434.973Y11.713
N16520G2X431.619Y12.803I-0.927J2.853
N16530G1X350.579Y124.348
N16540G2X350.043Y126.581I2.427J1.763
N16550G3X350.026Y126.604I-0.020J0.003
N16560G3X350.003Y126.588I-0.003J-0.020
N16570G2X348.803Y124.630I-2.963J0.470
N16580G1X342.548Y120.089
N16590G2X338.359Y120.753I-1.763J2.428
N16600G1X324.743Y139.494
N16610G1Z3.900
N16620G1X316.514Y150.820
N16630G1Z-0.100F3000.0
N16640G1X254.809Y235.753F9000.0
N16650G2X255.473Y239.944I2.427J1.763
N16660G1X261.726Y244.484
N16670G2X263.959Y245.020I1.763J-2.428
N16680G3X263.982Y245.036I0.003J0.020
N16690G3X263.965Y245.059I-0.020J0.003
N16700G2X262.008Y246.259I0.470J2.963
N16710G1X226.857Y294.636
N16720G1Z3.900
N16730G1X218.627Y305.961
N16740G1Z-0.100F3000.0
N16750G1X183.469Y354.348F9000.0
N16760G2X182.933Y356.580I2.427J1.763
N16770G3X182.917Y356.603I-0.020J0.003
N16780G3X182.894Y356.586I-0.003J-0.020
N16790G2X181.694Y354.628I-2.963J0.469
N16800G1X175.449Y350.090
N16810G2X171.259Y350.753I-1.764J2.427
N16820G1X107.246Y438.851
N16830G1Z3.900
N16840G1X99.016Y450.177
N16850G1Z-0.100F3000.0
N16860G1X87.699Y465.753F9000.0
N16870G2X88.363Y469.944I2.427J1.763
N16880G1X94.616Y474.484
N16890G2X96.849Y475.020I1.763J-2.428
N16900G3X96.872Y475.036I0.003J0.020
N16910G3X96.855Y475.059I-0.020J0.003
N16920G2X94.898Y476.259I0.470J2.963
N16930G1X13.859Y587.803
N16940G2Y591.330I2.427J1.763
N16950G1X94.899Y702.875
N16960G2X96.857Y704.075I2.427J-1.763
N16970G3X96.874Y704.098I-0.003J0.020
N16980G3X96.851Y704.114I-0.020J-0.003
N16990G2X94.618Y704.651I-0.469J2.963
N17000G1X88.361Y709.200
N17010G2X87.699Y713.390I1.764J2.426
N17020G1X107.067Y740.046
N17030G1Z3.900
N17040G1X115.297Y751.372
N17050G1Z-0.100F3000.0
N17060G1X171.259Y828.390F9000.0
N17070G2X175.451Y829.052I2.427J-1.763
N17080G1X181.697Y824.506
N17090G2X182.894Y822.549I-1.765J-2.426
N17100G3X182.917Y822.532I0.020J0.003
N17110G3X182.934Y822.555I-0.003J0.020
N17120G2X183.470Y824.786I2.963J0.468
N17130G1X219.179Y873.931
N17140G1Z3.900
N17150G1X227.408Y885.257
N17160G1Z-0.100F3000.0
N17170G1X262.009Y932.875F9000.0
N17180G2X263.967Y934.075I2.427J-1.763
N17190G3X263.983Y934.098I-0.003J0.020
N17200G3X263.961Y934.114I-0.020J-0.003
N17210G2X261.728Y934.651I-0.469J2.963
N17220G1X255.471Y939.200
N17230G2X254.809Y943.390I1.764J2.426
N17240G1X318.110Y1030.519
N17250G1Z3.900
N17260G1X326.338Y1041.845
N17270G1Z-0.100F3000.0
N17280G1X338.359Y1058.390F9000.0
N17290G2X342.550Y1059.053I2.427J-1.763
N17300G1X348.805Y1054.505
N17310G2X350.004Y1052.547I-1.764J-2.427
N17320G3X350.027Y1052.531I0.020J0.003
N17330G3X350.043Y1052.553I-0.003J0.020
N17340G2X350.579Y1054.786I2.963J0.469
N17350G1X431.619Y1166.330
N17360G2X434.973Y1167.420I2.427J-1.763
N17370G1X566.101Y1124.819
N17380G2X567.847Y1123.328I-0.927J-2.853
N17390G3X567.874Y1123.319I0.018J0.009
N17400G3X567.883Y1123.346I-0.009J0.018
N17410G2X567.703Y1125.635I2.673J1.362
N17420G1X570.093Y1132.984
N17430G2X573.873Y1134.909I2.853J-0.928
N17440G1X604.813Y1124.856
N17450G1Z3.900
N17460G1X618.127Y1120.529
N17470G1Z-0.100F3000.0
N17480G1X709.063Y1090.979F9000.0
N17490G2X710.989Y1087.199I-0.927J-2.853
N17500G1X708.599Y1079.851
N17510G2X707.108Y1078.105I-2.853J0.928
N17520G3X707.099Y1078.078I0.009J-0.018
N17530G3X707.126Y1078.070I0.018J0.009
N17540G2X709.415Y1078.250I1.362J-2.673
N17550G1X769.964Y1058.579
N17560G1Z3.900
N17570G1X783.279Y1054.253
N17580G1Z-0.100F3000.0
N17590G1X836.481Y1036.969F9000.0
N17600G2X838.227Y1035.478I-0.927J-2.853
N17610G3X838.254Y1035.469I0.018J0.009
N17620G3X838.263Y1035.496I-0.009J0.018
N17630G2X838.083Y1037.785I2.673J1.362
N17640G1X840.473Y1045.134
N17650G2X844.253Y1047.059I2.853J-0.928
N17660G1X941.205Y1015.555
N17670G1Z3.900
N17680G1X954.520Y1011.228
N17690G1Z-0.100F3000.0
N17700G1X979.443Y1003.129F9000.0
N17710G2X981.369Y999.349I-0.927J-2.853
N17720G1X978.979Y992.001
N17730G2X977.488Y990.255I-2.853J0.928
N17740G3X977.479Y990.228I0.009J-0.018
N17750G3X977.506Y990.219I0.018J0.009
N17760G2X979.795Y990.399I1.362J-2.673
N17770G1X1110.923Y947.789
N17780G2X1112.996Y944.936I-0.927J-2.853
N17790G1Y807.067
N17800G2X1112.117Y804.946I-3.000J0.000
N17810G3Y804.918I0.014J-0.014
N17820G3X1112.145I0.014J0.014
N17830G2X1114.267Y805.796I2.121J-2.121
N17840G1X1121.996
N17850G2X1124.996Y802.796I0.000J-3.000
N17860G1Y778.444
N17870G1Z3.900
N17880G1Y764.444
N17890G1Z-0.100F3000.0
N17900G1Y660.646F9000.0
N17910G2X1121.996Y657.646I-3.000J0.000
N17920G1X1114.267
N17930G2X1112.145Y658.525I0.000J3.000
N17940G3X1112.117I-0.014J-0.014
N17950G3Y658.497I0.014J-0.014
N17960G2X1112.996Y656.375I-2.121J-2.121
N17970G1Y594.593
N17980G1Z3.900
N17990G1Y580.593
N18000G1Z-0.100F3000.0
N18010G1Y522.767F9000.0
N18020G2X1112.117Y520.646I-3.000J0.000
N18030G3Y520.618I0.014J-0.014
N18040G3X1112.145I0.014J0.014
N18050G2X1114.267Y521.496I2.121J-2.121
N18060G1X1121.996
N18070G2X1124.996Y518.496I0.000J-3.000
N18080G1Y417.126
N18090G1Z3.900
N18100G1Y403.126
N18110G1Z-0.100F3000.0
N18120G1Y376.346F9000.0
N18130G2X1121.996Y373.346I-3.000J0.000
N18140G1X1114.267
N18150G2X1112.145Y374.225I0.000J3.000
N18160G3X1112.117I-0.014J-0.014
N18170G3Y374.197I0.014J-0.014
N18180G2X1112.996Y372.075I-2.121J-2.121
N18190G1Y234.196
N18200G2X1110.923Y231.343I-3.000J0.000
N18210G1X979.795Y188.743
N18220G2X977.506Y188.923I-0.927J2.853
N18230G3X977.479Y188.914I-0.009J-0.018
N18240G3X977.488Y188.887I0.018J-0.009
N18250G2X978.979Y187.142I-1.362J-2.673
N18260G1X981.369Y179.794
N18270G2X979.443Y176.013I-2.853J-0.928
N18280G1X947.929Y165.773
N18290G1Z3.900
N18300G1X934.615Y161.446
N18310G1Z-0.100F3000.0
N18320G1X844.253Y132.083F9000.0
N18330G2X840.473Y134.009I-0.927J2.853
N18340G1X838.083Y141.358
N18350G2X838.263Y143.647I2.853J0.928
N18360G3X838.254Y143.674I-0.018J0.009
N18370G3X838.227Y143.665I-0.009J-0.018
N18380G2X836.481Y142.174I-2.673J1.362
N18390G1X782.492Y124.634
N18400G1Z3.900
N18410G1X769.177Y120.308
N18420G1Z-0.100F3000.0
N18430G1X709.414Y100.893F9000.0
N18440G2X707.125Y101.073I-0.927J2.853
N18450G3X707.099Y101.064I-0.009J-0.018
N18460G3X707.107Y101.037I0.018J-0.009
N18470G2X708.598Y99.291I-1.362J-2.673
N18480G1X710.989Y91.933
N18490G2X709.063Y88.153I-2.853J-0.927
N18500G1X624.616Y60.718
N18510G1Z3.900
N18520G1X611.301Y56.393
N18530G1Z-0.100F3000.0
N18540G1X573.873Y44.233F9000.0
N18550G00Z23.000
N18560G00Z38.000
N18570G00X0.000Y0.000
N18580M09
N18590M30
%
