( Cuts 07 )
( File created: Saturday November 07 2020 - 07:47 PM)
( for Mach2/3 from Vectric )
( Material Size)
( X= 1220.000, Y= 1200.000, Z= 18.000)
()
(Toolpaths used in this file:)
(Cuts 07 Contour Outside)
(Tools used in this file: )
(1 = End Mill {6 mm})
N100G00G21G17G90G40G49G80
N110G71G91.1
N120T1M06
N130 (End Mill {6 mm})
N140G00G43Z38.000H1
N150S16000M03
N160(Toolpath:- Cuts 07 Contour Outside)
N170()
N180G94
N190X0.000Y0.000F9000.0
N200G00X235.709Y13.904Z23.000
N210G1Z15.738F3000.0
N220G2X233.944Y14.471I-0.009J3.000F9000.0
N230G1X133.847Y86.740
N240G1X122.496Y94.935
N250G1X13.836Y173.385
N260G2X12.736Y176.736I1.756J2.432
N270G1X85.481Y402.923
N280G1X89.767Y416.251
N290G1X182.403Y704.288
N300G1X186.690Y717.616
N310G1X230.340Y853.341
N320G2X233.187Y855.422I2.856J-0.919
N330G1X344.584Y855.755
N340G1X358.583Y855.797
N350G1X589.869Y856.489
N360G1X603.869Y856.531
N370G1X821.695Y857.183
N380G1X835.695Y857.224
N390G1X943.922Y857.548
N400G2X946.782Y855.484I0.009J-3.000
N410G1X986.850Y733.411
N420G1X991.216Y720.109
N430G1X1104.163Y376.006
N440G1X1108.529Y362.704
N450G1X1168.436Y180.193
N460G2X1167.356Y176.835I-2.850J-0.936
N470G1X1071.109Y106.467
N480G1X1059.808Y98.204
N490G1X948.206Y16.608
N500G2X946.444Y16.030I-1.771J2.422
N510G1X778.601Y15.528
N520G1X764.601Y15.486
N530G1X435.847Y14.502
N540G1X421.847Y14.460
N550G1X235.709Y13.904
N560G1Z13.475F3000.0
N570G2X233.944Y14.471I-0.009J3.000F9000.0
N580G1X133.847Y86.740
N590G1X122.496Y94.935
N600G1X13.836Y173.385
N610G2X12.736Y176.736I1.756J2.432
N620G1X85.481Y402.923
N630G1X89.767Y416.251
N640G1X182.403Y704.288
N650G1X186.690Y717.616
N660G1X230.340Y853.341
N670G2X233.187Y855.422I2.856J-0.919
N680G1X344.584Y855.755
N690G1X358.583Y855.797
N700G1X589.869Y856.489
N710G1X603.869Y856.531
N720G1X821.695Y857.183
N730G1X835.695Y857.224
N740G1X943.922Y857.548
N750G2X946.782Y855.484I0.009J-3.000
N760G1X986.850Y733.411
N770G1X991.216Y720.109
N780G1X1104.163Y376.006
N790G1X1108.529Y362.704
N800G1X1168.436Y180.193
N810G2X1167.356Y176.835I-2.850J-0.936
N820G1X1071.109Y106.467
N830G1X1059.808Y98.204
N840G1X948.206Y16.608
N850G2X946.444Y16.030I-1.771J2.422
N860G1X778.601Y15.528
N870G1X764.601Y15.486
N880G1X435.847Y14.502
N890G1X421.847Y14.460
N900G1X235.709Y13.904
N910G1Z11.212F3000.0
N920G2X233.944Y14.471I-0.009J3.000F9000.0
N930G1X133.847Y86.740
N940G1X122.496Y94.935
N950G1X13.836Y173.385
N960G2X12.736Y176.736I1.756J2.432
N970G1X85.481Y402.923
N980G1X89.767Y416.251
N990G1X182.403Y704.288
N1000G1X186.690Y717.616
N1010G1X230.340Y853.341
N1020G2X233.187Y855.422I2.856J-0.919
N1030G1X344.584Y855.755
N1040G1X358.583Y855.797
N1050G1X589.869Y856.489
N1060G1X603.869Y856.531
N1070G1X821.695Y857.183
N1080G1X835.695Y857.224
N1090G1X943.922Y857.548
N1100G2X946.782Y855.484I0.009J-3.000
N1110G1X986.850Y733.411
N1120G1X991.216Y720.109
N1130G1X1104.163Y376.006
N1140G1X1108.529Y362.704
N1150G1X1168.436Y180.193
N1160G2X1167.356Y176.835I-2.850J-0.936
N1170G1X1071.109Y106.467
N1180G1X1059.808Y98.204
N1190G1X948.206Y16.608
N1200G2X946.444Y16.030I-1.771J2.422
N1210G1X778.601Y15.528
N1220G1X764.601Y15.486
N1230G1X435.847Y14.502
N1240G1X421.847Y14.460
N1250G1X235.709Y13.904
N1260G1Z8.950F3000.0
N1270G2X233.944Y14.471I-0.009J3.000F9000.0
N1280G1X133.847Y86.740
N1290G1X122.496Y94.935
N1300G1X13.836Y173.385
N1310G2X12.736Y176.736I1.756J2.432
N1320G1X85.481Y402.923
N1330G1X89.767Y416.251
N1340G1X182.403Y704.288
N1350G1X186.690Y717.616
N1360G1X230.340Y853.341
N1370G2X233.187Y855.422I2.856J-0.919
N1380G1X344.584Y855.755
N1390G1X358.583Y855.797
N1400G1X589.869Y856.489
N1410G1X603.869Y856.531
N1420G1X821.695Y857.183
N1430G1X835.695Y857.224
N1440G1X943.922Y857.548
N1450G2X946.782Y855.484I0.009J-3.000
N1460G1X986.850Y733.411
N1470G1X991.216Y720.109
N1480G1X1104.163Y376.006
N1490G1X1108.529Y362.704
N1500G1X1168.436Y180.193
N1510G2X1167.356Y176.835I-2.850J-0.936
N1520G1X1071.109Y106.467
N1530G1X1059.808Y98.204
N1540G1X948.206Y16.608
N1550G2X946.444Y16.030I-1.771J2.422
N1560G1X778.601Y15.528
N1570G1X764.601Y15.486
N1580G1X435.847Y14.502
N1590G1X421.847Y14.460
N1600G1X235.709Y13.904
N1610G1Z6.688F3000.0
N1620G2X233.944Y14.471I-0.009J3.000F9000.0
N1630G1X133.847Y86.740
N1640G1X122.496Y94.935
N1650G1X13.836Y173.385
N1660G2X12.736Y176.736I1.756J2.432
N1670G1X85.481Y402.923
N1680G1X89.767Y416.251
N1690G1X182.403Y704.288
N1700G1X186.690Y717.616
N1710G1X230.340Y853.341
N1720G2X233.187Y855.422I2.856J-0.919
N1730G1X344.584Y855.755
N1740G1X358.583Y855.797
N1750G1X589.869Y856.489
N1760G1X603.869Y856.531
N1770G1X821.695Y857.183
N1780G1X835.695Y857.224
N1790G1X943.922Y857.548
N1800G2X946.782Y855.484I0.009J-3.000
N1810G1X986.850Y733.411
N1820G1X991.216Y720.109
N1830G1X1104.163Y376.006
N1840G1X1108.529Y362.704
N1850G1X1168.436Y180.193
N1860G2X1167.356Y176.835I-2.850J-0.936
N1870G1X1071.109Y106.467
N1880G1X1059.808Y98.204
N1890G1X948.206Y16.608
N1900G2X946.444Y16.030I-1.771J2.422
N1910G1X778.601Y15.528
N1920G1X764.601Y15.486
N1930G1X435.847Y14.502
N1940G1X421.847Y14.460
N1950G1X235.709Y13.904
N1960G1Z4.425F3000.0
N1970G2X233.944Y14.471I-0.009J3.000F9000.0
N1980G1X133.847Y86.740
N1990G1X122.496Y94.935
N2000G1X13.836Y173.385
N2010G2X12.736Y176.736I1.756J2.432
N2020G1X85.481Y402.923
N2030G1X89.767Y416.251
N2040G1X182.403Y704.288
N2050G1X186.690Y717.616
N2060G1X230.340Y853.341
N2070G2X233.187Y855.422I2.856J-0.919
N2080G1X344.584Y855.755
N2090G1X358.583Y855.797
N2100G1X589.869Y856.489
N2110G1X603.869Y856.531
N2120G1X821.695Y857.183
N2130G1X835.695Y857.224
N2140G1X943.922Y857.548
N2150G2X946.782Y855.484I0.009J-3.000
N2160G1X986.850Y733.411
N2170G1X991.216Y720.109
N2180G1X1104.163Y376.006
N2190G1X1108.529Y362.704
N2200G1X1168.436Y180.193
N2210G2X1167.356Y176.835I-2.850J-0.936
N2220G1X1071.109Y106.467
N2230G1X1059.808Y98.204
N2240G1X948.206Y16.608
N2250G2X946.444Y16.030I-1.771J2.422
N2260G1X778.601Y15.528
N2270G1X764.601Y15.486
N2280G1X435.847Y14.502
N2290G1X421.847Y14.460
N2300G1X235.709Y13.904
N2310G1Z2.163F3000.0
N2320G2X233.944Y14.471I-0.009J3.000F9000.0
N2330G1X133.847Y86.740
N2340G1Z3.900
N2350G1X122.496Y94.935
N2360G1Z2.163F3000.0
N2370G1X13.836Y173.385F9000.0
N2380G2X12.736Y176.736I1.756J2.432
N2390G1X85.481Y402.923
N2400G1Z3.900
N2410G1X89.767Y416.251
N2420G1Z2.163F3000.0
N2430G1X182.403Y704.288F9000.0
N2440G1Z3.900
N2450G1X186.690Y717.616
N2460G1Z2.163F3000.0
N2470G1X230.340Y853.341F9000.0
N2480G2X233.187Y855.422I2.856J-0.919
N2490G1X344.584Y855.755
N2500G1Z3.900
N2510G1X358.583Y855.797
N2520G1Z2.163F3000.0
N2530G1X589.869Y856.489F9000.0
N2540G1Z3.900
N2550G1X603.869Y856.531
N2560G1Z2.163F3000.0
N2570G1X821.695Y857.183F9000.0
N2580G1Z3.900
N2590G1X835.695Y857.224
N2600G1Z2.163F3000.0
N2610G1X943.922Y857.548F9000.0
N2620G2X946.782Y855.484I0.009J-3.000
N2630G1X986.850Y733.411
N2640G1Z3.900
N2650G1X991.216Y720.109
N2660G1Z2.163F3000.0
N2670G1X1104.163Y376.006F9000.0
N2680G1Z3.900
N2690G1X1108.529Y362.704
N2700G1Z2.163F3000.0
N2710G1X1168.436Y180.193F9000.0
N2720G2X1167.356Y176.835I-2.850J-0.936
N2730G1X1071.109Y106.467
N2740G1Z3.900
N2750G1X1059.808Y98.204
N2760G1Z2.163F3000.0
N2770G1X948.206Y16.608F9000.0
N2780G2X946.444Y16.030I-1.771J2.422
N2790G1X778.601Y15.528
N2800G1Z3.900
N2810G1X764.601Y15.486
N2820G1Z2.163F3000.0
N2830G1X435.847Y14.502F9000.0
N2840G1Z3.900
N2850G1X421.847Y14.460
N2860G1Z2.163F3000.0
N2870G1X235.709Y13.904F9000.0
N2880G1Z-0.100F3000.0
N2890G2X233.944Y14.471I-0.009J3.000F9000.0
N2900G1X133.847Y86.740
N2910G1Z3.900
N2920G1X122.496Y94.935
N2930G1Z-0.100F3000.0
N2940G1X13.836Y173.385F9000.0
N2950G2X12.736Y176.736I1.756J2.432
N2960G1X85.481Y402.923
N2970G1Z3.900
N2980G1X89.767Y416.251
N2990G1Z-0.100F3000.0
N3000G1X182.403Y704.288F9000.0
N3010G1Z3.900
N3020G1X186.690Y717.616
N3030G1Z-0.100F3000.0
N3040G1X230.340Y853.341F9000.0
N3050G2X233.187Y855.422I2.856J-0.919
N3060G1X344.584Y855.755
N3070G1Z3.900
N3080G1X358.583Y855.797
N3090G1Z-0.100F3000.0
N3100G1X589.869Y856.489F9000.0
N3110G1Z3.900
N3120G1X603.869Y856.531
N3130G1Z-0.100F3000.0
N3140G1X821.695Y857.183F9000.0
N3150G1Z3.900
N3160G1X835.695Y857.224
N3170G1Z-0.100F3000.0
N3180G1X943.922Y857.548F9000.0
N3190G2X946.782Y855.484I0.009J-3.000
N3200G1X986.850Y733.411
N3210G1Z3.900
N3220G1X991.216Y720.109
N3230G1Z-0.100F3000.0
N3240G1X1104.163Y376.006F9000.0
N3250G1Z3.900
N3260G1X1108.529Y362.704
N3270G1Z-0.100F3000.0
N3280G1X1168.436Y180.193F9000.0
N3290G2X1167.356Y176.835I-2.850J-0.936
N3300G1X1071.109Y106.467
N3310G1Z3.900
N3320G1X1059.808Y98.204
N3330G1Z-0.100F3000.0
N3340G1X948.206Y16.608F9000.0
N3350G2X946.444Y16.030I-1.771J2.422
N3360G1X778.601Y15.528
N3370G1Z3.900
N3380G1X764.601Y15.486
N3390G1Z-0.100F3000.0
N3400G1X435.847Y14.502F9000.0
N3410G1Z3.900
N3420G1X421.847Y14.460
N3430G1Z-0.100F3000.0
N3440G1X235.709Y13.904F9000.0
N3450G00Z23.000
N3460G00Z38.000
N3470G00X0.000Y0.000
N3480M09
N3490M30
%
